0.000000000000000000e+00
9.953467511862656991e-03
1.980786350821561737e-02
2.956417409416989273e-02
3.922337555967125855e-02
4.878643447719510640e-02
5.825430779846940688e-02
6.762794295023399904e-02
7.690827792904741944e-02
8.609624139515004160e-02
9.519275276539262975e-02
1.041987223052401879e-01
1.131150512198599856e-01
1.219426317443031982e-01
1.306823472327878211e-01
1.393350722470950709e-01
1.479016726440832707e-01
1.563830056623328746e-01
1.647799200079280713e-01
1.730932559393845160e-01
1.813238453517319604e-01
1.894725118597602176e-01
1.975400708804357919e-01
2.055273297144989408e-01
2.134350876272484987e-01
2.212641359285217879e-01
2.290152580518796110e-01
2.366892296330019851e-01
2.442868185873048326e-01
2.518087851867825133e-01
2.592558821360868571e-01
2.666288546478486898e-01
2.739284405172488501e-01
2.811553701958479090e-01
2.883103668646804785e-01
2.953941465066224348e-01
3.024074179780370519e-01
3.093508830797090381e-01
3.162252366270718040e-01
3.230311665197358462e-01
3.297693538103252386e-01
3.364404727726288957e-01
3.430451909690734880e-01
3.495841693175247844e-01
3.560580621574239713e-01
3.624675173152659413e-01
3.688131761694255495e-01
3.750956737143389397e-01
3.813156386240457163e-01
3.874736933150988438e-01
3.935704540088482695e-01
3.996065307931048194e-01
4.055825276831901416e-01
4.114990426823790237e-01
4.173566678417400810e-01
4.231559893193806987e-01
4.288975874391028897e-01
4.345820367484741764e-01
4.402099060763217109e-01
4.457817585896536317e-01
4.512981518500132072e-01
4.567596378692730941e-01
4.621667631648738173e-01
4.675200688145122463e-01
4.728200905102858398e-01
4.780673586122984320e-01
4.832623982017315578e-01
4.884057291333884221e-01
4.934978660877143986e-01
4.985393186222993878e-01
5.035305912228689174e-01
5.084721833537657609e-01
5.133645895079308463e-01
5.182082992563856738e-01
5.230037972972222393e-01
5.277515635041061248e-01
5.324520729742960867e-01
5.371057960761851380e-01
5.417131984963703406e-01
5.462747412862521967e-01
5.507908809081709656e-01
5.552620692810839031e-01
5.596887538257877548e-01
5.640713775096904969e-01
5.684103788911387678e-01
5.727061921633029851e-01
5.769592471976257020e-01
5.811699695868379756e-01
5.853387806875478550e-01
5.894660976624037652e-01
5.935523335218392260e-01
5.975978971654020144e-01
6.016031934226713229e-01
6.055686230937686876e-01
6.094945829894641287e-01
6.133814659708849426e-01
6.172296609888276997e-01
6.210395531226799992e-01
6.248115236189544230e-01
6.285459499294383523e-01
6.322432057489655310e-01
6.359036610528099320e-01
6.395276821337090301e-01
6.431156316385169269e-01
6.466678686044946556e-01
6.501847484952369971e-01
6.536666232362436935e-01
6.571138412501353887e-01
6.605267474915195169e-01
6.639056834815091346e-01
6.672509873418975834e-01
6.705629938289944247e-01
6.738420343671227553e-01
6.770884370817848996e-01
6.803025268324961461e-01
6.834846252452935200e-01
6.866350507449194840e-01
6.897541185866864488e-01
6.928421408880229837e-01
6.958994266597073874e-01
6.989262818367888430e-01
7.019230093092020395e-01
7.048899089520767047e-01
7.078272776557450463e-01
7.107354093554510976e-01
7.136145950607638566e-01
7.164651228846981024e-01
7.192872780725453330e-01
7.220813430304167113e-01
7.248475973535040140e-01
7.275863178540569187e-01
7.302977785890834017e-01
7.329822508877741338e-01
7.356400033786534287e-01
7.382713020164601847e-01
7.408764101087613740e-01
7.434555883423010769e-01
7.460090948090858376e-01
7.485371850322122267e-01
7.510401119914356105e-01
7.535181261484859006e-01
7.559714754721299501e-01
7.584004054629859271e-01
7.608051591780893297e-01
7.631859772552153087e-01
7.655430979369590716e-01
7.678767570945754795e-01
7.701871882515828327e-01
7.724746226071305122e-01
7.747392890591346948e-01
7.769814142271838087e-01
7.792012224752150606e-01
7.813989359339670315e-01
7.835747745232068961e-01
7.857289559737377083e-01
7.878616958491859723e-01
7.899732075675727216e-01
7.920637024226696576e-01
7.941333896051425700e-01
7.961824762234851471e-01
7.982111673247429540e-01
8.002196659150327962e-01
8.022081729798565819e-01
8.041768875042135667e-01
8.061260064925122037e-01
8.080557249882840409e-01
8.099662360937012195e-01
8.118577309888995730e-01
8.137303989511096569e-01
8.155844273735973760e-01
8.174200017844158728e-01
8.192373058649706774e-01
8.210365214684004487e-01
8.228178286377746398e-01
8.245814056241098644e-01
8.263274289042068510e-01
8.280560731983105383e-01
8.297675114875932012e-01
8.314619150314650486e-01
8.331394533847108486e-01
8.348002944144577997e-01
8.364446043169727618e-01
8.380725476342936187e-01
8.396842872706943295e-01
8.412799845089866668e-01
8.428597990266587514e-01
8.444238889118544922e-01
8.459724106791922660e-01
8.475055192854274999e-01
8.490233681449583791e-01
8.505261091451778999e-01
8.520138926616731556e-01
8.534868675732721899e-01
8.549451812769428560e-01
8.563889797025419082e-01
8.578184073274182087e-01
8.592336071908696082e-01
8.606347209084573846e-01
8.620218886861766849e-01
8.633952493344869694e-01
8.647549402822023445e-01
8.661010975902433406e-01
8.674338559652529090e-01
8.687533487730756399e-01
8.700597080521036419e-01
8.713530645264889740e-01
8.726335476192252916e-01
8.739012854650984874e-01
8.751564049235093234e-01
8.763990315911672768e-01
8.776292898146593746e-01
8.788473027028926854e-01
8.800531921394140200e-01
8.812470787946060646e-01
8.824290821377627214e-01
8.835993204490443231e-01
8.847579108313134988e-01
8.859049692218532446e-01
8.870406104039684214e-01
8.881649480184723444e-01
8.892780945750580202e-01
8.903801614635566963e-01
8.914712589650848340e-01
8.925514962630791693e-01
8.936209814542228624e-01
8.946798215592621784e-01
8.957281225337155872e-01
8.967659892784771714e-01
8.977935256503131178e-01
8.988108344722548493e-01
8.998180175438876827e-01
9.008151756515385689e-01
9.018024085783608035e-01
9.027798151143192618e-01
9.037474930660761574e-01
9.047055392667783247e-01
9.056540495857469120e-01
9.065931189380710409e-01
9.075228412941053202e-01
9.084433096888737680e-01
9.093546162313792536e-01
9.102568521138205693e-01
9.111501076207180194e-01
9.120344721379476383e-01
9.129100341616864789e-01
9.137768813072673080e-01
9.146351003179469252e-01
9.154847770735856649e-01
9.163259965992415212e-01
9.171588430736784536e-01
9.179833998377897597e-01
9.187997494029377377e-01
9.196079734592106369e-01
9.204081528835972303e-01
9.212003677480794517e-01
9.219846973276456525e-01
9.227612201082231458e-01
9.235300137945318122e-01
9.242911553178605466e-01
9.250447208437648783e-01
9.257907857796890960e-01
9.265294247825117679e-01
9.272607117660169873e-01
9.279847199082899012e-01
9.287015216590404076e-01
9.294111887468524680e-01
9.301137921863615876e-01
9.308094022853619087e-01
9.314980886518409164e-01
9.321799202009454222e-01
9.328549651618771588e-01
9.335232910847213184e-01
9.341849648472051459e-01
9.348400526613905859e-01
9.354886200803000929e-01
9.361307320044762736e-01
9.367664526884761367e-01
9.373958457473012817e-01
9.380189741627631417e-01
9.386359002897859405e-01
9.392466858626462578e-01
9.398513920011504208e-01
9.404500792167507228e-01
9.410428074186008018e-01
9.416296359195504007e-01
9.422106234420807302e-01
9.427858281241807692e-01
9.433553075251648323e-01
9.439191186314326298e-01
9.444773178621712617e-01
9.450299610750015900e-01
9.455771035715674344e-01
9.461188001030692574e-01
9.466551048757435582e-01
9.471860715562865352e-01
9.477117532772248998e-01
9.482322026422322914e-01
9.487474717313935102e-01
9.492576121064159045e-01
9.497626748157890209e-01
9.502627103998929625e-01
9.507577688960557882e-01
9.512478998435605071e-01
9.517331522886026685e-01
9.522135747891981028e-01
9.526892154200419238e-01
9.531601217773192358e-01
9.536263409834683236e-01
9.540879196918955474e-01
9.545449040916442751e-01
9.549973399120167405e-01
9.554452724271498276e-01
9.558887464605461126e-01
9.563278063895586101e-01
9.567624961498318870e-01
9.571928592396985458e-01
9.576189387245319651e-01
9.580407772410556300e-01
9.584584170016098303e-01
9.588718997983756154e-01
9.592812670075571146e-01
9.596865595935215598e-01
9.600878181128988942e-01
9.604850827186397488e-01
9.608783931640336728e-01
9.612677888066873955e-01
9.616533086124625651e-01
9.620349911593758518e-01
9.624128746414586377e-01
9.627869968725791816e-01
9.631573952902268143e-01
9.635241069592578311e-01
9.638871685756050800e-01
9.642466164699492470e-01
9.646024866113547258e-01
9.649548146108692936e-01
9.653036357250872612e-01
9.656489848596773173e-01
9.659908965728760677e-01
9.663294050789454914e-01
9.666645442515973130e-01
9.669963476273821801e-01
9.673248484090458676e-01
9.676500794688516205e-01
9.679720733518697440e-01
9.682908622792342213e-01
9.686064781513670230e-01
9.689189525511703316e-01
9.692283167471869021e-01
9.695346016967291147e-01
9.698378380489767192e-01
9.701380561480437148e-01
9.704352860360152544e-01
9.707295574559532403e-01
9.710208998548732762e-01
9.713093423866908660e-01
9.715949139151388581e-01
9.718776430166562452e-01
9.721575579832468783e-01
9.724346868253115339e-01
9.727090572744501173e-01
9.729806967862369982e-01
9.732496325429683681e-01
9.735158914563823984e-01
9.737795001703518638e-01
9.740404850635511202e-01
9.742988722520947720e-01
9.745546875921518026e-01
9.748079566825325060e-01
9.750587048672503254e-01
9.753069572380579366e-01
9.755527386369579057e-01
9.757960736586890338e-01
9.760369866531867222e-01
9.762755017280205783e-01
9.765116427508060415e-01
9.767454333515929177e-01
9.769768969252302648e-01
9.772060566337071874e-01
9.774329354084708710e-01
9.776575559527207471e-01
9.778799407436808977e-01
9.781001120348491451e-01
9.783180918582237151e-01
9.785339020265081400e-01
9.787475641352937350e-01
9.789590995652209804e-01
9.791685294841189213e-01
9.793758748491231403e-01
9.795811564087729684e-01
9.797843947050880464e-01
9.799856100756235699e-01
9.801848226555055499e-01
9.803820523794458675e-01
9.805773189837364567e-01
9.807706420082250576e-01
9.809620407982702073e-01
9.811515345066768035e-01
9.813391420956130151e-01
9.815248823385078758e-01
9.817087738219293369e-01
9.818908349474448904e-01
9.820710839334624298e-01
9.822495388170536801e-01
9.824262174557586436e-01
9.826011375293733918e-01
9.827743165417180959e-01
9.829457718223897356e-01
9.831155205284954901e-01
9.832835796463698097e-01
9.834499659932742777e-01
9.836146962190804866e-01
9.837777868079358168e-01
9.839392540799135611e-01
9.840991141926453967e-01
9.842573831429387576e-01
9.844140767683772220e-01
9.845692107489055767e-01
9.847228006083987850e-01
9.848748617162152996e-01
9.850254092887353874e-01
9.851744583908833564e-01
9.853220239376354606e-01
9.854681206955121509e-01
9.856127632840556707e-01
9.857559661772933302e-01
9.858977437051854587e-01
9.860381100550599243e-01
9.861770792730309987e-01
9.863146652654060098e-01
9.864508818000756740e-01
9.865857425078931042e-01
9.867192608840364976e-01
9.868514502893608320e-01
9.869823239517336866e-01
9.871118949673600707e-01
9.872401763020919319e-01
9.873671807927262289e-01
9.874929211482890157e-01
9.876174099513078675e-01
9.877406596590702081e-01
9.878626826048705345e-01
9.879834909992440961e-01
9.881030969311891399e-01
9.882215123693762759e-01
9.883387491633466304e-01
9.884548190446968974e-01
9.885697336282540659e-01
9.886835044132371575e-01
9.887961427844081941e-01
9.889076600132111761e-01
9.890180672589001798e-01
9.891273755696561309e-01
9.892355958836922536e-01
9.893427390303485280e-01
9.894488157311753795e-01
9.895538366010068199e-01
9.896578121490222646e-01
9.897607527797985805e-01
9.898626687943508085e-01
9.899635703911632278e-01
9.900634676672098733e-01
9.901623706189648377e-01
9.902602891434026944e-01
9.903572330389888156e-01
9.904532120066597001e-01
9.905482356507940844e-01
9.906423134801736197e-01
9.907354549089349982e-01
9.908276692575110900e-01
9.909189657535644180e-01
9.910093535329105308e-01
9.910988416404312717e-01
9.911874390309811655e-01
9.912751545702827016e-01
9.913619970358134026e-01
9.914479751176847877e-01
9.915330974195115665e-01
9.916173724592725058e-01
9.917008086701631919e-01
9.917834144014394671e-01
9.918651979192532053e-01
9.919461674074793178e-01
9.920263309685349862e-01
9.921056966241900144e-01
9.921842723163699640e-01
9.922620659079505190e-01
9.923390851835446336e-01
9.924153378502813538e-01
9.924908315385770896e-01
9.925655738028988928e-01
9.926395721225210744e-01
9.927128339022730508e-01
9.927853664732803063e-01
9.928571770936984731e-01
9.929282729494393056e-01
9.929986611548898834e-01
9.930683487536242637e-01
9.931373427191085845e-01
9.932056499553989504e-01
9.932732772978321023e-01
9.933402315137094263e-01
9.934065193029743002e-01
9.934721472988822244e-01
9.935371220686650684e-01
9.936014501141876565e-01
9.936651378725991357e-01
9.937281917169763501e-01
9.937906179569621079e-01
9.938524228393962323e-01
9.939136125489409501e-01
9.939741932086996190e-01
9.940341708808296817e-01
9.940935515671486256e-01
9.941523412097355017e-01
9.942105456915248940e-01
9.942681708368956706e-01
9.943252224122541838e-01
9.943817061266108093e-01
9.944376276321517105e-01
9.944929925248040536e-01
9.945478063447960038e-01
9.946020745772113925e-01
9.946558026525386120e-01
9.947089959472135146e-01
9.947616597841580921e-01
9.948137994333124956e-01
9.948654201121630569e-01
9.949165269862637606e-01
9.949671251697533858e-01
9.950172197258675411e-01
9.950668156674448150e-01
9.951159179574289304e-01
9.951645315093649025e-01
9.952126611878910900e-01
9.952603118092256951e-01
9.953074881416489328e-01
9.953541949059800942e-01
9.954004367760498351e-01
9.954462183791682461e-01
9.954915442965872607e-01
9.955364190639598432e-01
9.955808471717932928e-01
9.956248330658987733e-01
9.956683811478364010e-01
9.957114957753551154e-01
9.957541812628296629e-01
9.957964418816913632e-01
9.958382818608561005e-01
9.958797053871476512e-01
9.959207166057160165e-01
9.959613196204526453e-01
9.960015184944013278e-01
9.960413172501639822e-01
9.960807198703043319e-01
9.961197302977451429e-01
9.961583524361637965e-01
9.961965901503824217e-01
9.962344472667549189e-01
9.962719275735494318e-01
9.963090348213280434e-01
9.963457727233213657e-01
9.963821449558006860e-01
9.964181551584457841e-01
9.964538069347087523e-01
9.964891038521749289e-01
9.965240494429198348e-01
9.965586472038625576e-01
9.965929005971158050e-01
9.966268130503320721e-01
9.966603879570470337e-01
9.966936286770187170e-01
9.967265385365642327e-01
9.967591208288918425e-01
9.967913788144313614e-01
9.968233157211597861e-01
9.968549347449247033e-01
9.968862390497637005e-01
9.969172317682216677e-01
9.969479160016632147e-01
9.969782948205841988e-01
9.970083712649179253e-01
9.970381483443401249e-01
9.970676290385697138e-01
9.970968162976669991e-01
9.971257130423291093e-01
9.971543221641820942e-01
9.971826465260701378e-01
9.972106889623423287e-01
9.972384522791361006e-01
9.972659392546582291e-01
9.972931526394623880e-01
9.973200951567251504e-01
9.973467695025175495e-01
9.973731783460757505e-01
9.973993243300675049e-01
9.974252100708570490e-01
9.974508381587666728e-01
9.974762111583358459e-01
9.975013316085781234e-01
9.975262020232350535e-01
9.975508248910277542e-01
9.975752026759057145e-01
9.975993378172939297e-01
9.976232327303364844e-01
9.976468898061383594e-01
9.976703114120047955e-01
9.976934998916781039e-01
9.977164575655724787e-01
9.977391867310054785e-01
9.977616896624288412e-01
9.977839686116553031e-01
9.978060258080844180e-01
9.978278634589254903e-01
9.978494837494183978e-01
9.978708888430523061e-01
9.978920808817821619e-01
9.979130619862429663e-01
9.979338342559621600e-01
9.979543997695695667e-01
9.979747605850054493e-01
9.979949187397263444e-01
9.980148762509091220e-01
9.980346351156527129e-01
9.980541973111780596e-01
9.980735647950257361e-01
9.980927395052521245e-01
9.981117233606232597e-01
9.981305182608066762e-01
9.981491260865618109e-01
9.981675486999277425e-01
9.981857879444100412e-01
9.982038456451650665e-01
9.982217236091821544e-01
9.982394236254652498e-01
9.982569474652113195e-01
9.982742968819878771e-01
9.982914736119080645e-01
9.983084793738051799e-01
9.983253158694036511e-01
9.983419847834901217e-01
9.983584877840818717e-01
9.983748265225933505e-01
9.983910026340018229e-01
9.984070177370109045e-01
9.984228734342125433e-01
9.984385713122472250e-01
9.984541129419628458e-01
9.984694998785720310e-01
9.984847336618075664e-01
9.984998158160766080e-01
9.985147478506131158e-01
9.985295312596289552e-01
9.985441675224634439e-01
9.985586581037313447e-01
9.985730044534693040e-01
9.985872080072812906e-01
9.986012701864818153e-01
9.986151923982385936e-01
9.986289760357128786e-01
9.986426224781993488e-01
9.986561330912639978e-01
9.986695092268803586e-01
9.986827522235653953e-01
9.986958634065132845e-01
9.987088440877275319e-01
9.987216955661530893e-01
9.987344191278056948e-01
9.987470160459006596e-01
9.987594875809806538e-01
9.987718349810414953e-01
9.987840594816568274e-01
9.987961623061025751e-01
9.988081446654782924e-01
9.988200077588292869e-01
9.988317527732660794e-01
9.988433808840831984e-01
9.988548932548770853e-01
9.988662910376622239e-01
9.988775753729868256e-01
9.988887473900462943e-01
9.988998082067969131e-01
9.989107589300674217e-01
9.989216006556695948e-01
9.989323344685081540e-01
9.989429614426894588e-01
9.989534826416284208e-01
9.989638991181555294e-01
9.989742119146219901e-01
9.989844220630038629e-01
9.989945305850055357e-01
9.990045384921618643e-01
9.990144467859394251e-01
9.990242564578367679e-01
9.990339684894835592e-01
9.990435838527389478e-01
9.990531035097884871e-01
9.990625284132409467e-01
9.990718595062230145e-01
9.990810977224743317e-01
9.990902439864401963e-01
9.990992992133649331e-01
9.991082643093825988e-01
9.991171401716083533e-01
9.991259276882277218e-01
9.991346277385859675e-01
9.991432411932756885e-01
9.991517689142238590e-01
9.991602117547787598e-01
9.991685705597943556e-01
9.991768461657158928e-01
9.991850394006627223e-01
9.991931510845116771e-01
9.992011820289788959e-01
9.992091330377014247e-01
9.992170049063168191e-01
9.992247984225437474e-01
9.992325143662601494e-01
9.992401535095813969e-01
9.992477166169377867e-01
9.992552044451508131e-01
9.992626177435088852e-01
9.992699572538427111e-01
9.992772237105989053e-01
9.992844178409138189e-01
9.992915403646863703e-01
9.992985919946498763e-01
9.993055734364436615e-01
9.993124853886834469e-01
9.993193285430310713e-01
9.993261035842643247e-01
9.993328111903446720e-01
9.993394520324858643e-01
9.993460267752205528e-01
9.993525360764670129e-01
9.993589805875949805e-01
9.993653609534908222e-01
9.993716778126220390e-01
9.993779317971011045e-01
9.993841235327487471e-01
9.993902536391569003e-01
9.993963227297499863e-01
9.994023314118470891e-01
9.994082802867221282e-01
9.994141699496643660e-01
9.994200009900379156e-01
9.994257739913404714e-01
9.994314895312621516e-01
9.994371481817428959e-01
9.994427505090298647e-01
9.994482970737342820e-01
9.994537884308870579e-01
9.994592251299947439e-01
9.994646077150945995e-01
9.994699367248085498e-01
9.994752126923973634e-01
9.994804361458142772e-01
9.994856076077571760e-01
9.994907275957217729e-01
9.994957966220524570e-01
9.995008151939941410e-01
9.995057838137432205e-01
9.995107029784969788e-01
9.995155731805041022e-01
9.995203949071138627e-01
9.995251686408244129e-01
9.995298948593315247e-01
9.995345740355763287e-01
9.995392066377924989e-01
9.995437931295528822e-01
9.995483339698165715e-01
9.995528296129742030e-01
9.995572805088936974e-01
9.995616871029653350e-01
9.995660498361459423e-01
9.995703691450036343e-01
9.995746454617610022e-01
9.995788792143383006e-01
9.995830708263969688e-01
9.995872207173812640e-01
9.995913293025603386e-01
9.995953969930703176e-01
9.995994241959550441e-01
9.996034113142066024e-01
9.996073587468062849e-01
9.996112668887636721e-01
9.996151361311571559e-01
9.996189668611722423e-01
9.996227594621405199e-01
9.996265143135781850e-01
9.996302317912241220e-01
9.996339122670770960e-01
9.996375561094332785e-01
9.996411636829228842e-01
9.996447353485470311e-01
9.996482714637133782e-01
9.996517723822723189e-01
9.996552384545520642e-01
9.996586700273940584e-01
9.996620674441871746e-01
9.996654310449026859e-01
9.996687611661276840e-01
9.996720581410992734e-01
9.996753222997376565e-01
9.996785539686791067e-01
9.996817534713086095e-01
9.996849211277927250e-01
9.996880572551108957e-01
9.996911621670877546e-01
9.996942361744241001e-01
9.996972795847282045e-01
9.997002927025467889e-01
9.997032758293951105e-01
9.997062292637871606e-01
9.997091533012659736e-01
9.997120482344328263e-01
9.997149143529763249e-01
9.997177519437020488e-01
9.997205612905607497e-01
9.997233426746766627e-01
9.997260963743762607e-01
9.997288226652152332e-01
9.997315218200070186e-01
9.997341941088492279e-01
9.997368397991511779e-01
9.997394591556607590e-01
9.997420524404904141e-01
9.997446199131437838e-01
9.997471618305414642e-01
9.997496784470469855e-01
9.997521700144917922e-01
9.997546367822010005e-01
9.997570789970179339e-01
9.997594969033291035e-01
9.997618907430882995e-01
9.997642607558412386e-01
9.997666071787492115e-01
9.997689302466130634e-01
9.997712301918963984e-01
9.997735072447490046e-01
9.997757616330300579e-01
9.997779935823306596e-01
9.997802033159963742e-01
9.997823910551497661e-01
9.997845570187126052e-01
9.997867014234275151e-01
9.997888244838798455e-01
9.997909264125187656e-01
9.997930074196793582e-01
9.997950677136028252e-01
9.997971075004575825e-01
9.997991269843601314e-01
9.998011263673953763e-01
9.998031058496364976e-01
9.998050656291653793e-01
9.998070059020924827e-01
9.998089268625759418e-01
9.998108287028416585e-01
9.998127116132020653e-01
9.998145757820754431e-01
9.998164213960044622e-01
9.998182486396752777e-01
9.998200576959354047e-01
9.998218487458129244e-01
9.998236219685336934e-01
9.998253775415397726e-01
9.998271156405068583e-01
9.998288364393623784e-01
9.998305401103023682e-01
9.998322268238090116e-01
9.998338967486676276e-01
9.998355500519834349e-01
9.998371868991983158e-01
9.998388074541076920e-01
9.998404118788762895e-01
9.998420003340552364e-01
9.998435729785970505e-01
9.998451299698726258e-01
9.998466714636859987e-01
9.998481976142908900e-01
9.998497085744052493e-01
9.998512044952272415e-01
9.998526855264499025e-01
9.998541518162763486e-01
9.998556035114347651e-01
9.998570407571925056e-01
9.998584636973713025e-01
9.998598724743612554e-01
9.998612672291352643e-01
9.998626481012629075e-01
9.998640152289246519e-01
9.998653687489256203e-01
9.998667087967093581e-01
9.998680355063709335e-01
9.998693490106709270e-01
9.998706494410486423e-01
9.998719369276347635e-01
9.998732115992650105e-01
9.998744735834926844e-01
9.998757230066012136e-01
9.998769599936174757e-01
9.998781846683236774e-01
9.998793971532700109e-01
9.998805975697867554e-01
9.998817860379967115e-01
9.998829626768269696e-01
9.998841276040207893e-01
9.998852809361497007e-01
9.998864227886247180e-01
9.998875532757082185e-01
9.998886725105252671e-01
9.998897806050749404e-01
9.998908776702415402e-01
9.998919638158055845e-01
9.998930391504551318e-01
9.998941037817961064e-01
9.998951578163636222e-01
9.998962013596323084e-01
9.998972345160269670e-01
9.998982573889330094e-01
9.998992700807068923e-01
9.999002726926859985e-01
9.999012653251994065e-01
9.999022480775773269e-01
9.999032210481614280e-01
9.999041843343143832e-01
9.999051380324298632e-01
9.999060822379421953e-01
9.999070170453355777e-01
9.999079425481540717e-01
9.999088588390102617e-01
9.999097660095951356e-01
9.999106641506870785e-01
9.999115533521608645e-01
9.999124337029966503e-01
9.999133052912889674e-01
9.999141682042556045e-01
9.999150225282460447e-01
9.999158683487503474e-01
9.999167057504078082e-01
9.999175348170150635e-01
9.999183556315347499e-01
9.999191682761038313e-01
9.999199728320415925e-01
9.999207693798578545e-01
9.999215579992614122e-01
9.999223387691673626e-01
9.999231117677053193e-01
9.999238770722275182e-01
9.999246347593160333e-01
9.999253849047906595e-01
9.999261275837167950e-01
9.999268628704122142e-01
9.999275908384555045e-01
9.999283115606925065e-01
9.999290251092441961e-01
9.999297315555134569e-01
9.999304309701927407e-01
9.999311234232707291e-01
9.999318089840395496e-01
9.999324877211015483e-01
9.999331597023761731e-01
9.999338249951070789e-01
9.999344836658683455e-01
9.999351357805716933e-01
9.999357814044723680e-01
9.999364206021766899e-01
9.999370534376472719e-01
9.999376799742106803e-01
9.999383002745626525e-01
9.999389144007753139e-01
9.999395224143026173e-01
9.999401243759871161e-01
9.999407203460655147e-01
9.999413103841749972e-01
9.999418945493594446e-01
9.999424729000746526e-01
9.999430454941947710e-01
9.999436123890179662e-01
9.999441736412719717e-01
9.999447293071198617e-01
9.999452794421658242e-01
9.999458241014603788e-01
9.999463633395064832e-01
9.999468972102640851e-01
9.999474257671565613e-01
9.999479490630751588e-01
9.999484671503847677e-01
9.999489800809292506e-01
9.999494879060361052e-01
9.999499906765223489e-01
9.999504884426988482e-01
9.999509812543759812e-01
9.999514691608679673e-01
9.999519522109986402e-01
9.999524304531054453e-01
9.999529039350449899e-01
9.999533727041974851e-01
9.999538368074714079e-01
9.999542962913084976e-01
9.999547512016880857e-01
9.999552015841320918e-01
9.999556474837090203e-01
9.999560889450389567e-01
9.999565260122978971e-01
9.999569587292221895e-01
9.999573871391125301e-01
9.999578112848389599e-01
9.999582312088446390e-01
9.999586469531503985e-01
9.999590585593587377e-01
9.999594660686580427e-01
9.999598695218268052e-01
9.999602689592375082e-01
9.999606644208609563e-01
9.999610559462700499e-01
9.999614435746435603e-01
9.999618273447707928e-01
9.999622072950544727e-01
9.999625834635152977e-01
9.999629558877956015e-01
9.999633246051629065e-01
9.999636896525139207e-01
9.999640510663779791e-01
9.999644088829208188e-01
9.999647631379484647e-01
9.999651138669101158e-01
9.999654611049023645e-01
9.999658048866726379e-01
9.999661452466221956e-01
9.999664822188101265e-01
9.999668158369562354e-01
9.999671461344450396e-01
9.999674731443284337e-01
9.999677968993295751e-01
9.999681174318458821e-01
9.999684347739522527e-01
9.999687489574041743e-01
9.999690600136413865e-01
9.999693679737904350e-01
9.999696728686681135e-01
9.999699747287845719e-01
9.999702735843462031e-01
9.999705694652586407e-01
9.999708624011299785e-01
9.999711524212737679e-01
9.999714395547113499e-01
9.999717238301757405e-01
9.999720052761134070e-01
9.999722839206881542e-01
9.999725597917831221e-01
9.999728329170041174e-01
9.999731033236820554e-01
9.999733710388759578e-01
9.999736360893753950e-01
9.999738985017032622e-01
9.999741583021186653e-01
9.999744155166189197e-01
9.999746701709431029e-01
9.999749222905737200e-01
9.999751719007397011e-01
9.999754190264190656e-01
9.999756636923410325e-01
9.999759059229886837e-01
9.999761457426014077e-01
9.999763831751774523e-01
9.999766182444760343e-01
9.999768509740200040e-01
9.999770813870980657e-01
9.999773095067669981e-01
9.999775353558542079e-01
9.999777589569599501e-01
9.999779803324592153e-01
9.999781995045047278e-01
9.999784164950283882e-01
9.999786313257439385e-01
9.999788440181488491e-01
9.999790545935268726e-01
9.999792630729498200e-01
9.999794694772794479e-01
9.999796738271703456e-01
9.999798761430712668e-01
9.999800764452274615e-01
9.999802747536825631e-01
9.999804710882809200e-01
9.999806654686692609e-01
9.999808579142986931e-01
9.999810484444269232e-01
9.999812370781195892e-01
9.999814238342529249e-01
9.999816087315152036e-01
9.999817917884085139e-01
9.999819730232510917e-01
9.999821524541785411e-01
9.999823300991460551e-01
9.999825059759300805e-01
9.999826801021303169e-01
9.999828524951710484e-01
9.999830231723032536e-01
9.999831921506062704e-01
9.999833594469891285e-01
9.999835250781928808e-01
9.999836890607918249e-01
9.999838514111953902e-01
9.999840121456493591e-01
9.999841712802381988e-01
9.999843288308861711e-01
9.999844848133587760e-01
9.999846392432649722e-01
9.999847921360580649e-01
9.999849435070378156e-01
9.999850933713513301e-01
9.999852417439952790e-01
9.999853886398168967e-01
9.999855340735158693e-01
9.999856780596451111e-01
9.999858206126130966e-01
9.999859617466848594e-01
9.999861014759831024e-01
9.999862398144904185e-01
9.999863767760498456e-01
9.999865123743668649e-01
9.999866466230104001e-01
9.999867795354143718e-01
9.999869111248791409e-01
9.999870414045723965e-01
9.999871703875310436e-01
9.999872980866619798e-01
9.999874245147436502e-01
9.999875496844276013e-01
9.999876736082391471e-01
9.999877962985791457e-01
9.999879177677247766e-01
9.999880380278312053e-01
9.999881570909324724e-01
9.999882749689431582e-01
9.999883916736588274e-01
9.999885072167579159e-01
9.999886216098026193e-01
9.999887348642397811e-01
9.999888469914025579e-01
9.999889580025113078e-01
9.999890679086745893e-01
9.999891767208903826e-01
9.999892844500474220e-01
9.999893911069257513e-01
9.999894967021982772e-01
9.999896012464317696e-01
9.999897047500875269e-01
9.999898072235230417e-01
9.999899086769925560e-01
9.999900091206482822e-01
9.999901085645412913e-01
9.999902070186228453e-01
9.999903044927447304e-01
9.999904009966612550e-01
9.999904965400291390e-01
9.999905911324091790e-01
9.999906847832671364e-01
9.999907775019741818e-01
9.999908692978086711e-01
9.999909601799563674e-01
9.999910501575114408e-01
9.999911392394779108e-01
9.999912274347698693e-01
9.999913147522129231e-01
9.999914012005445274e-01
9.999914867884155401e-01
9.999915715243905545e-01
9.999916554169486771e-01
9.999917384744849702e-01
9.999918207053107855e-01
9.999919021176547629e-01
9.999919827196636080e-01
9.999920625194029800e-01
9.999921415248581580e-01
9.999922197439351512e-01
9.999922971844611430e-01
9.999923738541853790e-01
9.999924497607799445e-01
9.999925249118407633e-01
9.999925993148879311e-01
9.999926729773667144e-01
9.999927459066484392e-01
9.999928181100310454e-01
9.999928895947394203e-01
9.999929603679271750e-01
9.999930304366763112e-01
9.999930998079984423e-01
9.999931684888353489e-01
9.999932364860598666e-01
9.999933038064761082e-01
9.999933704568207959e-01
9.999934364437634837e-01
9.999935017739072229e-01
9.999935664537894509e-01
9.999936304898826567e-01
9.999936938885947146e-01
9.999937566562696611e-01
9.999938187991886940e-01
9.999938803235701723e-01
9.999939412355707269e-01
9.999940015412855931e-01
9.999940612467494994e-01
9.999941203579371107e-01
9.999941788807633625e-01
9.999942368210845700e-01
9.999942941846986511e-01
9.999943509773459027e-01
9.999944072047093346e-01
9.999944628724155571e-01
9.999945179860351141e-01
9.999945725510829275e-01
9.999946265730194073e-01
9.999946800572503403e-01
9.999947330091276676e-01
9.999947854339501507e-01
9.999948373369639265e-01
9.999948887233627293e-01
9.999949395982886680e-01
9.999949899668326703e-01
9.999950398340350377e-01
9.999950892048858897e-01
9.999951380843254967e-01
9.999951864772451682e-01
9.999952343884875861e-01
9.999952818228469154e-01
9.999953287850699146e-01
9.999953752798559359e-01
9.999954213118577018e-01
9.999954668856813056e-01
9.999955120058874325e-01
9.999955566769910265e-01
9.999956009034622895e-01
9.999956446897266815e-01
9.999956880401660309e-01
9.999957309591182009e-01
9.999957734508778673e-01
9.999958155196972953e-01
9.999958571697860066e-01
9.999958984053120004e-01
9.999959392304014205e-01
9.999959796491396657e-01
9.999960196655713895e-01
9.999960592837008333e-01
9.999960985074924924e-01
9.999961373408713383e-01
9.999961757877234847e-01
9.999962138518961874e-01
9.999962515371982885e-01
9.999962888474009937e-01
9.999963257862378718e-01
9.999963623574051885e-01
9.999963985645625719e-01
9.999964344113332348e-01
9.999964699013040859e-01
9.999965050380268394e-01
9.999965398250172388e-01
9.999965742657564993e-01
9.999966083636910863e-01
9.999966421222328261e-01
9.999966755447601274e-01
9.999967086346173151e-01
9.999967413951157402e-01
9.999967738295335584e-01
9.999968059411165067e-01
9.999968377330779035e-01
9.999968692085989819e-01
9.999969003708294446e-01
9.999969312228876861e-01
9.999969617678610145e-01
9.999969920088058739e-01
9.999970219487485101e-01
9.999970515906848600e-01
9.999970809375812175e-01
9.999971099923741225e-01
9.999971387579711379e-01
9.999971672372507392e-01
9.999971954330627577e-01
9.999972233482286033e-01
9.999972509855418190e-01
9.999972783477679705e-01
9.999973054376449788e-01
9.999973322578838975e-01
9.999973588111683576e-01
9.999973851001555669e-01
9.999974111274761990e-01
9.999974368957347259e-01
9.999974624075097518e-01
9.999974876653542344e-01
9.999975126717954854e-01
9.999975374293359476e-01
9.999975619404530836e-01
9.999975862075995980e-01
9.999976102332037708e-01
9.999976340196700120e-01
9.999976575693783065e-01
9.999976808846854359e-01
9.999977039679243118e-01
9.999977268214049753e-01
9.999977494474142636e-01
9.999977718482163658e-01
9.999977940260527109e-01
9.999978159831427460e-01
9.999978377216836023e-01
9.999978592438505398e-01
9.999978805517973912e-01
9.999979016476562288e-01
9.999979225335380306e-01
9.999979432115330136e-01
9.999979636837101893e-01
9.999979839521182523e-01
9.999980040187853580e-01
9.999980238857194559e-01
9.999980435549087332e-01
9.999980630283213934e-01
9.999980823079060999e-01
9.999981013955920872e-01
9.999981202932893831e-01
9.999981390028890305e-01
9.999981575262633093e-01
9.999981758652657371e-01
9.999981940217316234e-01
9.999982119974776262e-01
9.999982297943026399e-01
9.999982474139875732e-01
9.999982648582954603e-01
9.999982821289720158e-01
9.999982992277455240e-01
9.999983161563269496e-01
9.999983329164101598e-01
9.999983495096725905e-01
9.999983659377743583e-01
9.999983822023597035e-01
9.999983983050559910e-01
9.999984142474744875e-01
9.999984300312108054e-01
9.999984456578441261e-01
9.999984611289383096e-01
9.999984764460413400e-01
9.999984916106862132e-01
9.999985066243902709e-01
9.999985214886558671e-01
9.999985362049704785e-01
9.999985507748067048e-01
9.999985651996226022e-01
9.999985794808615713e-01
9.999985936199526915e-01
9.999986076183108308e-01
9.999986214773366466e-01
9.999986351984172517e-01
9.999986487829254367e-01
9.999986622322206697e-01
9.999986755476488742e-01
9.999986887305423178e-01
9.999987017822201674e-01
9.999987147039887114e-01
9.999987274971408047e-01
9.999987401629566452e-01
9.999987527027037748e-01
9.999987651176368564e-01
9.999987774089983406e-01
9.999987895780181324e-01
9.999988016259140355e-01
9.999988135538915301e-01
9.999988253631443280e-01
9.999988370548541505e-01
9.999988486301908397e-01
9.999988600903129132e-01
9.999988714363668985e-01
9.999988826694883315e-01
9.999988937908013131e-01
9.999989048014186199e-01
9.999989157024421482e-01
9.999989264949626921e-01
9.999989371800601656e-01
9.999989477588039355e-01
9.999989582322524884e-01
9.999989686014538748e-01
9.999989788674458202e-01
9.999989890312555030e-01
9.999989990939001094e-01
9.999990090563863898e-01
9.999990189197114354e-01
9.999990286848622345e-01
9.999990383528158944e-01
9.999990479245399744e-01
9.999990574009920419e-01
9.999990667831206714e-01
9.999990760718645566e-01
9.999990852681532871e-01
9.999990943729070159e-01
9.999991033870367918e-01
9.999991123114447822e-01
9.999991211470240504e-01
9.999991298946585561e-01
9.999991385552238210e-01
9.999991471295863743e-01
9.999991556186043073e-01
9.999991640231271628e-01
9.999991723439958236e-01
9.999991805820429569e-01
9.999991887380929034e-01
9.999991968129620101e-01
9.999992048074580753e-01
9.999992127223812366e-01
9.999992205585234162e-01
9.999992283166688756e-01
9.999992359975937717e-01
9.999992436020669340e-01
9.999992511308491983e-01
9.999992585846939619e-01
9.999992659643470727e-01
9.999992732705471621e-01
9.999992805040250898e-01
9.999992876655049434e-01
9.999992947557031497e-01
9.999993017753293634e-01
9.999993087250859114e-01
9.999993156056683485e-01
9.999993224177651241e-01
9.999993291620579150e-01
9.999993358392215148e-01
9.999993424499242778e-01
9.999993489948275638e-01
9.999993554745864044e-01
9.999993618898491698e-01
9.999993682412577911e-01
9.999993745294479819e-01
9.999993807550487945e-01
9.999993869186832862e-01
9.999993930209681858e-01
9.999993990625143381e-01
9.999994050439260374e-01
9.999994109658020269e-01
9.999994168287347218e-01
9.999994226333109859e-01
9.999994283801115769e-01
9.999994340697115902e-01
9.999994397026803483e-01
9.999994452795815114e-01
9.999994508009731886e-01
9.999994562674078269e-01
9.999994616794325442e-01
9.999994670375887962e-01
9.999994723424128207e-01
9.999994775944355263e-01
9.999994827941822706e-01
9.999994879421736371e-01
9.999994930389245473e-01
9.999994980849451487e-01
9.999995030807403706e-01
9.999995080268100356e-01
9.999995129236491920e-01
9.999995177717477812e-01
9.999995225715910818e-01
9.999995273236592652e-01
9.999995320284278399e-01
9.999995366863676516e-01
9.999995412979448828e-01
9.999995458636208312e-01
9.999995503838525757e-01
9.999995548590923100e-01
9.999995592897877872e-01
9.999995636763826523e-01
9.999995680193155545e-01
9.999995723190212571e-01
9.999995765759299715e-01
9.999995807904676903e-01
9.999995849630561873e-01
9.999995890941129062e-01
9.999995931840512942e-01
9.999995972332806904e-01
9.999996012422061042e-01
9.999996052112288814e-01
9.999996091407460375e-01
9.999996130311509246e-01
9.999996168828327869e-01
9.999996206961770939e-01
9.999996244715653182e-01
9.999996282093754907e-01
9.999996319099813125e-01
9.999996355737533760e-01
9.999996392010581658e-01
9.999996427922587250e-01
9.999996463477144326e-01
9.999996498677808932e-01
9.999996533528106024e-01
9.999996568031521704e-01
9.999996602191507655e-01
9.999996636011484474e-01
9.999996669494835011e-01
9.999996702644909918e-01
9.999996735465026543e-01
9.999996767958468924e-01
9.999996800128490015e-01
9.999996831978307243e-01
9.999996863511108058e-01
9.999996894730047714e-01
9.999996925638251488e-01
9.999996956238811352e-01
9.999996986534789301e-01
9.999997016529217353e-01
9.999997046225097552e-01
9.999997075625399745e-01
9.999997104733067133e-01
9.999997133551012940e-01
9.999997162082119306e-01
9.999997190329242835e-01
9.999997218295209045e-01
9.999997245982817917e-01
9.999997273394838349e-01
9.999997300534013700e-01
9.999997327403060687e-01
9.999997354004668271e-01
9.999997380341496545e-01
9.999997406416182288e-01
9.999997432231334527e-01
9.999997457789536748e-01
9.999997483093345796e-01
9.999997508145294089e-01
9.999997532947889622e-01
9.999997557503612633e-01
9.999997581814921155e-01
9.999997605884247687e-01
9.999997629714000302e-01
9.999997653306565981e-01
9.999997676664302837e-01
9.999997699789548999e-01
9.999997722684619283e-01
9.999997745351802969e-01
9.999997767793370462e-01
9.999997790011566634e-01
9.999997812008615261e-01
9.999997833786716805e-01
9.999997855348049525e-01
9.999997876694773913e-01
9.999997897829022708e-01
9.999997918752913106e-01
9.999997939468538988e-01
9.999997959977972029e-01
9.999997980283265031e-01
9.999998000386449704e-01
9.999998020289537770e-01
9.999998039994522081e-01
9.999998059503373282e-01
9.999998078818043146e-01
9.999998097940464570e-01
9.999998116872552689e-01
9.999998135616200434e-01
9.999998154173284082e-01
9.999998172545661035e-01
9.999998190735167602e-01
9.999998208743626771e-01
9.999998226572839322e-01
9.999998244224588273e-01
9.999998261700642210e-01
9.999998279002748625e-01
9.999998296132638353e-01
9.999998313092026692e-01
9.999998329882610060e-01
9.999998346506069336e-01
9.999998362964067633e-01
9.999998379258251413e-01
9.999998395390251593e-01
9.999998411361683548e-01
9.999998427174142668e-01
9.999998442829214351e-01
9.999998458328462903e-01
9.999998473673440413e-01
9.999998488865682322e-01
9.999998503906708525e-01
9.999998518798024483e-01
9.999998533541120116e-01
9.999998548137470911e-01
9.999998562588537920e-01
9.999998576895765545e-01
9.999998591060588193e-01
9.999998605084420289e-01
9.999998618968667374e-01
9.999998632714718338e-01
9.999998646323947638e-01
9.999998659797717515e-01
9.999998673137378002e-01
9.999998686344261367e-01
9.999998699419692105e-01
9.999998712364975839e-01
9.999998725181409309e-01
9.999998737870274823e-01
9.999998750432841366e-01
9.999998762870367930e-01
9.999998775184096855e-01
9.999998787375262710e-01
9.999998799445083408e-01
9.999998811394767984e-01
9.999998823225511035e-01
9.999998834938498282e-01
9.999998846534899899e-01
9.999998858015877179e-01
9.999998869382579203e-01
9.999998880636142840e-01
9.999998891777694965e-01
9.999998902808349133e-01
9.999998913729211125e-01
9.999998924541372292e-01
9.999998935245913989e-01
9.999998945843909803e-01
9.999998956336417777e-01
9.999998966724489291e-01
9.999998977009163514e-01
9.999998987191469624e-01
9.999998997272426804e-01
9.999999007253043137e-01
9.999999017134317825e-01
9.999999026917238965e-01
9.999999036602786884e-01
9.999999046191929697e-01
9.999999055685627747e-01
9.999999065084829164e-01
9.999999074390477638e-01
9.999999083603501315e-01
9.999999092724825012e-01
9.999999101755358000e-01
9.999999110696007332e-01
9.999999119547665627e-01
9.999999128311219954e-01
9.999999136987545167e-01
9.999999145577511683e-01
9.999999154081978814e-01
9.999999162501795880e-01
9.999999170837806650e-01
9.999999179090846013e-01
9.999999187261738864e-01
9.999999195351302328e-01
9.999999203360346867e-01
9.999999211289674061e-01
9.999999219140076612e-01
9.999999226912340555e-01
9.999999234607243048e-01
9.999999242225555696e-01
9.999999249768039000e-01
9.999999257235447914e-01
9.999999264628530726e-01
9.999999271948026847e-01
9.999999279194669022e-01
9.999999286369181117e-01
9.999999293472282558e-01
9.999999300504682775e-01
9.999999307467086762e-01
9.999999314360190628e-01
9.999999321184683820e-01
9.999999327941250238e-01
9.999999334630564896e-01
9.999999341253298368e-01
9.999999347810112349e-01
9.999999354301662979e-01
9.999999360728600850e-01
9.999999367091567670e-01
9.999999373391201818e-01
9.999999379628131679e-01
9.999999385802982310e-01
9.999999391916373215e-01
9.999999397968913906e-01
9.999999403961210565e-01
9.999999409893862712e-01
9.999999415767465427e-01
9.999999421582604908e-01
9.999999427339864022e-01
9.999999433039817864e-01
9.999999438683037090e-01
9.999999444270087912e-01
9.999999449801527662e-01
9.999999455277910343e-01
9.999999460699783294e-01
9.999999466067690523e-01
9.999999471382168270e-01
9.999999476643749441e-01
9.999999481852958061e-01
9.999999487010318155e-01
9.999999492116344868e-01
9.999999497171547791e-01
9.999999502176434296e-01
9.999999507131505094e-01
9.999999512037255345e-01
9.999999516894176876e-01
9.999999521702754857e-01
9.999999526463471122e-01
9.999999531176801959e-01
9.999999535843218101e-01
9.999999540463188064e-01
9.999999545037172588e-01
9.999999549565630197e-01
9.999999554049013861e-01
9.999999558487772111e-01
9.999999562882350146e-01
9.999999567233186504e-01
9.999999571540716392e-01
9.999999575805372798e-01
9.999999580027579826e-01
9.999999584207761583e-01
9.999999588346336621e-01
9.999999592443717944e-01
9.999999596500316335e-01
9.999999600516537024e-01
9.999999604492783023e-01
9.999999608429450682e-01
9.999999612326935239e-01
9.999999616185626383e-01
9.999999620005910472e-01
9.999999623788169423e-01
9.999999627532781821e-01
9.999999631240121811e-01
9.999999634910561319e-01
9.999999638544467828e-01
9.999999642142203271e-01
9.999999645704129581e-01
9.999999649230602028e-01
9.999999652721973664e-01
9.999999656178594210e-01
9.999999659600808943e-01
9.999999662988962035e-01
9.999999666343389881e-01
9.999999669664429991e-01
9.999999672952414320e-01
9.999999676207672605e-01
9.999999679430529032e-01
9.999999682621306674e-01
9.999999685780325276e-01
9.999999688907900142e-01
9.999999692004345464e-01
9.999999695069969885e-01
9.999999698105080936e-01
9.999999701109982819e-01
9.999999704084974184e-01
9.999999707030354790e-01
9.999999709946418847e-01
9.999999712833458343e-01
9.999999715691760827e-01
9.999999718521613845e-01
9.999999721323299395e-01
9.999999724097099474e-01
9.999999726843289416e-01
9.999999729562145667e-01
9.999999732253940232e-01
9.999999734918941785e-01
9.999999737557417889e-01
9.999999740169631668e-01
9.999999742755845134e-01
9.999999745316315858e-01
9.999999747851301413e-01
9.999999750361056039e-01
9.999999752845828427e-01
9.999999755305869487e-01
9.999999757741424578e-01
9.999999760152737949e-01
9.999999762540049408e-01
9.999999764903599875e-01
9.999999767243623605e-01
9.999999769560357077e-01
9.999999771854030106e-01
9.999999774124873619e-01
9.999999776373114102e-01
9.999999778598978040e-01
9.999999780802685256e-01
9.999999782984458907e-01
9.999999785144515485e-01
9.999999787283072594e-01
9.999999789400344508e-01
9.999999791496541057e-01
9.999999793571873186e-01
9.999999795626548504e-01
9.999999797660773515e-01
9.999999799674750278e-01
9.999999801668680854e-01
9.999999803642765084e-01
9.999999805597200586e-01
9.999999807532182761e-01
9.999999809447904786e-01
9.999999811344558731e-01
9.999999813222334444e-01
9.999999815081420662e-01
9.999999816922001683e-01
9.999999818744261804e-01
9.999999820548385321e-01
9.999999822334550981e-01
9.999999824102938639e-01
9.999999825853723712e-01
9.999999827587083834e-01
9.999999829303189980e-01
9.999999831002215345e-01
9.999999832684328682e-01
9.999999834349699857e-01
9.999999835998495401e-01
9.999999837630878519e-01
9.999999839247014632e-01
9.999999840847063615e-01
9.999999842431187558e-01
9.999999843999544114e-01
9.999999845552288713e-01
9.999999847089579008e-01
9.999999848611568209e-01
9.999999850118408418e-01
9.999999851610249513e-01
9.999999853087242485e-01
9.999999854549533884e-01
9.999999855997270259e-01
9.999999857430597050e-01
9.999999858849656365e-01
9.999999860254591422e-01
9.999999861645543220e-01
9.999999863022649427e-01
9.999999864386049930e-01
9.999999865735877957e-01
9.999999867072272286e-01
9.999999868395363922e-01
9.999999869705286093e-01
9.999999871002170915e-01
9.999999872286146063e-01
9.999999873557341434e-01
9.999999874815884704e-01
9.999999876061901327e-01
9.999999877295514539e-01
9.999999878516849794e-01
9.999999879726028107e-01
9.999999880923171602e-01
9.999999882108399074e-01
9.999999883281829316e-01
9.999999884443580012e-01
9.999999885593766624e-01
9.999999886732505727e-01
9.999999887859909453e-01
9.999999888976092155e-01
9.999999890081164855e-01
9.999999891175238576e-01
9.999999892258422118e-01
9.999999893330825396e-01
9.999999894392552768e-01
9.999999895443713038e-01
9.999999896484410566e-01
9.999999897514749714e-01
9.999999898534833731e-01
9.999999899544763649e-01
9.999999900544641607e-01
9.999999901534567526e-01
9.999999902514640215e-01
9.999999903484957375e-01
9.999999904445616705e-01
9.999999905396713684e-01
9.999999906338344902e-01
9.999999907270602506e-01
9.999999908193581977e-01
9.999999909107374352e-01
9.999999910012070670e-01
9.999999910907763079e-01
9.999999911794539287e-01
9.999999912672490332e-01
9.999999913541701702e-01
9.999999914402261103e-01
9.999999915254255134e-01
9.999999916097769281e-01
9.999999916932887922e-01
9.999999917759693213e-01
9.999999918578269531e-01
9.999999919388697922e-01
9.999999920191060543e-01
9.999999920985436219e-01
9.999999921771904887e-01
9.999999922550545373e-01
9.999999923321436501e-01
9.999999924084653768e-01
9.999999924840274890e-01
9.999999925588374250e-01
9.999999926329028455e-01
9.999999927062309668e-01
9.999999927788293386e-01
9.999999928507049551e-01
9.999999929218652550e-01
9.999999929923172326e-01
9.999999930620679933e-01
9.999999931311244206e-01
9.999999931994936198e-01
9.999999932671822522e-01
9.999999933341970904e-01
9.999999934005449065e-01
9.999999934662323620e-01
9.999999935312660071e-01
9.999999935956523922e-01
9.999999936593978456e-01
9.999999937225088065e-01
9.999999937849916032e-01
9.999999938468525640e-01
9.999999939080976841e-01
9.999999939687331807e-01
9.999999940287652711e-01
9.999999940881997285e-01
9.999999941470426590e-01
9.999999942052998358e-01
9.999999942629772542e-01
9.999999943200804653e-01
9.999999943766153532e-01
9.999999944325875800e-01
9.999999944880025859e-01
9.999999945428661441e-01
9.999999945971834725e-01
9.999999946509602333e-01
9.999999947042017556e-01
9.999999947569133685e-01
9.999999948091001789e-01
9.999999948607676270e-01
9.999999949119208198e-01
9.999999949625648643e-01
9.999999950127048676e-01
9.999999950623457146e-01
9.999999951114925123e-01
9.999999951601501458e-01
9.999999952083233890e-01
9.999999952560171268e-01
9.999999953032362443e-01
9.999999953499852934e-01
9.999999953962691590e-01
9.999999954420921711e-01
9.999999954874592145e-01
9.999999955323746192e-01
9.999999955768429372e-01
9.999999956208687202e-01
9.999999956644562982e-01
9.999999957076100010e-01
9.999999957503341586e-01
9.999999957926329897e-01
9.999999958345109352e-01
9.999999958759719920e-01
9.999999959170203789e-01
9.999999959576602038e-01
9.999999959978954633e-01
9.999999960377302655e-01
9.999999960771686069e-01
9.999999961162143736e-01
9.999999961548715621e-01
9.999999961931438364e-01
9.999999962310353041e-01
9.999999962685495181e-01
9.999999963056904750e-01
9.999999963424616167e-01
9.999999963788668289e-01
9.999999964149096643e-01
9.999999964505936756e-01
9.999999964859226376e-01
9.999999965208998809e-01
9.999999965555289583e-01
9.999999965898134224e-01
9.999999966237566040e-01
9.999999966573619448e-01
9.999999966906327753e-01
9.999999967235724263e-01
9.999999967561842285e-01
9.999999967884715124e-01
9.999999968204372758e-01
9.999999968520849603e-01
9.999999968834176745e-01
9.999999969144385270e-01
9.999999969451505155e-01
9.999999969755568596e-01
9.999999970056605569e-01
9.999999970354646051e-01
9.999999970649720016e-01
9.999999970941857441e-01
9.999999971231086082e-01
9.999999971517437025e-01
9.999999971800936915e-01
9.999999972081615729e-01
9.999999972359500111e-01
9.999999972634618928e-01
9.999999972906999934e-01
9.999999973176668666e-01
9.999999973443653989e-01
9.999999973707981438e-01
9.999999973969678768e-01
9.999999974228770405e-01
9.999999974485284104e-01
9.999999974739243180e-01
9.999999974990675389e-01
9.999999975239605154e-01
9.999999975486056902e-01
9.999999975730056168e-01
9.999999975971626265e-01
9.999999976210791619e-01
9.999999976447576655e-01
9.999999976682004688e-01
9.999999976914100142e-01
9.999999977143884111e-01
9.999999977371382132e-01
9.999999977596615297e-01
9.999999977819606922e-01
9.999999978040378101e-01
9.999999978258953259e-01
9.999999978475351270e-01
9.999999978689596558e-01
9.999999978901709108e-01
9.999999979111710013e-01
9.999999979319621479e-01
9.999999979525462379e-01
9.999999979729254918e-01
9.999999979931019078e-01
9.999999980130774846e-01
9.999999980328543314e-01
9.999999980524342247e-01
9.999999980718192738e-01
9.999999980910113662e-01
9.999999981100123891e-01
9.999999981288243411e-01
9.999999981474489985e-01
9.999999981658883597e-01
9.999999981841440899e-01
9.999999982022181877e-01
9.999999982201123183e-01
9.999999982378283692e-01
9.999999982553681166e-01
9.999999982727332259e-01
9.999999982899254736e-01
9.999999983069466358e-01
9.999999983237984891e-01
9.999999983404824766e-01
9.999999983570003748e-01
9.999999983733539599e-01
9.999999983895446753e-01
9.999999984055742974e-01
9.999999984214443804e-01
9.999999984371564787e-01
9.999999984527122576e-01
9.999999984681130494e-01
9.999999984833606304e-01
9.999999984984564438e-01
9.999999985134020442e-01
9.999999985281988746e-01
9.999999985428483784e-01
9.999999985573521100e-01
9.999999985717114015e-01
9.999999985859279183e-01
9.999999986000027707e-01
9.999999986139376240e-01
9.999999986277336994e-01
9.999999986413925512e-01
9.999999986549154007e-01
9.999999986683036912e-01
9.999999986815586439e-01
9.999999986946817021e-01
9.999999987076741981e-01
9.999999987205372420e-01
9.999999987332723883e-01
9.999999987458807471e-01
9.999999987583635397e-01
9.999999987707220983e-01
9.999999987829577552e-01
9.999999987950715097e-01
9.999999988070646939e-01
9.999999988189385292e-01
9.999999988306942367e-01
9.999999988423329267e-01
9.999999988538557094e-01
9.999999988652638061e-01
9.999999988765583270e-01
9.999999988877404933e-01
9.999999988988113042e-01
9.999999989097719810e-01
9.999999989206235229e-01
9.999999989313670401e-01
9.999999989420036428e-01
9.999999989525344413e-01
9.999999989629603236e-01
9.999999989732824002e-01
9.999999989835018921e-01
9.999999989936195766e-01
9.999999990036364528e-01
9.999999990135537420e-01
9.999999990233723324e-01
9.999999990330932231e-01
9.999999990427171914e-01
9.999999990522455695e-01
9.999999990616790235e-01
9.999999990710185527e-01
9.999999990802651562e-01
9.999999990894196111e-01
9.999999990984831388e-01
9.999999991074562944e-01
9.999999991163401880e-01
9.999999991251357079e-01
9.999999991338436311e-01
9.999999991424648460e-01
9.999999991510003516e-01
9.999999991594508142e-01
9.999999991678172329e-01
9.999999991761002738e-01
9.999999991843009362e-01
9.999999991924199971e-01
9.999999992004582339e-01
9.999999992084164235e-01
9.999999992162954543e-01
9.999999992240959923e-01
9.999999992318189257e-01
9.999999992394650317e-01
9.999999992470349763e-01
9.999999992545295369e-01
9.999999992619496014e-01
9.999999992692957251e-01
9.999999992765687962e-01
9.999999992837694807e-01
9.999999992908984447e-01
9.999999992979564656e-01
9.999999993049442093e-01
9.999999993118624531e-01
9.999999993187117520e-01
9.999999993254929942e-01
9.999999993322066238e-01
9.999999993388535291e-01
9.999999993454342651e-01
9.999999993519493868e-01
9.999999993583997826e-01
9.999999993647858965e-01
9.999999993711085056e-01
9.999999993773681650e-01
9.999999993835655410e-01
9.999999993897011885e-01
9.999999993957757738e-01
9.999999994017898519e-01
9.999999994077440890e-01
9.999999994136391512e-01
9.999999994194754827e-01
9.999999994252536384e-01
9.999999994309743956e-01
9.999999994366381983e-01
9.999999994422456018e-01
9.999999994477971610e-01
9.999999994532935421e-01
9.999999994587351893e-01
9.999999994641225465e-01
9.999999994694563910e-01
9.999999994747371668e-01
9.999999994799653180e-01
9.999999994851415108e-01
9.999999994902661893e-01
9.999999994953397975e-01
9.999999995003628905e-01
9.999999995053360236e-01
9.999999995102596406e-01
9.999999995151342969e-01
9.999999995199603253e-01
9.999999995247383922e-01
9.999999995294689414e-01
9.999999995341523062e-01
9.999999995387891527e-01
9.999999995433798139e-01
9.999999995479247339e-01
9.999999995524244678e-01
9.999999995568793487e-01
9.999999995612899317e-01
9.999999995656566609e-01
9.999999995699798694e-01
9.999999995742600012e-01
9.999999995784976115e-01
9.999999995826930332e-01
9.999999995868467106e-01
9.999999995909589767e-01
9.999999995950303866e-01
9.999999995990612733e-01
9.999999996030519700e-01
9.999999996070029207e-01
9.999999996109146805e-01
9.999999996147873604e-01
9.999999996186216267e-01
9.999999996224175902e-01
9.999999996261759172e-01
9.999999996298967186e-01
9.999999996335805497e-01
9.999999996372277433e-01
9.999999996408385217e-01
9.999999996444134398e-01
9.999999996479527198e-01
9.999999996514568057e-01
9.999999996549260306e-01
9.999999996583607276e-01
9.999999996617612297e-01
9.999999996651278700e-01
9.999999996684609815e-01
9.999999996717610085e-01
9.999999996750280618e-01
9.999999996782626965e-01
9.999999996814651348e-01
9.999999996846355987e-01
9.999999996877746433e-01
9.999999996908823796e-01
9.999999996939591407e-01
9.999999996970052596e-01
9.999999997000211804e-01
9.999999997030070142e-01
9.999999997059630941e-01
9.999999997088897530e-01
9.999999997117873241e-01
9.999999997146560293e-01
9.999999997174962019e-01
9.999999997203080637e-01
9.999999997230919480e-01
9.999999997258481876e-01
9.999999997285770048e-01
9.999999997312785105e-01
9.999999997339532598e-01
9.999999997366013638e-01
9.999999997392230444e-01
9.999999997418187458e-01
9.999999997443884681e-01
9.999999997469327662e-01
9.999999997494516402e-01
9.999999997519454231e-01
9.999999997544144481e-01
9.999999997568589372e-01
9.999999997592790013e-01
9.999999997616749736e-01
9.999999997640471872e-01
9.999999997663957529e-01
9.999999997687208930e-01
9.999999997710229405e-01
9.999999997733020063e-01
9.999999997755584236e-01
9.999999997777924143e-01
9.999999997800042006e-01
9.999999997821938935e-01
9.999999997843618260e-01
9.999999997865081092e-01
9.999999997886331871e-01
9.999999997907369487e-01
9.999999997928198381e-01
9.999999997948820774e-01
9.999999997969236665e-01
9.999999997989449385e-01
9.999999998009461155e-01
9.999999998029274195e-01
9.999999998048889616e-01
9.999999998068310747e-01
9.999999998087537589e-01
9.999999998106573473e-01
9.999999998125419509e-01
9.999999998144077917e-01
9.999999998162550918e-01
9.999999998180839622e-01
9.999999998198946249e-01
9.999999998216873021e-01
9.999999998234621046e-01
9.999999998252193656e-01
9.999999998269589740e-01
9.999999998286813740e-01
9.999999998303865656e-01
9.999999998320747707e-01
9.999999998337462115e-01
9.999999998354009989e-01
9.999999998370393550e-01
9.999999998386613909e-01
9.999999998402673285e-01
9.999999998418571678e-01
9.999999998434312420e-01
9.999999998449896621e-01
9.999999998465325390e-01
9.999999998480600949e-01
9.999999998495724407e-01
9.999999998510696875e-01
9.999999998525520573e-01
9.999999998540196611e-01
9.999999998554727210e-01
9.999999998569112369e-01
9.999999998583354310e-01
9.999999998597455253e-01
9.999999998611415197e-01
9.999999998625236364e-01
9.999999998638919863e-01
9.999999998652467914e-01
9.999999998665880518e-01
9.999999998679158786e-01
9.999999998692306047e-01
9.999999998705322302e-01
9.999999998718208660e-01
9.999999998730967343e-01
9.999999998743598351e-01
9.999999998756103903e-01
9.999999998768485110e-01
9.999999998780743082e-01
9.999999998792878930e-01
9.999999998804893764e-01
9.999999998816788693e-01
9.999999998828565939e-01
9.999999998840226612e-01
9.999999998851769600e-01
9.999999998863198236e-01
9.999999998874513629e-01
9.999999998885716890e-01
9.999999998896806908e-01
9.999999998907788124e-01
9.999999998918659427e-01
9.999999998929421929e-01
9.999999998940077850e-01
9.999999998950628299e-01
9.999999998961073278e-01
9.999999998971413895e-01
9.999999998981652372e-01
9.999999998991787598e-01
9.999999999001822903e-01
9.999999999011758289e-01
9.999999999021594865e-01
9.999999999031333742e-01
9.999999999040974918e-01
9.999999999050520616e-01
9.999999999059971945e-01
9.999999999069327794e-01
9.999999999078591495e-01
9.999999999087763047e-01
9.999999999096842451e-01
9.999999999105831927e-01
9.999999999114732585e-01
9.999999999123543315e-01
9.999999999132267448e-01
9.999999999140903872e-01
9.999999999149454810e-01
9.999999999157921371e-01
9.999999999166302445e-01
9.999999999174601362e-01
9.999999999182817012e-01
9.999999999190950506e-01
9.999999999199002954e-01
9.999999999206975465e-01
9.999999999214869151e-01
9.999999999222684011e-01
9.999999999230421155e-01
9.999999999238080584e-01
9.999999999245664517e-01
9.999999999253172955e-01
9.999999999260607009e-01
9.999999999267965567e-01
9.999999999275251961e-01
9.999999999282466190e-01
9.999999999289608255e-01
9.999999999296679265e-01
9.999999999303679221e-01
9.999999999310610344e-01
9.999999999317471522e-01
9.999999999324264977e-01
9.999999999330991818e-01
9.999999999337649825e-01
9.999999999344243440e-01
9.999999999350770441e-01
9.999999999357231939e-01
9.999999999363630154e-01
9.999999999369963977e-01
9.999999999376234516e-01
9.999999999382443994e-01
9.999999999388590188e-01
9.999999999394676431e-01
9.999999999400701611e-01
9.999999999406666840e-01
9.999999999412572116e-01
9.999999999418418550e-01
9.999999999424207253e-01
9.999999999429939335e-01
9.999999999435612574e-01
9.999999999441230303e-01
9.999999999446792520e-01
9.999999999452298116e-01
9.999999999457750421e-01
9.999999999463147216e-01
9.999999999468490719e-01
9.999999999473780932e-01
9.999999999479018964e-01
9.999999999484204816e-01
9.999999999489338487e-01
9.999999999494421088e-01
9.999999999499453729e-01
9.999999999504435300e-01
9.999999999509368021e-01
9.999999999514251892e-01
9.999999999519086913e-01
9.999999999523873084e-01
9.999999999528612626e-01
9.999999999533304429e-01
9.999999999537949602e-01
9.999999999542549256e-01
9.999999999547102281e-01
9.999999999551609786e-01
9.999999999556072883e-01
9.999999999560491570e-01
9.999999999564865849e-01
9.999999999569196829e-01
9.999999999573485621e-01
9.999999999577731113e-01
9.999999999581933308e-01
9.999999999586094424e-01
9.999999999590214461e-01
9.999999999594293421e-01
9.999999999598331302e-01
9.999999999602329215e-01
9.999999999606288270e-01
9.999999999610206247e-01
9.999999999614086477e-01
9.999999999617927848e-01
9.999999999621730362e-01
9.999999999625495128e-01
9.999999999629223257e-01
9.999999999632913639e-01
9.999999999636567383e-01
9.999999999640184489e-01
9.999999999643766069e-01
9.999999999647312121e-01
9.999999999650822646e-01
9.999999999654297644e-01
9.999999999657739336e-01
9.999999999661145500e-01
9.999999999664518358e-01
9.999999999667857908e-01
9.999999999671164153e-01
9.999999999674437090e-01
9.999999999677676721e-01
9.999999999680885265e-01
9.999999999684061613e-01
9.999999999687206875e-01
9.999999999690319941e-01
9.999999999693401920e-01
9.999999999696453923e-01
9.999999999699474840e-01
9.999999999702466891e-01
9.999999999705427856e-01
9.999999999708359955e-01
9.999999999711263188e-01
9.999999999714136445e-01
9.999999999716981947e-01
9.999999999719798582e-01
9.999999999722588573e-01
9.999999999725349697e-01
9.999999999728083067e-01
9.999999999730789790e-01
9.999999999733468758e-01
9.999999999736122192e-01
9.999999999738748979e-01
9.999999999741349122e-01
9.999999999743923729e-01
9.999999999746471691e-01
9.999999999748995227e-01
9.999999999751494340e-01
9.999999999753967916e-01
9.999999999756415958e-01
9.999999999758840685e-01
9.999999999761240987e-01
9.999999999763617975e-01
9.999999999765970538e-01
9.999999999768299785e-01
9.999999999770605719e-01
9.999999999772889447e-01
9.999999999775149861e-01
9.999999999777388071e-01
9.999999999779604076e-01
9.999999999781797877e-01
9.999999999783969473e-01
9.999999999786119975e-01
9.999999999788248273e-01
9.999999999790356586e-01
9.999999999792442695e-01
9.999999999794508820e-01
9.999999999796553851e-01
9.999999999798578898e-01
9.999999999800583961e-01
9.999999999802569040e-01
9.999999999804534134e-01
9.999999999806479245e-01
9.999999999808405482e-01
9.999999999810312845e-01
9.999999999812200224e-01
9.999999999814069840e-01
9.999999999815920582e-01
9.999999999817752450e-01
9.999999999819566554e-01
9.999999999821362895e-01
9.999999999823140362e-01
9.999999999824901176e-01
9.999999999826644226e-01
9.999999999828369512e-01
9.999999999830078146e-01
9.999999999831769015e-01
9.999999999833443232e-01
9.999999999835101905e-01
9.999999999836742814e-01
9.999999999838368181e-01
9.999999999839976894e-01
9.999999999841568954e-01
9.999999999843146581e-01
9.999999999844707554e-01
9.999999999846252985e-01
9.999999999847783982e-01
9.999999999849298327e-01
9.999999999850798238e-01
9.999999999852283716e-01
9.999999999853753652e-01
9.999999999855209154e-01
9.999999999856651334e-01
9.999999999858077970e-01
9.999999999859490174e-01
9.999999999860889055e-01
9.999999999862273503e-01
9.999999999863644629e-01
9.999999999865001321e-01
9.999999999866344691e-01
9.999999999867675848e-01
9.999999999868992573e-01
9.999999999870297085e-01
9.999999999871587164e-01
9.999999999872866141e-01
9.999999999874130685e-01
9.999999999875384127e-01
9.999999999876624246e-01
9.999999999877852153e-01
9.999999999879067847e-01
9.999999999880272439e-01
9.999999999881463708e-01
9.999999999882643875e-01
9.999999999883811830e-01
9.999999999884967572e-01
9.999999999886113322e-01
9.999999999887246860e-01
9.999999999888369295e-01
9.999999999889479518e-01
9.999999999890579749e-01
9.999999999891668878e-01
9.999999999892746905e-01
9.999999999893814939e-01
9.999999999894871872e-01
9.999999999895917702e-01
9.999999999896954650e-01
9.999999999897979386e-01
9.999999999898995240e-01
9.999999999900001102e-01
9.999999999900995862e-01
9.999999999901981740e-01
9.999999999902957626e-01
9.999999999903923520e-01
9.999999999904879422e-01
9.999999999905826442e-01
9.999999999906763470e-01
9.999999999907691617e-01
9.999999999908609771e-01
9.999999999909520154e-01
9.999999999910420545e-01
9.999999999911312054e-01
9.999999999912194681e-01
9.999999999913068427e-01
9.999999999913934401e-01
9.999999999914790383e-01
9.999999999915638593e-01
9.999999999916479032e-01
9.999999999917309479e-01
9.999999999918133264e-01
9.999999999918948168e-01
9.999999999919754190e-01
9.999999999920553551e-01
9.999999999921344029e-01
9.999999999922126737e-01
9.999999999922901672e-01
9.999999999923669947e-01
9.999999999924429339e-01
9.999999999925180960e-01
9.999999999925925920e-01
9.999999999926663108e-01
9.999999999927393635e-01
9.999999999928116390e-01
9.999999999928831373e-01
9.999999999929539696e-01
9.999999999930241357e-01
9.999999999930935246e-01
9.999999999931622474e-01
9.999999999932303041e-01
9.999999999932976946e-01
9.999999999933644190e-01
9.999999999934304773e-01
9.999999999934958694e-01
9.999999999935605954e-01
9.999999999936247663e-01
9.999999999936881601e-01
9.999999999937509987e-01
9.999999999938131712e-01
9.999999999938747886e-01
9.999999999939357398e-01
9.999999999939961359e-01
9.999999999940558659e-01
9.999999999941150408e-01
9.999999999941736606e-01
9.999999999942316142e-01
9.999999999942890128e-01
9.999999999943458562e-01
9.999999999944021445e-01
9.999999999944578777e-01
9.999999999945130558e-01
9.999999999945676787e-01
9.999999999946217466e-01
9.999999999946752594e-01
9.999999999947282170e-01
9.999999999947807305e-01
9.999999999948326890e-01
9.999999999948840923e-01
9.999999999949350515e-01
9.999999999949854557e-01
9.999999999950353047e-01
9.999999999950847096e-01
9.999999999951336704e-01
9.999999999951820762e-01
9.999999999952300378e-01
9.999999999952775553e-01
9.999999999953245178e-01
9.999999999953710361e-01
9.999999999954171104e-01
9.999999999954627405e-01
9.999999999955079266e-01
9.999999999955526686e-01
9.999999999955969665e-01
9.999999999956407093e-01
9.999999999956841190e-01
9.999999999957270846e-01
9.999999999957696062e-01
9.999999999958116836e-01
9.999999999958534280e-01
9.999999999958947283e-01
9.999999999959355845e-01
9.999999999959759966e-01
9.999999999960160757e-01
9.999999999960557107e-01
9.999999999960950126e-01
9.999999999961338704e-01
9.999999999961722841e-01
9.999999999962104758e-01
9.999999999962481123e-01
9.999999999962855268e-01
9.999999999963224973e-01
9.999999999963590236e-01
9.999999999963953279e-01
9.999999999964311881e-01
9.999999999964667152e-01
9.999999999965019093e-01
9.999999999965366593e-01
9.999999999965711872e-01
9.999999999966052711e-01
9.999999999966391329e-01
9.999999999966725506e-01
9.999999999967056352e-01
9.999999999967384978e-01
9.999999999967709163e-01
9.999999999968030018e-01
9.999999999968348652e-01
9.999999999968663955e-01
9.999999999968975928e-01
9.999999999969284570e-01
9.999999999969589881e-01
9.999999999969892972e-01
9.999999999970192732e-01
9.999999999970489162e-01
9.999999999970783371e-01
9.999999999971074249e-01
9.999999999971361797e-01
9.999999999971647124e-01
9.999999999971929121e-01
9.999999999972207787e-01
9.999999999972485343e-01
9.999999999972758458e-01
9.999999999973030462e-01
9.999999999973298026e-01
9.999999999973564480e-01
9.999999999973827602e-01
9.999999999974087395e-01
9.999999999974346077e-01
9.999999999974601428e-01
9.999999999974853448e-01
9.999999999975104359e-01
9.999999999975351939e-01
9.999999999975597298e-01
9.999999999975840437e-01
9.999999999976080245e-01
9.999999999976318943e-01
9.999999999976554310e-01
9.999999999976787457e-01
9.999999999977018383e-01
9.999999999977247089e-01
9.999999999977473575e-01
9.999999999977697840e-01
9.999999999977919884e-01
9.999999999978139709e-01
9.999999999978357312e-01
9.999999999978572696e-01
9.999999999978785858e-01
9.999999999978997911e-01
9.999999999979206633e-01
9.999999999979413134e-01
9.999999999979618526e-01
9.999999999979821697e-01
9.999999999980022647e-01
9.999999999980221377e-01
9.999999999980417886e-01
9.999999999980613286e-01
9.999999999980805354e-01
9.999999999980996312e-01
9.999999999981186161e-01
9.999999999981372678e-01
9.999999999981558085e-01
9.999999999981742382e-01
9.999999999981923349e-01
9.999999999982104315e-01
9.999999999982281951e-01
9.999999999982458476e-01
9.999999999982632781e-01
9.999999999982805976e-01
9.999999999982976950e-01
9.999999999983146814e-01
9.999999999983314458e-01
9.999999999983479881e-01
9.999999999983644194e-01
9.999999999983807397e-01
9.999999999983968380e-01
9.999999999984128252e-01
9.999999999984285903e-01
9.999999999984442445e-01
9.999999999984597876e-01
9.999999999984751087e-01
9.999999999984902077e-01
9.999999999985053067e-01
9.999999999985201837e-01
9.999999999985348387e-01
9.999999999985494936e-01
9.999999999985639265e-01
9.999999999985782484e-01
9.999999999985923482e-01
9.999999999986063370e-01
9.999999999986202148e-01
9.999999999986339816e-01
9.999999999986475263e-01
9.999999999986610710e-01
9.999999999986743937e-01
9.999999999986874943e-01
9.999999999987005950e-01
9.999999999987135846e-01
9.999999999987263521e-01
9.999999999987390087e-01
9.999999999987515542e-01
9.999999999987639887e-01
9.999999999987763122e-01
9.999999999987885246e-01
9.999999999988005150e-01
9.999999999988125055e-01
9.999999999988242738e-01
9.999999999988360422e-01
9.999999999988475885e-01
9.999999999988590238e-01
9.999999999988704591e-01
9.999999999988816723e-01
9.999999999988927746e-01
9.999999999989037658e-01
9.999999999989147570e-01
9.999999999989255262e-01
9.999999999989361843e-01
9.999999999989468424e-01
9.999999999989572785e-01
9.999999999989677146e-01
9.999999999989779287e-01
9.999999999989881427e-01
9.999999999989981347e-01
9.999999999990081267e-01
9.999999999990180077e-01
9.999999999990277777e-01
9.999999999990374366e-01
9.999999999990470956e-01
9.999999999990565325e-01
9.999999999990659694e-01
9.999999999990751842e-01
9.999999999990843991e-01
9.999999999990935029e-01
9.999999999991026067e-01
9.999999999991114885e-01
9.999999999991203703e-01
9.999999999991291411e-01
9.999999999991378008e-01
9.999999999991463495e-01
9.999999999991548982e-01
9.999999999991632249e-01
9.999999999991715516e-01
9.999999999991798783e-01
9.999999999991879829e-01
9.999999999991960875e-01
9.999999999992040811e-01
9.999999999992119637e-01
9.999999999992198463e-01
9.999999999992276178e-01
9.999999999992352784e-01
9.999999999992429389e-01
9.999999999992504884e-01
9.999999999992579269e-01
9.999999999992652544e-01
9.999999999992725819e-01
9.999999999992797983e-01
9.999999999992870148e-01
9.999999999992941202e-01
9.999999999993011146e-01
9.999999999993081090e-01
9.999999999993149924e-01
9.999999999993217648e-01
9.999999999993285371e-01
9.999999999993351985e-01
9.999999999993418598e-01
9.999999999993484101e-01
9.999999999993548494e-01
9.999999999993612887e-01
9.999999999993676170e-01
9.999999999993739452e-01
9.999999999993801625e-01
9.999999999993863797e-01
9.999999999993924860e-01
9.999999999993984812e-01
9.999999999994044764e-01
9.999999999994104716e-01
9.999999999994163558e-01
9.999999999994221289e-01
9.999999999994279021e-01
9.999999999994335642e-01
9.999999999994392264e-01
9.999999999994447775e-01
9.999999999994503286e-01
9.999999999994557687e-01
9.999999999994612088e-01
9.999999999994665378e-01
9.999999999994718669e-01
9.999999999994770850e-01
9.999999999994823030e-01
9.999999999994875211e-01
9.999999999994926281e-01
9.999999999994976241e-01
9.999999999995026201e-01
9.999999999995076161e-01
9.999999999995125011e-01
9.999999999995173861e-01
9.999999999995221600e-01
9.999999999995269340e-01
9.999999999995315969e-01
9.999999999995362598e-01
9.999999999995409228e-01
9.999999999995454747e-01
9.999999999995500266e-01
9.999999999995544675e-01
9.999999999995589084e-01
9.999999999995632383e-01
9.999999999995676792e-01
9.999999999995718980e-01
9.999999999995762279e-01
9.999999999995804467e-01
9.999999999995845545e-01
9.999999999995887734e-01
9.999999999995927702e-01
9.999999999995968780e-01
9.999999999996008748e-01
9.999999999996048716e-01
9.999999999996087574e-01
9.999999999996126432e-01
9.999999999996165290e-01
9.999999999996203037e-01
9.999999999996240785e-01
9.999999999996278532e-01
9.999999999996316280e-01
9.999999999996352917e-01
9.999999999996388445e-01
9.999999999996425082e-01
9.999999999996460609e-01
9.999999999996495026e-01
9.999999999996530553e-01
9.999999999996564970e-01
9.999999999996599387e-01
9.999999999996632694e-01
9.999999999996666000e-01
9.999999999996699307e-01
9.999999999996732614e-01
9.999999999996764810e-01
9.999999999996797007e-01
9.999999999996829203e-01
9.999999999996860289e-01
9.999999999996891376e-01
9.999999999996922462e-01
9.999999999996953548e-01
9.999999999996983524e-01
9.999999999997013500e-01
9.999999999997043476e-01
9.999999999997073452e-01
9.999999999997102318e-01
9.999999999997131184e-01
9.999999999997160050e-01
9.999999999997187805e-01
9.999999999997215561e-01
9.999999999997243316e-01
9.999999999997271072e-01
9.999999999997297717e-01
9.999999999997325473e-01
9.999999999997352118e-01
9.999999999997377653e-01
9.999999999997404299e-01
9.999999999997429834e-01
9.999999999997455369e-01
9.999999999997480904e-01
9.999999999997506439e-01
9.999999999997530864e-01
9.999999999997555289e-01
9.999999999997579714e-01
9.999999999997604139e-01
9.999999999997627453e-01
9.999999999997650768e-01
9.999999999997674083e-01
9.999999999997697397e-01
9.999999999997720712e-01
9.999999999997742917e-01
9.999999999997766231e-01
9.999999999997788436e-01
9.999999999997809530e-01
9.999999999997831734e-01
9.999999999997853939e-01
9.999999999997875033e-01
9.999999999997896127e-01
9.999999999997917222e-01
9.999999999997937206e-01
9.999999999997958300e-01
9.999999999997978284e-01
9.999999999997998268e-01
9.999999999998018252e-01
9.999999999998038236e-01
9.999999999998058220e-01
9.999999999998077094e-01
9.999999999998095968e-01
9.999999999998114841e-01
9.999999999998133715e-01
9.999999999998152589e-01
9.999999999998170352e-01
9.999999999998189226e-01
9.999999999998206990e-01
9.999999999998224753e-01
9.999999999998242517e-01
9.999999999998260281e-01
9.999999999998276934e-01
9.999999999998294697e-01
9.999999999998311351e-01
9.999999999998328004e-01
9.999999999998344657e-01
9.999999999998361311e-01
9.999999999998377964e-01
9.999999999998393507e-01
9.999999999998410161e-01
9.999999999998425704e-01
9.999999999998441247e-01
9.999999999998456790e-01
9.999999999998472333e-01
9.999999999998487876e-01
9.999999999998502309e-01
9.999999999998517852e-01
9.999999999998532285e-01
9.999999999998546718e-01
9.999999999998561151e-01
9.999999999998575584e-01
9.999999999998590017e-01
9.999999999998603339e-01
9.999999999998617772e-01
9.999999999998631095e-01
9.999999999998645528e-01
9.999999999998658851e-01
9.999999999998672173e-01
9.999999999998685496e-01
9.999999999998697708e-01
9.999999999998711031e-01
9.999999999998724354e-01
9.999999999998736566e-01
9.999999999998748779e-01
9.999999999998762101e-01
9.999999999998774314e-01
9.999999999998786526e-01
9.999999999998798739e-01
9.999999999998809841e-01
9.999999999998822053e-01
9.999999999998834266e-01
9.999999999998845368e-01
9.999999999998856470e-01
9.999999999998868683e-01
9.999999999998879785e-01
9.999999999998890887e-01
9.999999999998901989e-01
9.999999999998913092e-01
9.999999999998923084e-01
9.999999999998934186e-01
9.999999999998945288e-01
9.999999999998955280e-01
9.999999999998965272e-01
9.999999999998976374e-01
9.999999999998986366e-01
9.999999999998996358e-01
9.999999999999006350e-01
9.999999999999016342e-01
9.999999999999026334e-01
9.999999999999035216e-01
9.999999999999045208e-01
9.999999999999055200e-01
9.999999999999064082e-01
