0.000000000000000000e+00
1.003917506605663326e-02
2.005563948665114657e-02
2.999162341860717867e-02
3.992621889814287894e-02
4.919608661413300138e-02
5.931760133202489127e-02
6.899032826224343884e-02
7.830585857650911030e-02
8.715952019187357680e-02
9.564422888159107572e-02
1.054285787398486218e-01
1.149486499851540694e-01
1.244877018964702792e-01
1.332570544924824296e-01
1.420682694452023165e-01
1.504012273624351914e-01
1.580866921649647650e-01
1.658102560623324062e-01
1.741967702758476511e-01
1.839142597990963968e-01
1.929090343745185898e-01
2.019651163849475184e-01
2.100765795739994168e-01
2.186222924462443984e-01
2.261177856624543570e-01
2.338708768743564259e-01
2.409054354952772092e-01
2.493146315448762917e-01
2.563265508277698945e-01
2.634443187774897499e-01
2.715857019431907049e-01
2.790127905985028134e-01
2.858721112882309234e-01
2.928212200940081278e-01
3.002119025493659166e-01
3.075155380417168294e-01
3.145892040625739572e-01
3.199929850492954087e-01
3.267524444411664120e-01
3.323655992405343818e-01
3.395592581938486343e-01
3.455373574068780207e-01
3.517517957417736763e-01
3.581447180447798750e-01
3.654637115936817948e-01
3.710172032210419801e-01
3.768209612584154100e-01
3.822234070170871800e-01
3.883869461034438197e-01
3.947195947656948478e-01
4.011926363703245957e-01
4.074304702153725422e-01
4.131384408525462515e-01
4.202993659643156077e-01
4.259927082825951672e-01
4.333538643997290052e-01
4.386840961608231004e-01
4.440406287847877276e-01
4.494277138619038880e-01
4.548293195475291983e-01
4.624113045711376047e-01
4.675470007196503297e-01
4.726619523805186129e-01
4.766170151350377360e-01
4.829341897446646770e-01
4.882244292100315630e-01
4.926469888673689623e-01
4.968050405113917933e-01
5.023782168407933124e-01
5.078494451092030459e-01
5.128838956190497900e-01
5.154436745450939883e-01
5.204268795332385178e-01
5.262838888105374480e-01
5.317364591714259792e-01
5.370173586907927010e-01
5.428179702471639390e-01
5.465901458508927169e-01
5.521297825914379676e-01
5.569103462789318781e-01
5.601349248863086716e-01
5.648481938976247507e-01
5.712652111196905302e-01
5.762875726641571994e-01
5.805085666047856696e-01
5.839749535278995207e-01
5.889328512583865693e-01
5.920354272486871849e-01
5.952447629941297613e-01
5.987619267046128124e-01
6.029967779669677119e-01
6.074858513878688138e-01
6.106506045326514087e-01
6.142618327591515826e-01
6.185358333290681410e-01
6.230646684283949188e-01
6.251160860176607770e-01
6.282999950203412842e-01
6.297558397153132370e-01
6.343819986912080378e-01
6.365474486790542175e-01
6.405629582129781507e-01
6.447564408250673340e-01
6.500621185035024840e-01
6.553575200500192377e-01
6.599763478534128591e-01
6.635169863305144800e-01
6.678384678887813175e-01
6.706348072994020582e-01
6.716857359660907134e-01
6.724366331367060967e-01
6.759116791907099353e-01
6.790622464808897529e-01
6.822963267046306957e-01
6.856192971813410697e-01
6.875927713161154031e-01
6.908320661690858788e-01
6.954592904104268669e-01
6.968047904817769034e-01
6.996945426014553604e-01
7.037813429653699826e-01
7.040694972617171921e-01
7.057592395764177295e-01
7.100316416599143921e-01
7.134760501513072173e-01
7.156082450686409580e-01
7.170517679256063204e-01
7.213785537896701960e-01
7.244312624038163895e-01
7.266464885271484153e-01
7.305468814973457015e-01
7.348378941970424849e-01
7.368981063822559463e-01
7.382059692429168152e-01
7.399385749641927967e-01
7.437852181807200758e-01
7.482348615103737721e-01
7.517377512826686203e-01
7.552529084914572088e-01
7.558053682865403244e-01
7.591362959773113595e-01
7.604297741973995439e-01
7.626670115886754475e-01
7.649323546158690590e-01
7.680621360671524567e-01
7.718536571486445119e-01
7.714757180151966542e-01
7.741839617014028008e-01
7.756821487476773802e-01
7.770373125653341484e-01
7.780504156742580335e-01
7.810735207035021110e-01
7.818579867292339003e-01
7.827895402634809097e-01
7.832211148982328730e-01
7.858628195733277089e-01
7.888311218725488905e-01
7.934381809527006890e-01
7.939464884299741732e-01
7.971247493667504846e-01
7.990437576427941169e-01
8.001217275708459864e-01
8.020546929847164330e-01
8.042820871111120429e-01
8.063976947937701034e-01
8.073937312388055343e-01
8.111993145518890946e-01
8.127185228547020301e-01
8.186973552007885679e-01
8.192993613202436132e-01
8.218667803190955468e-01
8.245489138716224353e-01
8.258436666135550164e-01
8.290155612698349996e-01
8.311163507210651558e-01
8.333252512694090397e-01
8.325198247647799255e-01
8.344178378741595736e-01
8.357752008778558395e-01
8.379628587769080150e-01
8.370410844687170560e-01
8.377813588050480043e-01
8.422759382014193275e-01
8.444354273023820801e-01
8.463354705855204996e-01
8.465265028326067753e-01
8.458876023916451770e-01
8.487287880413004748e-01
8.513610660963695231e-01
8.524276274615687488e-01
8.555384743920328994e-01
8.559767758096100687e-01
8.576084803492829423e-01
8.606186799278869870e-01
8.597453715785120520e-01
8.622608775353785004e-01
8.629652779208075719e-01
8.632716633561864361e-01
8.651091900182822370e-01
8.659078395895014602e-01
8.682465375678397601e-01
8.669679040380944279e-01
8.674715109370375599e-01
8.691538603084382197e-01
8.670937322062518549e-01
8.695166760943575657e-01
8.723696876106867837e-01
8.737712522508549462e-01
8.735423560797489495e-01
8.731521266617247035e-01
8.751256417303249213e-01
8.781446235934851074e-01
8.773534701000061942e-01
8.789740900988359806e-01
8.809736182087208878e-01
8.806410654991480014e-01
8.826201071736448078e-01
8.831724052798856084e-01
8.845143886538539002e-01
8.883264032308395564e-01
8.904865122854774828e-01
8.899903690875520246e-01
8.894978931928313459e-01
8.927379970492472783e-01
8.930454320588147032e-01
8.976119286457545643e-01
8.961376035295745002e-01
8.962427550076530469e-01
9.026693462461851114e-01
9.008989375587261872e-01
9.007259153928194317e-01
9.000784973759464735e-01
9.002153892733244511e-01
8.981681793841036487e-01
8.981715648860053580e-01
8.997092236451437186e-01
8.974728647114319502e-01
8.992122143315236515e-01
9.015187332030727418e-01
9.041154009455060203e-01
9.063705579339852436e-01
9.053368669489116893e-01
9.081401380300297976e-01
9.090546446803166036e-01
9.099623110562810036e-01
9.112308394758945607e-01
9.096475149149562123e-01
9.072092877120064847e-01
9.102125381631201995e-01
9.118836558488441213e-01
9.138086302773864578e-01
9.149328586369296357e-01
9.159652001120343057e-01
9.175675632731258302e-01
9.148284145501889286e-01
9.136396238126263114e-01
9.154089617539815649e-01
9.141832427648806103e-01
9.150824099587058225e-01
9.162592445584497591e-01
9.193544469328438495e-01
9.221475663187106431e-01
9.254681855503343879e-01
9.261250112194213679e-01
9.286226822827340355e-01
9.307936926072243322e-01
9.324074872395745617e-01
9.343331011285920251e-01
9.344280112214026213e-01
9.367990647727197917e-01
9.383655772042227561e-01
9.385463176956020392e-01
9.388913386646868808e-01
9.403631837607070443e-01
9.419268201137188656e-01
9.413688723627916533e-01
9.436363448564978329e-01
9.453029104995431808e-01
9.442924900667799548e-01
9.456289727881393992e-01
9.483261874137224323e-01
9.498875252977988515e-01
9.495125880704384791e-01
9.515965317143032509e-01
9.522977926110419711e-01
9.513766828450561652e-01
9.502106320557559549e-01
9.504147884135248914e-01
9.490155830633401068e-01
9.497967629130039668e-01
9.515663346477962747e-01
9.515637590117165256e-01
9.529493761052008072e-01
9.551688883475079050e-01
9.589913261507746478e-01
9.608750722175023462e-01
9.637387496788482055e-01
9.629242618887062788e-01
9.632547497734205155e-01
9.596918524243527315e-01
9.634566976958962581e-01
9.646700246123643963e-01
9.675320629067085676e-01
9.698426465201731572e-01
9.683874501904531362e-01
9.684327726702757211e-01
9.670548985137996656e-01
9.668238651750585833e-01
9.650217864898508191e-01
9.674777967506872356e-01
9.720743520834783657e-01
9.728919249924329327e-01
9.754159596069510441e-01
9.766713375768797389e-01
9.737194847759997884e-01
9.732499731821281364e-01
9.742332364650184706e-01
9.746451436694384407e-01
9.734281468009061689e-01
9.727031220073351081e-01
9.702938644640347610e-01
9.697479663919884585e-01
9.704698673449393409e-01
9.688960153451735557e-01
9.684881031420879971e-01
9.716596970200024330e-01
9.676403958427879370e-01
9.678191641043675242e-01
9.664475757726058713e-01
9.661058254695646941e-01
9.650170933105673976e-01
9.688154986308440408e-01
9.696430827605365677e-01
9.687664288971089555e-01
9.684699331441284365e-01
9.713599468656988201e-01
9.721643402016457713e-01
9.718177645225664074e-01
9.727709948854799116e-01
9.732815389448591370e-01
9.741127343651981851e-01
9.720802085223485545e-01
9.711288051562861900e-01
9.696466492725439590e-01
9.683211611300058808e-01
9.689809597515186557e-01
9.692408985174352232e-01
9.659785792969151075e-01
9.652391180181856267e-01
9.682824689382163452e-01
9.661822784416601584e-01
9.634806158817668109e-01
9.635589250188015820e-01
9.656880925324490272e-01
9.638747202917409274e-01
9.652306027381540865e-01
9.645123350347488689e-01
9.641391427587554519e-01
9.638096411682434139e-01
9.622938957887244849e-01
9.601048524085857849e-01
9.600303379298446016e-01
9.610255723352191248e-01
9.620787267836791168e-01
9.620651186879429773e-01
9.648103189686449976e-01
9.656332973620268545e-01
9.659527624373512866e-01
9.665059526328554362e-01
9.649859118144186176e-01
9.649933945152119330e-01
9.662773288371410141e-01
9.663462838751456507e-01
9.665280565176608274e-01
9.658143213300658392e-01
9.657226076305565066e-01
9.673929837105613716e-01
9.658845164712185349e-01
9.680651207040292805e-01
9.666951396015550646e-01
9.661625664809575520e-01
9.655459570158709814e-01
9.636371392173097572e-01
9.633809919590836657e-01
9.616734826022522720e-01
9.636404521155058633e-01
9.643036689468371669e-01
9.667386898768756121e-01
9.695191842950946493e-01
9.677269319495408473e-01
9.651197044423804883e-01
9.665264009652453359e-01
9.710687657371530612e-01
9.744360290914317879e-01
9.735897174704032375e-01
9.729092252141071651e-01
9.722012732218672237e-01
9.724746633052349098e-01
9.751124013364247389e-01
9.757636705038030822e-01
9.782139199207547930e-01
9.786278363333469343e-01
9.787900043278905393e-01
9.783855156870020497e-01
9.758811113331344878e-01
9.781452073749875575e-01
9.792310523111457110e-01
9.807194127786533766e-01
9.817258539931829064e-01
9.825267328778932718e-01
9.828681388035404032e-01
9.833582234767587194e-01
9.841944547864930337e-01
9.851626591646592823e-01
9.855616505746631617e-01
9.863216610478995339e-01
9.844563742452446808e-01
9.823076617157238122e-01
9.859228363382995797e-01
9.872613031643134862e-01
9.863022807657046975e-01
9.873557661715262057e-01
9.878790803866831505e-01
9.900232300642041183e-01
9.922455345365176482e-01
9.952368489290858156e-01
9.950280905584116820e-01
9.947143842086852983e-01
9.966786089421443284e-01
9.960534593849371676e-01
9.982445948288113380e-01
9.959992856128956351e-01
9.921474184338469060e-01
9.948187061223783267e-01
9.928243455531507999e-01
9.927270327064976474e-01
9.881577090021584908e-01
9.888001469310918612e-01
9.893126041875519583e-01
9.897340446101937639e-01
9.881509795094505222e-01
9.870302104032054880e-01
9.860751142653451096e-01
9.864285169092116279e-01
9.866610135712365892e-01
9.860231036535679339e-01
9.880903531018783159e-01
9.889147579054829995e-01
9.859526705526900914e-01
9.855619784930133020e-01
9.890592069808556985e-01
9.849218208741267189e-01
9.830674781388228922e-01
9.846637487816182199e-01
9.850548937621047552e-01
9.856192957833777024e-01
9.845601796237657410e-01
9.846188552784933545e-01
9.846203733999362440e-01
9.844716600230012382e-01
9.840869758288685043e-01
9.854268225735062225e-01
9.866901099492347837e-01
9.893041482270378273e-01
9.888494597096303407e-01
9.882979189014400312e-01
9.881586111636244674e-01
9.932118634133234591e-01
9.944771303925341588e-01
9.937299804465931086e-01
9.940618491220415409e-01
9.957543315252600502e-01
9.949133262971637803e-01
9.982210499702210971e-01
9.993910847084045423e-01
1.001897096544798638e+00
1.004709645237139792e+00
1.005213761198639588e+00
1.005735725990856144e+00
1.006072521645901663e+00
1.007613209327242743e+00
1.005661593616865801e+00
1.004121090269705308e+00
1.002204528489325286e+00
1.006357774647953507e+00
1.005671689330315477e+00
1.006223306250442429e+00
1.004537138999631152e+00
1.002790665803114933e+00
1.001267827523180998e+00
1.000634370717881971e+00
1.002329502761234226e+00
1.002468983095057942e+00
1.006434132797616288e+00
1.005379607141558829e+00
1.002621363918108299e+00
1.004161753155329739e+00
1.002423005756565955e+00
1.003497521882323884e+00
1.006089499225756745e+00
1.005319158671181157e+00
1.005041654620019820e+00
1.004919089004413513e+00
1.006779430616924209e+00
1.009772312521245219e+00
1.007951854054165430e+00
1.005045702714178146e+00
1.002062476826502957e+00
1.001843184917206919e+00
1.003928881634201575e+00
1.007484057437844083e+00
1.005960009120148602e+00
1.006388974216659404e+00
1.004642160156278052e+00
1.006551664371102550e+00
1.007121346949033880e+00
1.005361815595576136e+00
1.005062934349514325e+00
1.003549553009692730e+00
1.001968800170356610e+00
1.003482890030358288e+00
1.004051707789012315e+00
1.006126373731127677e+00
1.006204606568864346e+00
1.006314613824616400e+00
1.008732527675253232e+00
1.008525696818577844e+00
1.010109463246211092e+00
1.010036855533072098e+00
1.006414954213931123e+00
1.008792430517542416e+00
1.010658584543421501e+00
1.010552243382298432e+00
1.012138403393384234e+00
1.011861483219847369e+00
1.010680189561532938e+00
1.015621204408176714e+00
1.016260249280394268e+00
1.015980950043589459e+00
1.015445956245411674e+00
1.013763141863965433e+00
1.015258537096830782e+00
1.016197642527401523e+00
1.014633911722840232e+00
1.014461258341670113e+00
1.016309802103874338e+00
1.016814000041851296e+00
1.016053779641540977e+00
1.015393143916685892e+00
1.016252727593833116e+00
1.015306144136242317e+00
1.016807953468886305e+00
1.015933285755566740e+00
1.015721892269658699e+00
1.016325765749759302e+00
1.016513353185695356e+00
1.018035101386535191e+00
1.017676522504289638e+00
1.016726787269429666e+00
1.015134723141222439e+00
1.013984607813816385e+00
1.010626820621179922e+00
1.011883388719540644e+00
1.011583046053906809e+00
1.011670337233237404e+00
1.014808019930212080e+00
1.014615860828228300e+00
1.014989914877841404e+00
1.015755378464225922e+00
1.014675699657610730e+00
1.014930473460103233e+00
1.012359127724892227e+00
1.013604726038749737e+00
1.016030046707098844e+00
1.018077457382299489e+00
1.018704176180497134e+00
1.017747795861607241e+00
1.021519459102403493e+00
1.022238570950577463e+00
1.021916776695368290e+00
1.020591659415324814e+00
1.018917690637154649e+00
1.017729638770274558e+00
1.016483327585098850e+00
1.013788752300287976e+00
1.012278765290311133e+00
1.009416061553344512e+00
1.011016546462506938e+00
1.006586046295651515e+00
1.004686161252774657e+00
1.007139783250904141e+00
1.008704127619183044e+00
1.010572377557140245e+00
1.007311117550894197e+00
1.009698794094923802e+00
1.008762388063304982e+00
1.012329932585319892e+00
1.012192964679817786e+00
1.008646942516279177e+00
1.009121382290955715e+00
1.011069529372375264e+00
1.011768235903567792e+00
1.010302356090919451e+00
1.010498164444878499e+00
1.013989413511439563e+00
1.016995239822516162e+00
1.013466887519435922e+00
1.013277421989346339e+00
1.011895540453838782e+00
1.013906251259210523e+00
1.012413923329266607e+00
1.013545448245521730e+00
1.014774839713694865e+00
1.013986799142311934e+00
1.012377283305549103e+00
1.015441453285682361e+00
1.016817613918884033e+00
1.017453001441857907e+00
1.020499222024215058e+00
1.017131894984557139e+00
1.017088820039417030e+00
1.018647651927807152e+00
1.017430923247931496e+00
1.019379161728724892e+00
1.019237311982483796e+00
1.012869619041461000e+00
1.014014503003308088e+00
1.012464987647936354e+00
1.012248197658295323e+00
1.012813947659128022e+00
1.012868184788031423e+00
1.014439005582650877e+00
1.013362638316692710e+00
1.013195917707222282e+00
1.011599183179331840e+00
1.014969048024266352e+00
1.016873938159046142e+00
1.016795746657681576e+00
1.014783640336190729e+00
1.014469545975593023e+00
1.014929791209659538e+00
1.014590414260578610e+00
1.019018967724438784e+00
1.017825482314088203e+00
1.020124391567770905e+00
1.025969319508447164e+00
1.026850510003944894e+00
1.025988414351081790e+00
1.028701921945437192e+00
1.027418390577187424e+00
1.029378441889423179e+00
1.029400284119130538e+00
1.029386568258847667e+00
1.031023457844749691e+00
1.033454070482903164e+00
1.034437194277520122e+00
1.033539073862354218e+00
1.033150384751182038e+00
1.033608193635926042e+00
1.035427116941695092e+00
1.032346238519255888e+00
1.034077826807098255e+00
1.033709634304534664e+00
1.035288694413007304e+00
1.035350932161118287e+00
1.030945177361588527e+00
1.031276657031479527e+00
1.031336260892099288e+00
1.033668200677433591e+00
1.034391269102057809e+00
1.034907426674777753e+00
1.034603705428247089e+00
1.033163081802923822e+00
1.033134407467719118e+00
1.032644277657544851e+00
1.033615957988188283e+00
1.032722521414506600e+00
1.035658186985422002e+00
1.035057407444764488e+00
1.031679232322009865e+00
1.034580075415795442e+00
1.029235269194495705e+00
1.029119200011251012e+00
1.027608816790677393e+00
1.026974037787417915e+00
1.027851240549673584e+00
1.027373103583483216e+00
1.028284788085454871e+00
1.028235874250866599e+00
1.028900603295458405e+00
1.029272954241668980e+00
1.023522282895483082e+00
1.027262393822261588e+00
1.024067904164717158e+00
1.025169694783532481e+00
1.029464080370903423e+00
1.029606695683767281e+00
1.032241935873301264e+00
1.035225182027949886e+00
1.036240192023980100e+00
1.035712261885352925e+00
1.035939349528324227e+00
1.038322418094494770e+00
1.038201953561046498e+00
1.034332013938888517e+00
1.032474573066230805e+00
1.033655601824715831e+00
1.036439426484544679e+00
1.037605764308942913e+00
1.035581493195167679e+00
1.035317456362411681e+00
1.035823807599668633e+00
1.039396467003788516e+00
1.038231029651266013e+00
1.040521356847580847e+00
1.040467888566596999e+00
1.042256445683692689e+00
1.040348368000547197e+00
1.041651729047160302e+00
1.039940646891788667e+00
1.038730639978873604e+00
1.038994622754823904e+00
1.041497042586912780e+00
1.038161919451286996e+00
1.034177340161839487e+00
1.037758532145143908e+00
1.038264359900628264e+00
1.041284292828230429e+00
1.039520221130063371e+00
1.040691107856181130e+00
1.040870276769051639e+00
1.037093551303977179e+00
1.035459194311615816e+00
1.033056228418946842e+00
1.030976608393410876e+00
1.029499676528778496e+00
1.027553723853546153e+00
1.026637278039681522e+00
1.022579143956599212e+00
1.027870754868239977e+00
1.026860666348933027e+00
1.024082876559843092e+00
1.023789552192448049e+00
1.023247054170664860e+00
1.022917748770707957e+00
1.021760596191550796e+00
1.023161870195439693e+00
1.023595966718586991e+00
1.023559801784886147e+00
1.023870441336756532e+00
1.023537536204895515e+00
1.025689239381790907e+00
1.027985750430712608e+00
1.031811006862737079e+00
1.036306378650909021e+00
1.038374524863035608e+00
1.037248752381523476e+00
1.033627082069834335e+00
1.031442005206042012e+00
1.027925577173060878e+00
1.028630704628931358e+00
1.025317936451213274e+00
1.027952151689548455e+00
1.022427854833518834e+00
1.023581833974277711e+00
1.023017855604181792e+00
1.022750898886392035e+00
1.022290439269923246e+00
1.021171887471423734e+00
1.020795738489081561e+00
1.023844687233133488e+00
1.023082190028850480e+00
1.023724356668572089e+00
1.021494705040570050e+00
1.021627845350454811e+00
1.024371562210603326e+00
1.022040173813625996e+00
1.021089474747898018e+00
1.020291588078653833e+00
1.023294396590227695e+00
1.023410474916370383e+00
1.024706037278444670e+00
1.023584617002967434e+00
1.023109213232177961e+00
1.020481878522712771e+00
1.018049043001149956e+00
1.022435285128647564e+00
1.023090998530115314e+00
1.026240886700597654e+00
1.027283104631820931e+00
1.030937111261967853e+00
1.029246672359796388e+00
1.027752801244649516e+00
1.031541217366705565e+00
1.031714466399882513e+00
1.032573367400296371e+00
1.030915846167408612e+00
1.035401333331052554e+00
1.033653739594273091e+00
1.040445757107754998e+00
1.040712091699538266e+00
1.040887169088376307e+00
1.040122650502931956e+00
1.041414510244859093e+00
1.039177941967007079e+00
1.037681693217400891e+00
1.035013387485971492e+00
1.036309941855727113e+00
1.035473038119480993e+00
1.035133885726240210e+00
1.038947523708593224e+00
1.038330151106125587e+00
1.033490110978869669e+00
1.032426429094015718e+00
1.036181157820576626e+00
1.035136226469176801e+00
1.035600562549672476e+00
1.034762215743734393e+00
1.030573503666056823e+00
1.031717499952125472e+00
1.027405113072224596e+00
1.029687678600301082e+00
1.028477439643425972e+00
1.027063399217054140e+00
1.025550960200630968e+00
1.025900582032518216e+00
1.024925218847202890e+00
1.026183111494370026e+00
1.030849540441092005e+00
1.024706145198484686e+00
1.024613572466083422e+00
1.028174692452432870e+00
1.030985942985931381e+00
1.031795110814573535e+00
1.031001213177289877e+00
1.029644660653870281e+00
1.027421135698200816e+00
1.029221743203139861e+00
1.029055397196108945e+00
1.028637046491549967e+00
1.027596504654243015e+00
1.028629615156515964e+00
1.027636987524317425e+00
1.024657458393038345e+00
1.026439971163212617e+00
1.027036187154962699e+00
1.025235746375481094e+00
1.021817136235889434e+00
1.021308064473556376e+00
1.018643614655138308e+00
1.018109372825618753e+00
1.019972847759068380e+00
1.024841696949189362e+00
1.023674845186093085e+00
1.024208978814335369e+00
1.020249064025165131e+00
1.021292725935929679e+00
1.020624584861645978e+00
1.019599132722679879e+00
1.018850436727830822e+00
1.022227465631950993e+00
1.019290655247369060e+00
1.017591078983112629e+00
1.015503030758688974e+00
1.020139228899725525e+00
1.019224966451052872e+00
1.019895834418321767e+00
1.020212949571911221e+00
1.024245417647243750e+00
1.021149013174447839e+00
1.021271325451902356e+00
1.022020460817998133e+00
1.018779987647209673e+00
1.017815448648166532e+00
1.014360541413130701e+00
1.014206195596217164e+00
1.016331819796043812e+00
1.012047240012412308e+00
1.015564654299306424e+00
1.014162990715804291e+00
1.008090015201859702e+00
1.006826984106575784e+00
1.002868473016190753e+00
1.005164085983305311e+00
1.003236858560599076e+00
1.005500203392721392e+00
1.003572066377965255e+00
1.000354478553171500e+00
9.987314570736439689e-01
9.952470927454565297e-01
9.950230599237782636e-01
9.955520829160512397e-01
9.929378531570817179e-01
9.940193858628099122e-01
9.893571110801580026e-01
9.938835027793772037e-01
9.927612867774351368e-01
9.946202399410422057e-01
9.922367930464172092e-01
9.960053363113052782e-01
9.935325703472505099e-01
9.941215460917804947e-01
9.977814961210711431e-01
9.959162423029817024e-01
9.936696466208780887e-01
9.958671112284606108e-01
9.987543683773858483e-01
9.985530106131064176e-01
9.970201494802822806e-01
9.993159934945917700e-01
9.947704551940073081e-01
9.911534922930742564e-01
9.916047586850897932e-01
9.906771593635050888e-01
9.865185425616871395e-01
9.876265931706302847e-01
9.906797857544297203e-01
9.920035457290430347e-01
9.916043128019055297e-01
9.906415304972501223e-01
9.924600162435688322e-01
9.941331630574593570e-01
9.975624687439756944e-01
9.991042710136737171e-01
1.000643437841749694e+00
1.002110122634226608e+00
1.003276362124816412e+00
1.002643792927936817e+00
1.006283373922549629e+00
1.005681244683414022e+00
1.009184856368164906e+00
1.004134603998086073e+00
1.001571395075183002e+00
1.003343632358349335e+00
1.002267637038194437e+00
1.003995208637607162e+00
1.002966236932600896e+00
1.001596292583839087e+00
1.000066819612378310e+00
1.001819381348039162e+00
1.004230013201384608e+00
1.004653521840444208e+00
1.009104444366509590e+00
1.009932154307372265e+00
1.012461051468476869e+00
1.009578782858243651e+00
1.010070658903159613e+00
1.006631327506811280e+00
1.003768341396994668e+00
1.004217013846395723e+00
1.004199216904220870e+00
9.993911717649485160e-01
9.963049005937818503e-01
9.996093919130860650e-01
1.000214529521697981e+00
9.996645318242921574e-01
9.960263465933522076e-01
9.933390575224829711e-01
9.929382341200072570e-01
9.930469869383822257e-01
9.960902244334088884e-01
9.990635775179760314e-01
9.997006063018656352e-01
9.995000875190044320e-01
9.988414461055350468e-01
9.989835312991395266e-01
9.967191404574370361e-01
9.979504907503385924e-01
1.002479426097178772e+00
9.982294227729393565e-01
9.958102640248307491e-01
9.953271411328185048e-01
9.927131685522870841e-01
9.932872043199385548e-01
9.945731066042180490e-01
9.932809975385045176e-01
9.956482676822712152e-01
9.956300775592535901e-01
9.952712073898057898e-01
9.925677955285453491e-01
9.912205918291472351e-01
9.919944186982420087e-01
9.948101553001901243e-01
9.973176534554051287e-01
9.942267263965107738e-01
9.949430287609133394e-01
9.977723638900654057e-01
9.985082742270072753e-01
1.001073945373460505e+00
1.002554432535107232e+00
1.004646377166628080e+00
1.003990944272548758e+00
1.001782922839498324e+00
1.004151722479251108e+00
1.008156960505727007e+00
1.007339161337531985e+00
1.012066172852280621e+00
1.010973143799609675e+00
1.010586232392934214e+00
1.008904848017416311e+00
1.006085188836533861e+00
1.003462980336247368e+00
1.003347132446246404e+00
1.005544491581334743e+00
1.005263736630938265e+00
1.002233479013686868e+00
1.003047739825722706e+00
1.000856648546053718e+00
1.002743655240708076e+00
9.962949552078335103e-01
1.001881032837174557e+00
1.001301139714186661e+00
1.001534795639132058e+00
1.002191703722088434e+00
1.004722811731462828e+00
1.010413042143651907e+00
1.005857176254669083e+00
1.006001429469991937e+00
1.006078673992672812e+00
1.006208700537781997e+00
1.003505126350045629e+00
1.003387730777309805e+00
1.006573735916305390e+00
1.010003303196246538e+00
1.008412363288225810e+00
1.011169779402251612e+00
1.009426464735311946e+00
1.002236152726993845e+00
9.970482544943737313e-01
9.997067047191796618e-01
1.003246036803418173e+00
1.006223387874076947e+00
1.006777024705864498e+00
1.011134760467396587e+00
1.014366374759095635e+00
1.010205403844820271e+00
1.006882999428744041e+00
1.005462201777525211e+00
1.006042127071438363e+00
1.006068756318063251e+00
1.008567293760021411e+00
1.008533283962274929e+00
1.008931842380663246e+00
1.010233362402996216e+00
1.011652408746171572e+00
1.013543993265136889e+00
1.013456964691577644e+00
1.013277607152511806e+00
1.008837240203128927e+00
1.009798397254386915e+00
1.009780288747805344e+00
1.007770639411008862e+00
1.006749283805943307e+00
1.010694873235197244e+00
1.013095684550771924e+00
1.016527588605260490e+00
1.015622173585501109e+00
1.021822806005038276e+00
1.024114042394181023e+00
1.024403947475049925e+00
1.028482103770505196e+00
1.026533201301446985e+00
1.028226739498786069e+00
1.029696439481458503e+00
1.029720143469342375e+00
1.031662616954497791e+00
1.035172131731259659e+00
1.035049415519218030e+00
1.041329496102478602e+00
1.041392733435698492e+00
1.041730903802673858e+00
1.045988137894309888e+00
1.046267279491763347e+00
1.049899876603261228e+00
1.045321836991981890e+00
1.046638589517465023e+00
1.042721594322989498e+00
1.040172250080438676e+00
1.043591933395567883e+00
1.043264755091151574e+00
1.044489146908852639e+00
1.045675926236202313e+00
1.039041606208810586e+00
1.038472023845201431e+00
1.041420391192112493e+00
1.039302000088810463e+00
1.042779717922167615e+00
1.045601921430107994e+00
1.048532246483077524e+00
1.049006288882689653e+00
1.046733776291112639e+00
1.046608668833065359e+00
1.044695134962969396e+00
1.045108035352687814e+00
1.043994932616278959e+00
1.045867258697529723e+00
1.045651518925236889e+00
1.045514447106793421e+00
1.052124619385105708e+00
1.050261293833602672e+00
1.046961755543880379e+00
1.045269083238194563e+00
1.040959150485303297e+00
1.040803250592133633e+00
1.040267041076929910e+00
1.038081642551607287e+00
1.040347341096647726e+00
1.036698884153615774e+00
1.028657195159621063e+00
1.028222264918001283e+00
1.031074968272918335e+00
1.031798745191429445e+00
1.028994980541178439e+00
1.025216891446842915e+00
1.029053869533671062e+00
1.029094179953576216e+00
1.028203756835862182e+00
1.025416689536796877e+00
1.025826697585187963e+00
1.024286219332045667e+00
1.024974166109456242e+00
1.027506531506048093e+00
1.028678041226328110e+00
1.022861564633877007e+00
1.026843186836758459e+00
1.024963135394981517e+00
1.025649687298470170e+00
1.027742569038231801e+00
1.028211347865815251e+00
1.029331519520605420e+00
1.029678300116853240e+00
1.031446709367226600e+00
1.032349841737149942e+00
1.033950288804445172e+00
1.032679549709401901e+00
1.028242841807354369e+00
1.024853452573641466e+00
1.024739243893669327e+00
1.021912344576567655e+00
1.027650812427837401e+00
1.030543517197998860e+00
1.030931684072622811e+00
1.028104639717627000e+00
1.030183737997246274e+00
1.033041755275409646e+00
1.031002362703505648e+00
1.032327579546279850e+00
1.034942889958050838e+00
1.039439089574747177e+00
1.039394516686678038e+00
1.038253029510286973e+00
1.039958419084650254e+00
1.044822264804510015e+00
1.044532594478568610e+00
1.043368756316404244e+00
1.045279653094937977e+00
1.040838508132579499e+00
1.038402638465994787e+00
1.041431686152512581e+00
1.041706283231952135e+00
1.045196752608382962e+00
1.044382667037947243e+00
1.045056306237334143e+00
1.042247910473514505e+00
1.039223433590874102e+00
1.042936450122167402e+00
1.043987564196188655e+00
1.040156360736632202e+00
1.043044535068520684e+00
1.045335688313162592e+00
1.047142197244816719e+00
1.048818857600299914e+00
1.048106416146813658e+00
1.047642089381419561e+00
1.047142744302117068e+00
1.046734638221220592e+00
1.043150419114595717e+00
1.043924585637575619e+00
1.042820496877038261e+00
1.045790253604733211e+00
1.047592890308715941e+00
1.048569933307399893e+00
1.043581514066636906e+00
1.042057175799649071e+00
1.042399810122189185e+00
1.044758177750678696e+00
1.045038838043481411e+00
1.044367270972968331e+00
1.042148818872134397e+00
1.043528312940703362e+00
1.042812287770734647e+00
1.042395292905630155e+00
1.045659207334316942e+00
1.046229629482179124e+00
1.048329039375941463e+00
1.050242239094691055e+00
1.047326093449687967e+00
1.050427534935033380e+00
1.046922702709489839e+00
1.046197991599163934e+00
1.042346738933529249e+00
1.043310791971012952e+00
1.047763815769410245e+00
1.049449713245595106e+00
1.049768078955952921e+00
1.050226772051085611e+00
1.053550793765672733e+00
1.052913428270656260e+00
1.054559927987283041e+00
1.051502171702795474e+00
1.052194225128638472e+00
1.048641101948544874e+00
1.049550152441188100e+00
1.050075209834737899e+00
1.049116640777331799e+00
1.049950794248338815e+00
1.054577693561117302e+00
1.054927132044805926e+00
1.054195319335651027e+00
1.049845481839257744e+00
1.048393329317450773e+00
1.040304627946195160e+00
1.044261115330822998e+00
1.043970571732661501e+00
1.049170975368447944e+00
1.049467042948406537e+00
1.047333337313384849e+00
1.048389885455154102e+00
1.048212936822110253e+00
1.047544458495605735e+00
1.048759319293185666e+00
1.046553265062105886e+00
1.046277885483208436e+00
1.047960236734023498e+00
1.045756741294207481e+00
1.044397854823364336e+00
1.046139481983150210e+00
1.044883127913712739e+00
1.047111037171075898e+00
1.045819844360428297e+00
1.041175353377269852e+00
1.041796647692267541e+00
1.040779180701494333e+00
1.041358262426766768e+00
1.042070911479370476e+00
1.042849472418000190e+00
1.039307804743031083e+00
1.039343833530986805e+00
1.037917490257106223e+00
1.037407688995501953e+00
1.037621124255989624e+00
1.031575757833337326e+00
1.029796589652069549e+00
1.032233845498122360e+00
1.027924749223602330e+00
1.029853352220988727e+00
1.030795864589519883e+00
1.028347616190939506e+00
1.024953108847174610e+00
1.022924077351483385e+00
1.019958141302757193e+00
1.019566239887859549e+00
1.020605910106897829e+00
1.022588460456771431e+00
1.022140049254553373e+00
1.022112849897492737e+00
1.022762771759557099e+00
1.023902844542300850e+00
1.019086778393999193e+00
1.018346398221358085e+00
1.017473689508978207e+00
1.022471539936872009e+00
1.018161148108362335e+00
1.018387373546664643e+00
1.010637033289188969e+00
1.007669963742257702e+00
1.009310105412659642e+00
1.001458375664269429e+00
1.001864354445727745e+00
1.003241589850488280e+00
1.009376679430396440e+00
1.010343884971451445e+00
1.005673992945143702e+00
1.005124141614929467e+00
1.003471934152728506e+00
9.992917797765705767e-01
9.939145121093059254e-01
9.950607870959060630e-01
9.919651168611800518e-01
9.936812912421313371e-01
9.939609246396108322e-01
9.917223208878760410e-01
9.973947038340893467e-01
1.000114625014066672e+00
9.957147802656818314e-01
9.979274938229877323e-01
9.998304093857023345e-01
1.000570597360790348e+00
1.004096716958445157e+00
1.006337216707525295e+00
1.005073745563366039e+00
9.993161909584067359e-01
9.955352039210071391e-01
9.973161416875622187e-01
9.935297258967451528e-01
9.955304066808503549e-01
9.957274761850161138e-01
9.938573498910576731e-01
9.977075160495569861e-01
9.990660318971605891e-01
9.978299292371409779e-01
1.003678192128534263e+00
1.000538862446576749e+00
1.000509297541109177e+00
9.984870862343739883e-01
9.929971384170943605e-01
9.944142151905188687e-01
1.000856017187448321e+00
9.991489562848482331e-01
1.000803364013933994e+00
9.998652147986331062e-01
1.000944514769234184e+00
9.971612045922385592e-01
9.928309154723343743e-01
9.959505413416834818e-01
9.912262774592612846e-01
9.887993914034248766e-01
9.893717735852487483e-01
9.925095561092560636e-01
9.932371774083761373e-01
9.942227911229367665e-01
9.961022512972896870e-01
1.000486905524064829e+00
1.001269919615909165e+00
1.000109305187901976e+00
9.969121599495872621e-01
1.000883516809553564e+00
1.000007167940904829e+00
1.005008379426061138e+00
1.003212776190838484e+00
1.004231456035023839e+00
1.002537337973079756e+00
1.000588158786227311e+00
1.002543130615048517e+00
1.006602695826391614e+00
1.001507745389195181e+00
1.005079811160650483e+00
1.002550200994609897e+00
1.004276666627059278e+00
1.009498495585607669e+00
1.007501090499304253e+00
1.005943968646081155e+00
1.007709170088134876e+00
1.012676414621581866e+00
1.013096149508180721e+00
1.012876704145327489e+00
1.008921797883604921e+00
1.005700793695694761e+00
1.000080041370270401e+00
9.954222756059509791e-01
9.962939942077244648e-01
9.960284014782100348e-01
9.965288444836319925e-01
9.989200922536881633e-01
9.924822830284319997e-01
9.941523592569712076e-01
9.924164722369407388e-01
9.910145890666380852e-01
9.946017306367033184e-01
9.905633296688827194e-01
9.914017600676242603e-01
9.911696853149589703e-01
9.947993313258765014e-01
9.969740860051873321e-01
1.002346508248301182e+00
1.003051828483172425e+00
1.005299358373482388e+00
1.010488336296092360e+00
1.012704705157453366e+00
1.009758736052122519e+00
1.009787146231599708e+00
1.013313787812003097e+00
1.012126564546352636e+00
1.015293227698951251e+00
1.014468059274561851e+00
1.013045370334519690e+00
1.010548916425497490e+00
1.014331373262003400e+00
1.013422990557220738e+00
1.012283373291076538e+00
1.011448754745943868e+00
1.006666088615596033e+00
1.011749538956056238e+00
1.010552338022529195e+00
1.011882556375617970e+00
1.012724304474914572e+00
1.016057006718844358e+00
1.017570785433530522e+00
1.017197869589275161e+00
1.017276042969538219e+00
1.024052714072523740e+00
1.026071822568445979e+00
1.025155673663490585e+00
1.025198826136294983e+00
1.024611769954950846e+00
1.026134344926630471e+00
1.029539156267733402e+00
1.029641222749525076e+00
1.034779417271286528e+00
1.037890899107046350e+00
1.035724853143725754e+00
1.034870240222612425e+00
1.032725918077556093e+00
1.035400238419367014e+00
1.035725787041327228e+00
1.035168398203192952e+00
1.033306019341108550e+00
1.035700615548149628e+00
1.036022771039917911e+00
1.031824732135872447e+00
1.035302369162781622e+00
1.034158147129074390e+00
1.032617217305567658e+00
1.038203239951411394e+00
1.037746526994956175e+00
1.031050032983969356e+00
1.032489969568105570e+00
1.034474229466227690e+00
1.035053074641710591e+00
1.037391065382307076e+00
1.038686386169921594e+00
1.038210995100202538e+00
1.032080750233895339e+00
1.033905997711926483e+00
1.039230583728073087e+00
1.040412774098816495e+00
1.040677286220405229e+00
1.040117206218519108e+00
1.038653734291965058e+00
1.040158828313390682e+00
1.040010015817113276e+00
1.037429044039407833e+00
1.038582413898828216e+00
1.037691412983982930e+00
1.038314310476988522e+00
1.036799567596595750e+00
1.035244578047491482e+00
1.038454272715188642e+00
1.037310198415155815e+00
1.039480513517608840e+00
1.043351698374307412e+00
1.040605718510008160e+00
1.042872244989204500e+00
1.042876712932954808e+00
1.036486307182416855e+00
1.034224528752448968e+00
1.027759046794970654e+00
1.028915840014541061e+00
1.030807520731147342e+00
1.035693473353739735e+00
1.036808847032733238e+00
1.034386289707130091e+00
1.031383965594462548e+00
1.031066134560809422e+00
1.024908415208941825e+00
1.020860367397194102e+00
1.024704959693538697e+00
1.026102051348860122e+00
1.025709297641330897e+00
1.028638337626152754e+00
1.030059478067460343e+00
1.032689160419646202e+00
1.033719939400520316e+00
1.029191341965076667e+00
1.027160785579966262e+00
1.024427575629670129e+00
1.021816221375282385e+00
1.020790279878047047e+00
1.017667164879873853e+00
1.014836331435497119e+00
1.014827642474673386e+00
1.012085657190076038e+00
1.014736539205361110e+00
1.010014332814568760e+00
1.010938992761225119e+00
1.012239452497154968e+00
1.009423841966237356e+00
1.015898777825765320e+00
1.017054788363739526e+00
1.016281501417919175e+00
1.019536959832628487e+00
1.015378085411765774e+00
1.014127808085785620e+00
1.013728292719430657e+00
1.012724561336431073e+00
1.008228164317846121e+00
1.006391958548335408e+00
1.013003230115824271e+00
1.008969421477739381e+00
1.012911696411134210e+00
1.012976170162507739e+00
1.014035137387167440e+00
1.015047314567045555e+00
1.015621006074350685e+00
1.016208455775247099e+00
1.016308958559807740e+00
1.016147227034546852e+00
1.020540286495648541e+00
1.021872936730588544e+00
1.017384092876583601e+00
1.015783048288629420e+00
1.012551804254295362e+00
1.016158129538218047e+00
1.012247195128473276e+00
1.012592748717094482e+00
1.015038674307736200e+00
1.017408993596677025e+00
1.014577070243883883e+00
1.010029076279647553e+00
1.007051918712845051e+00
1.002397228476876734e+00
1.005938807815338398e+00
1.007527105179562454e+00
1.008269680462721363e+00
1.012344174834805655e+00
1.010173312015919977e+00
1.005677015696202048e+00
1.010241382863880544e+00
1.011747297633541542e+00
1.010303639409097842e+00
1.013069539998958435e+00
1.016136032780365461e+00
1.017321225871868906e+00
1.019473415248308701e+00
1.016747533918291868e+00
1.021436114960824648e+00
1.022565898796230721e+00
1.020252926275175387e+00
1.019109434482174503e+00
1.016513556870404233e+00
1.011751632950311341e+00
1.011721376756647972e+00
1.010131123267735909e+00
1.010747965880455013e+00
1.017789165561883369e+00
1.013276262916366077e+00
1.012783044483170247e+00
1.012720528629077688e+00
1.012268622139311347e+00
1.013515367525694932e+00
1.015153598671808322e+00
1.010913971415345891e+00
1.011184464043857867e+00
1.011733491686388708e+00
1.016130005483292242e+00
1.021653031258622057e+00
1.030118133424086757e+00
1.027718641486593976e+00
1.023886547137690561e+00
1.027198470895432703e+00
1.027548142558238675e+00
1.023434533624135279e+00
1.021869916447783133e+00
1.023263634345264350e+00
1.022517694585964199e+00
1.028161725170767093e+00
1.030907719358590935e+00
1.039515183701008372e+00
1.038836789346941236e+00
1.030490196914215506e+00
1.030238930845290390e+00
1.029543582952839875e+00
1.025370614648344780e+00
1.031050705464979789e+00
1.031219972216087966e+00
1.026711261377317497e+00
1.024932327128119436e+00
1.022312009504039887e+00
1.021349240610880171e+00
1.016273866561878014e+00
1.022268730671515025e+00
1.017413810490338077e+00
1.022823130158345473e+00
1.022565394056638155e+00
1.023562759575336711e+00
1.020030746053570692e+00
1.022225196364861421e+00
1.020801626203118762e+00
1.018918048410961230e+00
1.019664224176549006e+00
1.021464103737532714e+00
1.021735559388691872e+00
1.017602302287262450e+00
1.012595678270227006e+00
1.013141364666856337e+00
1.015993077435169312e+00
1.010531505200595426e+00
1.012381030430884454e+00
1.012830388262275561e+00
1.012563121607781502e+00
1.014247998630783743e+00
1.018802734472691318e+00
1.021690809780863685e+00
1.014260571751271378e+00
1.010213350441470981e+00
1.015529461235577635e+00
1.011390515137698731e+00
1.015311795925654792e+00
1.010933214061600527e+00
1.006559229335852512e+00
1.010333627914794974e+00
1.012205665183762093e+00
1.012360100955596920e+00
1.008556463117142421e+00
1.007823219242626411e+00
1.010091102661329732e+00
1.009691409107027926e+00
1.003698728092009551e+00
1.007484246767738956e+00
1.006708662019731637e+00
1.011029494622554425e+00
1.013284144064301451e+00
1.015182819316859497e+00
1.016759799552664489e+00
1.019940579362438760e+00
1.017047323043556828e+00
1.018464991694022048e+00
1.023732748587430130e+00
1.017959107199241098e+00
1.016518738701244651e+00
1.016729293783563026e+00
1.011535421352559361e+00
1.009993273270179737e+00
1.011635748272912361e+00
1.011798516540621806e+00
1.014381822944866673e+00
1.017199748694442185e+00
1.018896673248531393e+00
1.022583327759976957e+00
1.020249992696893759e+00
1.017546554274077142e+00
1.016076471252318703e+00
1.017874058949310268e+00
1.016125356369174559e+00
1.016841786964010952e+00
1.016984058173394878e+00
1.015701100875176621e+00
1.017132688581805500e+00
1.018690079640778068e+00
1.020809626161263362e+00
1.027782374696579515e+00
1.027504998496531208e+00
1.027143491645224005e+00
1.023001384279976334e+00
1.027549697000037288e+00
1.026930894502865454e+00
1.020845254068155628e+00
1.022987030118350571e+00
1.022914223139306911e+00
1.024744102234068865e+00
1.026227171976555885e+00
1.024442131419465607e+00
1.026900833704177174e+00
1.032363783637845644e+00
1.031125381663407392e+00
1.036944696230820639e+00
1.034410476410255297e+00
1.035874067997947012e+00
1.037042265929727813e+00
1.038599240057784145e+00
1.033719221702352975e+00
1.037605819538458762e+00
1.046887169330110945e+00
1.049773144035426320e+00
1.051281572802553743e+00
1.052776757965941057e+00
1.047731069140029669e+00
1.046771219463227265e+00
1.041149437518599452e+00
1.035666167105553814e+00
1.039039227702576396e+00
1.036045440646326643e+00
1.038447999236786101e+00
1.037625571254392032e+00
1.037882045903338213e+00
1.034154127835497539e+00
1.037809809490360280e+00
1.039795315862874103e+00
1.039474261722244330e+00
1.038593632450323989e+00
1.040557513968963788e+00
1.041820334212468113e+00
1.041956069626085668e+00
1.046361783681362345e+00
1.042182220331381526e+00
1.037762974474527811e+00
1.035658643791679934e+00
1.036139996462218882e+00
1.036740575262458774e+00
1.040961152872309059e+00
1.039359917194294214e+00
1.040596789833619029e+00
1.039492597688716824e+00
1.039039301030382667e+00
1.034623235856989121e+00
1.034550242260717123e+00
1.033563081331585920e+00
1.031219494895014632e+00
1.031274890172678704e+00
1.022420833937682350e+00
1.022106232751631261e+00
1.019411847170487606e+00
1.016145681732922856e+00
1.018586909104850058e+00
1.018529824559868402e+00
1.015325345685943903e+00
1.017032109516961214e+00
1.024049389780691488e+00
1.017141237950335952e+00
1.016519740850458486e+00
1.019071897081379685e+00
1.022964527080500785e+00
1.023572960122550723e+00
1.024667529267266675e+00
1.026458114432442281e+00
1.022340552757677212e+00
1.025155727855812327e+00
1.021112317204318165e+00
1.028849867052903821e+00
1.027186220850471399e+00
1.029120881769713725e+00
1.028576171692857644e+00
1.028691266686221129e+00
1.034402828101841587e+00
1.038630342915342508e+00
1.038167780966218423e+00
1.042419181231369452e+00
1.043403130268605095e+00
1.037431999841649022e+00
1.036036323440470808e+00
1.037881180073032317e+00
1.041594766354649870e+00
1.044022829386789475e+00
1.036790877134257993e+00
1.037567748934731249e+00
1.033798195082616722e+00
1.031338623182570080e+00
1.030912754779359508e+00
1.031468284129370083e+00
1.030560051749950690e+00
1.022781648165149715e+00
1.025963783357194625e+00
1.027247782190435110e+00
1.023200371421058463e+00
1.019585040716029400e+00
1.014721476697756142e+00
1.014935376122857891e+00
1.012335006746352795e+00
1.009087198385864248e+00
1.007358319146798742e+00
1.006324071512516349e+00
1.002987621470211366e+00
9.941054771618722530e-01
9.970946114988502584e-01
9.902434336301801920e-01
9.900639105109823035e-01
9.867679511994207342e-01
9.799514924925246673e-01
9.805521140554015469e-01
9.810963258094976824e-01
9.840663356988493815e-01
9.808906060306693542e-01
9.792339708539189447e-01
9.784893792374700361e-01
9.780128128313253510e-01
9.722676938814885927e-01
9.742954428594877703e-01
9.806638767792921207e-01
9.788328824145757778e-01
9.840608995041965068e-01
9.831280527645207545e-01
9.828247802586769222e-01
9.838172777622740117e-01
9.837624257271794237e-01
9.819283249191185226e-01
9.788129386422117495e-01
9.767981715439133517e-01
9.775967423828962888e-01
9.727140620982709374e-01
9.776317236191651716e-01
9.818255896474958888e-01
9.788121896586031712e-01
9.759694845112047989e-01
9.803691053696873547e-01
9.840886734798596214e-01
9.832081817360293075e-01
9.831127235738669201e-01
9.857855785118748715e-01
9.859923131509754635e-01
9.873585633787701488e-01
9.926536426703808091e-01
9.981082176626303593e-01
9.957630595389711514e-01
9.932325083439654811e-01
9.941283800876486998e-01
9.965214917263365280e-01
9.946311460963075390e-01
9.988678630323394314e-01
9.990151787450837206e-01
9.990791221271551059e-01
9.898619663842100902e-01
9.842865104061727655e-01
9.864080712871771128e-01
9.841156495683046623e-01
9.837091061322762453e-01
9.859971240169866924e-01
9.893586909485012626e-01
9.918612845056539173e-01
9.935833543657150990e-01
9.922607122075949304e-01
9.890928395356178848e-01
9.931911517885751994e-01
9.915362457169684118e-01
9.942614668091993568e-01
9.973729754220219679e-01
9.959908264820003243e-01
9.957965449942423053e-01
9.933831290173449347e-01
9.942617062581629028e-01
9.931758264838832506e-01
9.909713327895418589e-01
9.902889460738310001e-01
9.905650983023646106e-01
9.899055810895571739e-01
9.916610827132057437e-01
9.979799478471006458e-01
9.977710093716730677e-01
9.978882833887088299e-01
9.898320655755689090e-01
9.904876416814829554e-01
9.943515799521522869e-01
9.880220118436972010e-01
9.907200676434256836e-01
9.944862709560798875e-01
9.915240583889253223e-01
9.935226641182345331e-01
9.948697500787986314e-01
9.981111834662904636e-01
9.988710374190319374e-01
1.000318778860758373e+00
9.988030635179280248e-01
1.004022670878345513e+00
1.007996128084584386e+00
1.006399078093017208e+00
1.005133324848705989e+00
1.004698596546485190e+00
1.011188584026444293e+00
1.013338538432573488e+00
1.015712864991231701e+00
1.015380862881544166e+00
1.012458850823458434e+00
1.012580097541085689e+00
1.016200968035207097e+00
1.015196220386491710e+00
1.018235964227161006e+00
1.014926300421346461e+00
1.014421496268758549e+00
1.009586988888549364e+00
1.009182092052030244e+00
1.013938816948521060e+00
1.013849434975797159e+00
1.014070261667403328e+00
1.018361410849953685e+00
1.019326425574746953e+00
1.019012062967806109e+00
1.020485769957781841e+00
1.021770944693189742e+00
1.023395122920317313e+00
1.014979861797954630e+00
1.016671179490138188e+00
1.014155169658277122e+00
1.009621435570687176e+00
1.011528193532355901e+00
1.009896905469056305e+00
1.010459161716377618e+00
1.014182864549185714e+00
1.005951177305491440e+00
1.006999009318768401e+00
1.015019103806119594e+00
1.013627152941617870e+00
1.015961214017045311e+00
1.016477050669188253e+00
1.013381688757660104e+00
1.015421119075463174e+00
1.011956826910116236e+00
1.004716548483243876e+00
1.012910901011496501e+00
1.013401061717740692e+00
1.013956371697208869e+00
1.009516904894866229e+00
1.009956616221012071e+00
1.011786074733445728e+00
1.005064054139430008e+00
1.007398289908339573e+00
1.005661987921214306e+00
1.006235878732814726e+00
1.009640793337397202e+00
1.010098279130765997e+00
1.006654016415382547e+00
1.003119595292037758e+00
1.003449571575071531e+00
1.005407697859179939e+00
1.007517604635234765e+00
1.007206651776739736e+00
1.008570703525575096e+00
1.010607010234431113e+00
1.011654109878902030e+00
1.010904892373125419e+00
1.014237810003232987e+00
1.007574244734552815e+00
1.007554709583623032e+00
1.009520672195166835e+00
1.011625272126920994e+00
1.012355839708750649e+00
1.015332609696354860e+00
1.018980772781158173e+00
1.025024804081192897e+00
1.017722244520315567e+00
1.021260578491071769e+00
1.013371872058092427e+00
1.006714607013827756e+00
1.008683570491352155e+00
1.006464170076165621e+00
1.001128432928041878e+00
9.994375369276238263e-01
9.943344709132873049e-01
9.971323755044537718e-01
9.940439140143442209e-01
9.994846799587586705e-01
9.972282020500266020e-01
9.943712803558338864e-01
9.969151201011118291e-01
9.961075273664847796e-01
9.986672130322367114e-01
9.987670261168499763e-01
9.928831579922055006e-01
9.879248011730853429e-01
9.959427263548421561e-01
9.958054710640872331e-01
9.955941782223458603e-01
9.919870017764628178e-01
9.925668870919688302e-01
9.901812605244145749e-01
9.925705399078040836e-01
9.922868658772895367e-01
9.966533826981022193e-01
9.961062221495787794e-01
9.978947118788424886e-01
9.951443222597172733e-01
9.970655024524397447e-01
9.979621443813215809e-01
9.986734961588863424e-01
9.944616385996194463e-01
9.939794286764858100e-01
9.911989140313678393e-01
9.899583869696642058e-01
9.922002268917976542e-01
9.896343193662981985e-01
9.902819662366200149e-01
9.945710440460406865e-01
9.928239526456976716e-01
9.910529999498889353e-01
9.883081494411082302e-01
9.870112152806245209e-01
9.863690294741307429e-01
9.875615980071282829e-01
9.882105505971047199e-01
9.929029174708156047e-01
9.882072949621153457e-01
9.923628842786813564e-01
9.933928822711324269e-01
1.002219936505532427e+00
1.001831126561760987e+00
9.989173252409798698e-01
1.000934046309322811e+00
9.965716642305535444e-01
9.915571464857303452e-01
9.960664825582420390e-01
9.997762176470407214e-01
9.949374202192038386e-01
9.990508646949316507e-01
1.006999407988776740e+00
1.004636277751301598e+00
1.001064537167514201e+00
1.004864597800449566e+00
1.006725091171068565e+00
1.004636714706038658e+00
1.001179679931289312e+00
9.999147077536341133e-01
9.943224586385720487e-01
9.932658228824026159e-01
1.000966870677322262e+00
1.000561316412732493e+00
9.979628282107707582e-01
9.965904891520361852e-01
9.971587116546802854e-01
9.982739701858359682e-01
9.935296244163585033e-01
9.957661916507201116e-01
9.975472985567901407e-01
9.978256270329098898e-01
9.981179416685734829e-01
1.003663502500727667e+00
1.001137240597521183e+00
1.006566594369185719e+00
1.006372426116182162e+00
1.006990473640394956e+00
1.006910095412609119e+00
1.003140320805633090e+00
1.006218325126722046e+00
1.003778874901537055e+00
9.985041574120384622e-01
9.985789802403501891e-01
1.001400765637162626e+00
9.968979309600497496e-01
9.968474736415353643e-01
9.979629434139621891e-01
9.981949865522685705e-01
9.969496066175139726e-01
9.977118522100308917e-01
9.961124178518208083e-01
1.004286504426031845e+00
1.001789063104401745e+00
1.002607065174115908e+00
9.993668197649976381e-01
1.003897323180290568e+00
1.008784571647095341e+00
1.008020927788705778e+00
1.004066507320065194e+00
1.006934205680521055e+00
1.010044911813401614e+00
1.013746210585817709e+00
1.010577316943265469e+00
1.010809861255722142e+00
1.005393562032625310e+00
1.009127755708787877e+00
1.008835477943982095e+00
1.006803059574015613e+00
1.008061431688874743e+00
1.008367862060181253e+00
1.010960947805525700e+00
1.008643411105247356e+00
1.011021382611833719e+00
1.004253392599542272e+00
1.004996260939868158e+00
1.007543438923470536e+00
1.009229543356277015e+00
1.018420649965482205e+00
1.010424436936212533e+00
1.008560214246555731e+00
1.004517405322417289e+00
1.005916529351936317e+00
1.000717253056265132e+00
1.001908723260084511e+00
1.001031211662294362e+00
1.001458152015092695e+00
1.007633824710369774e+00
1.011777362574314720e+00
1.011715607576974651e+00
1.012944702074592973e+00
1.009441895793504296e+00
1.010764323830013911e+00
1.007735260136554789e+00
1.007293728712429504e+00
9.984844127137146863e-01
1.000719602119290119e+00
9.955293264740757708e-01
9.958671229738503827e-01
9.953541482719989730e-01
9.990069623864070714e-01
9.974370751224324039e-01
1.001077137515192117e+00
9.996093035131172755e-01
9.954756458370176420e-01
9.984900357646664393e-01
1.004150604942538161e+00
1.006708643335798348e+00
1.006284318225190599e+00
1.006559041911706531e+00
1.005072449037154980e+00
1.008534938862539532e+00
1.009618003973937528e+00
1.016663806667191361e+00
1.010031421664241424e+00
1.008619619626939246e+00
1.011573110865595648e+00
1.015922021300303957e+00
1.019074232175787520e+00
1.021178112723114983e+00
1.018011851003617574e+00
1.022612292162914382e+00
1.025303703825366508e+00
1.027384299814179114e+00
1.027210224432839158e+00
1.026480989189052950e+00
1.030079523236440142e+00
1.025019255247859196e+00
1.028584893702438441e+00
1.030384596002652531e+00
1.033129129876865671e+00
1.030196706457414679e+00
1.034824565899034043e+00
1.032727317957375490e+00
1.031900536733994400e+00
1.035909847575290366e+00
1.035959662865574282e+00
1.035334524351799734e+00
1.034687502143743165e+00
1.033634305035339374e+00
1.034536927811568585e+00
1.032534876047838335e+00
1.037076118193335450e+00
1.036702624279397744e+00
1.033114379760694534e+00
1.030856502756078763e+00
1.027766080364329815e+00
1.025090466609021478e+00
1.027224432540713828e+00
1.028918652132235989e+00
1.028689791699135103e+00
1.025488370166374619e+00
1.021617752400662438e+00
1.020128799799363772e+00
1.023224698749851447e+00
1.019229545146278282e+00
1.019436504982394798e+00
1.018084951223145129e+00
1.012444136722321364e+00
1.010691009644065330e+00
1.008296134084753826e+00
1.007565622242606151e+00
1.003288645757468123e+00
1.003215590817326142e+00
1.002456155148634398e+00
1.004810956561724256e+00
1.000156912496025008e+00
9.995448205824944976e-01
9.980937878141561415e-01
9.985999007896400048e-01
9.958003025097861283e-01
9.970959881365645261e-01
1.000167123321796137e+00
1.003029033394897906e+00
1.004319833284708974e+00
1.007414594624624904e+00
1.009699464732387808e+00
1.011468929100269420e+00
1.013087924743684365e+00
1.013967710907174080e+00
1.019890178399384784e+00
1.021386954712321771e+00
1.024905232495716412e+00
1.021273244328975816e+00
1.020096079979120329e+00
1.014949089861180598e+00
1.015022411578913042e+00
1.017851983745225786e+00
1.012988961683484623e+00
1.021558937538405321e+00
1.027329844071220855e+00
1.023517349625703732e+00
1.022832111860310311e+00
1.026075655083229288e+00
1.026100102675550518e+00
1.026631054235201734e+00
1.024223672378134609e+00
1.027560339927072741e+00
1.024489957534724383e+00
1.025786384224916414e+00
1.024277500502302152e+00
1.028759330135407657e+00
1.024107263076790009e+00
1.026874130380862615e+00
1.029520516583315892e+00
1.029866327761364664e+00
1.027895516995588121e+00
1.026905575608813903e+00
1.026566422655100785e+00
1.029259514404124332e+00
1.033021602993205557e+00
1.037577276499004775e+00
1.037824693157369804e+00
1.035125530155677653e+00
1.034534385891834329e+00
1.028691358918805143e+00
1.024333117550386474e+00
1.025513264223244514e+00
1.020306481088268047e+00
1.024119959551810677e+00
1.021135922280513419e+00
1.025165604583327061e+00
1.024585015599218218e+00
1.025464059306015585e+00
1.021311009733721686e+00
1.017323107158319528e+00
1.017709269593319865e+00
1.019612970782716621e+00
1.022109154143086451e+00
1.019369756113693182e+00
1.018159399814553723e+00
1.015931895089418502e+00
1.010328902340531076e+00
1.008789755924071274e+00
1.013467170798364236e+00
1.020972907773599392e+00
1.022229378340264727e+00
1.019061709108344038e+00
1.020261767673363629e+00
1.018056927999813510e+00
1.009834180205336107e+00
1.008879906759311718e+00
1.011999927000642341e+00
1.004012358972696584e+00
1.008738841490830707e+00
1.008983238412236583e+00
1.005976577700982810e+00
1.003494026123960881e+00
1.007271147383141052e+00
1.007928572977289772e+00
1.005520666406532149e+00
1.004603633483843073e+00
1.003001199174616831e+00
1.004672448791982031e+00
1.004006174260402062e+00
9.998596185918599000e-01
9.994750269225231021e-01
1.001242713747629631e+00
9.982950656691221836e-01
1.001085875004861458e+00
1.006119861402621218e+00
1.001196894463828979e+00
1.005405095542537763e+00
1.001830611975379925e+00
1.003594742266469719e+00
1.006864788565178914e+00
1.011774253240758759e+00
1.013556563742320504e+00
1.010757780788123172e+00
1.011540677063907712e+00
1.019009631458802634e+00
1.017788477003218839e+00
1.016274010583367859e+00
1.018777440375308929e+00
1.021502308631971667e+00
1.018262392118145732e+00
1.016925509696640084e+00
1.008002992167094325e+00
1.006641606030966640e+00
1.011246607463766045e+00
1.006672632874596740e+00
1.005552239574718953e+00
1.007848146133757172e+00
1.004057742840852363e+00
1.003882449707398594e+00
1.002731634905306146e+00
1.005185506107309168e+00
1.003265542119453402e+00
1.004121506025597022e+00
1.014158423941829978e+00
1.011329029425225290e+00
1.014556307672812574e+00
1.012693325069548900e+00
1.013698186952385116e+00
1.012169749451758083e+00
1.008775436908321277e+00
1.007642671821233016e+00
1.003746118844712321e+00
1.002983296122399226e+00
1.003998079076314109e+00
1.003320912632047701e+00
1.001413324447980147e+00
1.004690436375225149e+00
9.948336641984307782e-01
9.940009349628380342e-01
9.931885688597144046e-01
9.923321889592480183e-01
9.894502513588718795e-01
9.861890475649249810e-01
9.842021047194901007e-01
9.866867997531885148e-01
9.875226376828101227e-01
9.938302853049679753e-01
9.898027944025343805e-01
9.914949339622884938e-01
9.896208032421596190e-01
9.925090600494240745e-01
9.896634754954660718e-01
9.880023664779162829e-01
9.879302229645554601e-01
9.893536983672746032e-01
9.798875839329385107e-01
9.770099390379113347e-01
9.757342868994097751e-01
9.726642914964377384e-01
9.707076676263642900e-01
9.714249436063663312e-01
9.663492903861108374e-01
9.667875593507622156e-01
9.673899041632206819e-01
9.649558669257884969e-01
9.670185168911864526e-01
9.684307687893480843e-01
9.656688540571407575e-01
9.728976935906743506e-01
9.680861893074513835e-01
9.677540820141210531e-01
9.644465786271706476e-01
9.635095035516550999e-01
9.617164808679364851e-01
9.600992057509689648e-01
9.632332460346216818e-01
9.635414229536390929e-01
9.601757836377151634e-01
9.654944279503473448e-01
9.673410260043472375e-01
9.673018868884241117e-01
9.638228853575022681e-01
9.557649318225392987e-01
9.548138934103977959e-01
9.553764784476461713e-01
9.561109592212393427e-01
9.598161800975305580e-01
9.599630595646313491e-01
9.618065740276297015e-01
9.670267406449373215e-01
9.736776315633040024e-01
9.741989902724189632e-01
9.690562347926432452e-01
9.745940948656108826e-01
9.780938123878811785e-01
9.784250803629270798e-01
9.780766621478648171e-01
9.780752564407945160e-01
9.761791833617183833e-01
9.805771943027259407e-01
9.841043783861835870e-01
9.782175222276208171e-01
9.796720316419701424e-01
9.778255152778779768e-01
9.791709372221268914e-01
9.787270044031143312e-01
9.788097936059332316e-01
9.791795222841043200e-01
9.751851734724071852e-01
9.689251040978608120e-01
9.693291245922720512e-01
9.733534741544417335e-01
9.677286030771043990e-01
9.718974302158134293e-01
9.710282941223282727e-01
9.810381690974685487e-01
9.853752343374168055e-01
9.799472859881257492e-01
9.789842768517117433e-01
9.849017138286920714e-01
9.902850545412072991e-01
9.916299224995044348e-01
1.001014846023731808e+00
9.969968127312300865e-01
9.915200354255421233e-01
9.925402877103615129e-01
9.893598191628765193e-01
9.917722158421850009e-01
9.940865303678160236e-01
9.962939989982243505e-01
9.993447373969697178e-01
9.962192360485787601e-01
9.917865988660591325e-01
9.939463093796219173e-01
9.901508025087570886e-01
9.890161067764924319e-01
9.860988512835069386e-01
9.862292155819650796e-01
9.845017184471441807e-01
9.904400516141352862e-01
9.893235738196808349e-01
9.864113763952331304e-01
9.883759520594364023e-01
9.894510876073356886e-01
9.890026628786534602e-01
9.856211165946615615e-01
9.735838400389679181e-01
9.738739422775575250e-01
9.739045723874891758e-01
9.775028426801518622e-01
9.779374648761793853e-01
9.803167600467311837e-01
9.784947473299480114e-01
9.800794847440569280e-01
9.844179845280343066e-01
9.845208682223299812e-01
9.910195759754555356e-01
9.969172969416395524e-01
9.981783795428833539e-01
9.952404944741490844e-01
9.975040067282099354e-01
9.960260040446210494e-01
9.971734871908852771e-01
9.986327498791167656e-01
1.003456284837878520e+00
1.001443211207248440e+00
1.002435099447853029e+00
9.998184330516536322e-01
1.002537682173038291e+00
1.005735867119378346e+00
1.010807553591911212e+00
1.006290450654670598e+00
1.004089467330030239e+00
9.979725992543724278e-01
9.964182224975786095e-01
9.955581645415298997e-01
9.998031537938728563e-01
1.006151984098226260e+00
1.000498156647103398e+00
1.003393168413272640e+00
1.001662872713808161e+00
1.001304164777768957e+00
1.000020246079859065e+00
1.001030215862828587e+00
9.999529450667800079e-01
1.001663558525689668e+00
1.000890878407482365e+00
1.000828441502892518e+00
9.993474423942241280e-01
9.996294872271757059e-01
1.004340646568589568e+00
9.986224045942141414e-01
1.004242499763936758e+00
1.003255210452690838e+00
1.002025155725784433e+00
1.002439606968573482e+00
1.003082118288095126e+00
1.002581539993351090e+00
1.011216844765957745e+00
1.009796521788145052e+00
1.014506225711464760e+00
1.013762347867922964e+00
1.008711748904964178e+00
1.008644514732771169e+00
1.007311987260957498e+00
1.007164452647154818e+00
1.010819730640945879e+00
1.011121525033705337e+00
1.015566755899233176e+00
1.019583964038230706e+00
1.018689683211456254e+00
1.014619003353841364e+00
1.016876902634041624e+00
1.015520776095730326e+00
1.020402060613813999e+00
1.021241010735574495e+00
1.019346240836545903e+00
1.019361811385981254e+00
1.021045594778928978e+00
1.022545327875224563e+00
1.030033050950231788e+00
1.027555943977082276e+00
1.021086477225892963e+00
1.024517325910531573e+00
1.020058841257358573e+00
1.019721839942815622e+00
1.016055598864094911e+00
1.005074342892003481e+00
1.001511435452278720e+00
1.002822356569336160e+00
1.009352415414127346e+00
1.016653861900883360e+00
1.017938136770522028e+00
1.015088850256365971e+00
1.020489750692755271e+00
1.024632186176114956e+00
1.026162995314410242e+00
1.028297003801256437e+00
1.023673039017110709e+00
1.022937484385255447e+00
1.028383705355636168e+00
1.029095640525884869e+00
1.023006815470155262e+00
1.027450049116052977e+00
1.025143006484492636e+00
1.028350368778437440e+00
1.025884830103213519e+00
1.022096126603154076e+00
1.020266850978740036e+00
1.018101220721721489e+00
1.016178709658795087e+00
1.014795003196919732e+00
1.016425589200904200e+00
1.008895758847867308e+00
1.009562902488663427e+00
1.003678014887643632e+00
1.008701478973708543e+00
1.012024103660907226e+00
1.007851361214419539e+00
1.004043322275245842e+00
1.001546672219165490e+00
1.002556815378046196e+00
1.005421134226732738e+00
9.993053798888046346e-01
9.982975979872494854e-01
9.988652339818104853e-01
9.999398849661452759e-01
1.002254990121106193e+00
1.002760980311440342e+00
1.002030873707331349e+00
1.001723019181374408e+00
1.001909652253637706e+00
1.001662284028210115e+00
1.002143327344400481e+00
1.001634374018562035e+00
1.001379279987067550e+00
1.008366175095129158e+00
1.005221625235518834e+00
1.002122178038470812e+00
9.979061755184917004e-01
1.003430258650731544e+00
1.004970237918427545e+00
1.003323851957883761e+00
1.006072780851382742e+00
1.008954563908839974e+00
1.002529178222651751e+00
1.005665829612679474e+00
1.013581738872121552e+00
1.016449203339378826e+00
1.016104015160014473e+00
1.016321903153758921e+00
1.019316985768504047e+00
1.016227072242108287e+00
1.018443833509866003e+00
1.023858905455703461e+00
1.018599499044109180e+00
1.016603567423166821e+00
1.016939715415805745e+00
1.020511788266605713e+00
1.015609769716693700e+00
1.014291452113478709e+00
1.015178084274639625e+00
1.021157157989236675e+00
1.019304810363654612e+00
1.015432697001857676e+00
1.016925409302746885e+00
1.014214575600536961e+00
1.015802025529604746e+00
1.015817694085890510e+00
1.015788604848679721e+00
1.008113816280273634e+00
1.008640517687036553e+00
1.005629426908880131e+00
1.013302956053437454e+00
1.001807469192007582e+00
1.004150005478030350e+00
1.008240845594154500e+00
1.003935214834479561e+00
1.000858104725236730e+00
1.004971432459296210e+00
1.006886742281680958e+00
1.016178712621481406e+00
1.021306105171145395e+00
1.024807944232631218e+00
1.019576656924423563e+00
1.023991201558627884e+00
1.020748616752699789e+00
1.016934665773615576e+00
1.012944456634111257e+00
1.011524765232856060e+00
1.008017480103534647e+00
1.005554329901205968e+00
1.004644038200677381e+00
9.988321348015202217e-01
1.000755109845785862e+00
1.002554759785900806e+00
1.000887187879650808e+00
9.975390447485092960e-01
9.980435806105731888e-01
1.000607089734603994e+00
9.970462920675188245e-01
9.991309743748930661e-01
1.005409433776562889e+00
1.004726195690506030e+00
1.005825974872253337e+00
1.005050304832521668e+00
1.003572425950341573e+00
9.966734315578920089e-01
9.984122982887085884e-01
1.007945123028038070e+00
1.003210048316761638e+00
1.001055828645090795e+00
1.002665587300128669e+00
1.005552036623859280e+00
1.005078530159079886e+00
1.011126373274340740e+00
1.010986907407536606e+00
1.005929012722822868e+00
1.003418557026747759e+00
9.900713247283366991e-01
9.959846830352520053e-01
9.947877499910416921e-01
9.927730037255598772e-01
9.902081716226548425e-01
9.895771186601274305e-01
9.905273824624739598e-01
9.914409629564757687e-01
9.986341699275331774e-01
9.995475223332228598e-01
1.006535776080420108e+00
1.010993550378963546e+00
1.008434062838323042e+00
1.010670247736792149e+00
1.005075947882092979e+00
1.001286420513018527e+00
9.978804572762933756e-01
9.923042054813984159e-01
9.960414413092361086e-01
9.937634910369886887e-01
9.878357708675435944e-01
9.917424560024333813e-01
9.877442729759026152e-01
9.864316029183519685e-01
9.848959182264390710e-01
9.815053355732566986e-01
9.888202350691400744e-01
9.902191471559109726e-01
9.878300291194734850e-01
9.810565931027726005e-01
9.800776031717175485e-01
9.854893696566304762e-01
9.859982246547568385e-01
9.866587226741445615e-01
9.901937584825823979e-01
9.901032928115853782e-01
9.942772637716168482e-01
9.874533219140830820e-01
9.838811238111189184e-01
9.739199333419014115e-01
9.746818256541135428e-01
9.743237684708591084e-01
9.718430740800202416e-01
9.761730383893479912e-01
9.773627316467146109e-01
9.793639424429938511e-01
9.730858929235292054e-01
9.799527902553539782e-01
9.796102100890504705e-01
9.789632499985092551e-01
9.807499068542547827e-01
9.811961189858710020e-01
9.746434023034247218e-01
9.762434679387134162e-01
9.729966649762360476e-01
9.784191613202288806e-01
9.766334830785171617e-01
9.802476863931939288e-01
9.799215695226244360e-01
9.802293506669739198e-01
9.862503245333770208e-01
9.858427546265718933e-01
9.776484554899341761e-01
9.747525817081102995e-01
9.757126331930936480e-01
9.806189418715788308e-01
9.792718150230100838e-01
9.754674086933969868e-01
9.757757540036116062e-01
9.749275998297167733e-01
9.691885575320414725e-01
9.742953996891227098e-01
9.789418911016056768e-01
9.767867976911431827e-01
9.779993082796889503e-01
9.808924406127560447e-01
9.806900142755635708e-01
9.850710928652884890e-01
9.889119396049571575e-01
9.898312648785324575e-01
9.909975506707918713e-01
9.893623505262315598e-01
9.848834761123985704e-01
9.836533668145696074e-01
9.784565347188747264e-01
9.837449827850649475e-01
9.877132871120766211e-01
9.906259740635705580e-01
9.850391197878312077e-01
9.903833855989593316e-01
9.812605718287359391e-01
9.750800544516617929e-01
9.718387252819278288e-01
9.666902326736946938e-01
9.660150506608053966e-01
9.621294849186892151e-01
9.641722455148156179e-01
9.621868003598922359e-01
9.567025954527309528e-01
9.556479628039338259e-01
9.620708047678232511e-01
9.651737768792323369e-01
9.669674767296734252e-01
9.691665106657676443e-01
9.624146432782701988e-01
9.593909223037200285e-01
9.726557567926147341e-01
9.729700726592114268e-01
9.759700074253925273e-01
9.775582913240341565e-01
9.743285352753974227e-01
9.712126223108016321e-01
9.720537069753454329e-01
9.664535243000206277e-01
9.587073373382998254e-01
9.627788938209447256e-01
9.544134740717626908e-01
9.523635401459134009e-01
9.545510325462993606e-01
9.542715322288862767e-01
9.597937181457923961e-01
9.586947012147561953e-01
9.578741305884590496e-01
9.624090939733176420e-01
9.585340559313368924e-01
9.636509584258056149e-01
9.683367089732686228e-01
9.670936729538601728e-01
9.582948090734529911e-01
9.567137957271703019e-01
9.527905494351224247e-01
9.539157639882487327e-01
9.575632472302815223e-01
9.536710144559967794e-01
9.582691784912290567e-01
9.575389472134702151e-01
9.576843875969943687e-01
9.554022036976702603e-01
9.638006863049808359e-01
9.687928933802820719e-01
9.691672508543910380e-01
9.691397547658014977e-01
9.642777741152543935e-01
9.614906211768715627e-01
9.624196328549156076e-01
9.591684632321526571e-01
9.553154437872557470e-01
9.485292608277091642e-01
9.446416356269567993e-01
9.476610573050289199e-01
9.497007301712007132e-01
9.589687596198497310e-01
9.575326975336733160e-01
9.589925701520091161e-01
9.563298583144658194e-01
9.533319029986055959e-01
9.527402893979451948e-01
9.566943192602699320e-01
9.487335784780205339e-01
9.565136925880478591e-01
9.594750214938403410e-01
9.565568494569610669e-01
9.537418817450001862e-01
9.556086476063823110e-01
9.608161290437745583e-01
9.631447822819551030e-01
9.621307898889798205e-01
9.604758486476466794e-01
9.513030491177889569e-01
9.519202370822451575e-01
9.519642230239715452e-01
9.491957068892701299e-01
9.461270271791750730e-01
9.393386536863732594e-01
9.390701583732569135e-01
9.319457016476291322e-01
9.355008553115496950e-01
9.390505823859234269e-01
9.383383694812919007e-01
9.392957769477600083e-01
9.380873114413145197e-01
9.364813459858601918e-01
9.349497367091836875e-01
9.316621217485441253e-01
9.332146999903763174e-01
9.283460824687647106e-01
9.283242782987215502e-01
9.264224946682018125e-01
9.279528949633971679e-01
9.293813768472296566e-01
9.375829681110049441e-01
9.465860190049654177e-01
9.539956646545688645e-01
9.584713198000416323e-01
9.527270379653142163e-01
9.412882568713670794e-01
9.333164195053069712e-01
9.322592603681650880e-01
9.319078855116323945e-01
9.295294097533651767e-01
9.207066233748024686e-01
9.177790490295089088e-01
9.158647693760685327e-01
9.212071404647341755e-01
9.216417464206979604e-01
9.312499957430349085e-01
9.355479069680066040e-01
9.321365203539772049e-01
9.434272517884514375e-01
9.433287010553879082e-01
9.383213595237224203e-01
9.352658560063402682e-01
9.314123316435840572e-01
9.322110554417222250e-01
9.250599103589771666e-01
9.309740225554027360e-01
9.282829862826472711e-01
9.297707473140286449e-01
9.218933576467729374e-01
9.187592081477103934e-01
9.168824902670725807e-01
9.159553594943250499e-01
9.225076732619594821e-01
9.273219160071431988e-01
9.223706257148973631e-01
9.248042646186224180e-01
9.236285004583821845e-01
9.198505951767065314e-01
9.151792933546545328e-01
9.077187352494147099e-01
9.049508511694704938e-01
9.055955702725970724e-01
9.075589948083092606e-01
9.025601341458705518e-01
9.000554810890114554e-01
8.982082388559884389e-01
9.038803847616060372e-01
9.044410231328707805e-01
8.972850348903692597e-01
8.965676732629667134e-01
8.954216887470265451e-01
8.935300918173406659e-01
8.892649890483640407e-01
8.923613332748162597e-01
8.865485525653054033e-01
8.901011261604658831e-01
8.846604818344938614e-01
8.797266843237081524e-01
8.822268321199587815e-01
8.809312525954563489e-01
8.850619542665459916e-01
8.864396685700652867e-01
8.863080575429166386e-01
8.829494252400827969e-01
8.871275493397068335e-01
8.794712064541948537e-01
8.806980428204480571e-01
8.839557856203149599e-01
8.850916129176210623e-01
8.805075525464375330e-01
8.743498739312223211e-01
8.761126365303539831e-01
8.813317878524862259e-01
8.832478550837739029e-01
8.867833309066538439e-01
8.818229539413007245e-01
8.799068086159448354e-01
8.808318914966341007e-01
8.836277381831827427e-01
8.847490652470653139e-01
8.912118783702988045e-01
8.865107199076756039e-01
8.803536513019549758e-01
8.838531651835340730e-01
8.891386843611426283e-01
8.898857748936359613e-01
8.827014317617971617e-01
8.853978984596798663e-01
8.852812527589989378e-01
8.862354844962468947e-01
8.872749924318937831e-01
8.882028624775443193e-01
8.915215498110777848e-01
8.925995821334991032e-01
8.948495686550460571e-01
8.937091981425501208e-01
8.956275854940221048e-01
8.954596629587658896e-01
8.914233676245190141e-01
8.880757034786406212e-01
8.841983961855405250e-01
8.846685572961275890e-01
8.894650371414978274e-01
8.913759182398897085e-01
9.034663056484927290e-01
9.016616463029082373e-01
9.066513312976314243e-01
9.044666798615670356e-01
9.012159704419249184e-01
9.029241880937673992e-01
9.072570380690678782e-01
9.108140154867818694e-01
9.039651801188530733e-01
9.027384795009533169e-01
9.044074893660219994e-01
9.031109810156372486e-01
8.956209330416202707e-01
8.918844612636914748e-01
8.904597255631703234e-01
8.950890622487195358e-01
8.898086568239672589e-01
8.860810792631748090e-01
8.841823847011963666e-01
8.828257635809970694e-01
8.842049080227316615e-01
8.797576056421163582e-01
8.789348745445692002e-01
8.751715527379868576e-01
8.792083436810609332e-01
8.789557935161905755e-01
8.821906351849718719e-01
8.770840937056268993e-01
8.689885058891709813e-01
8.662949782980358115e-01
8.664388388655889228e-01
8.721392037590590673e-01
8.798676325318738334e-01
8.808330996551925196e-01
8.794952699290717879e-01
8.800768353923366094e-01
8.840685502041848443e-01
8.880132039169530422e-01
8.900355928157954732e-01
8.963949088433439405e-01
8.945982346331309287e-01
8.928630147293966646e-01
8.906720079833583270e-01
8.904950958322497279e-01
8.902250861559066752e-01
8.981015836227054239e-01
8.988435977671631605e-01
8.996292515038570858e-01
9.017226312303627811e-01
8.988046847036537113e-01
9.058261204819969548e-01
9.011643361394324758e-01
9.056383448875194864e-01
9.057475344494420044e-01
9.058927194565230545e-01
9.078758743770100059e-01
9.080579791592512384e-01
9.037573723387196667e-01
9.054598117760844778e-01
8.995184610194688624e-01
8.992039357768287777e-01
9.021063762035881339e-01
9.021865428148041488e-01
9.044644894166476989e-01
9.068242315041419310e-01
9.060047181911926595e-01
9.059094303668132619e-01
9.097158677363554879e-01
9.089813957914558706e-01
8.969062830414564758e-01
8.971452584918979678e-01
8.992500678693682303e-01
8.993240155347739240e-01
9.055806444843509384e-01
9.137130801254770285e-01
9.143590203362078617e-01
9.088996618754683343e-01
9.141617686887875127e-01
9.168488259280216379e-01
9.100891011153078303e-01
9.029055410822648398e-01
9.101587325956723706e-01
9.073729121428568689e-01
9.033228683655933899e-01
9.019599521241420392e-01
9.003799342931771976e-01
8.896680188531869149e-01
8.831053744568869712e-01
8.868060322044526433e-01
8.833572280822165057e-01
8.850064965772238557e-01
8.907630472414839184e-01
8.833833271647530960e-01
8.791129377568364101e-01
8.817135086916969566e-01
8.800887098405218989e-01
8.725216464807421524e-01
8.780670337859123320e-01
8.817232680886220031e-01
8.873454955651124409e-01
8.874448861678947420e-01
