0.000000000000000000e+00
1.000333444481493750e-02
2.000666888962987500e-02
3.001000333444481250e-02
4.001333777925974999e-02
5.001667222407468749e-02
6.002000666888962499e-02
7.002334111370456249e-02
8.002667555851949999e-02
9.003001000333443749e-02
1.000333444481493750e-01
1.100366788929643125e-01
1.200400133377792500e-01
1.300433477825941875e-01
1.400466822274091250e-01
1.500500166722240625e-01
1.600533511170390000e-01
1.700566855618539375e-01
1.800600200066688750e-01
1.900633544514838125e-01
2.000666888962987500e-01
2.100700233411136875e-01
2.200733577859286250e-01
2.300766922307435625e-01
2.400800266755585000e-01
2.500833611203734375e-01
2.600866955651883750e-01
2.700900300100033125e-01
2.800933644548182500e-01
2.900966988996331875e-01
3.001000333444481250e-01
3.101033677892630624e-01
3.201067022340779999e-01
3.301100366788929374e-01
3.401133711237078749e-01
3.501167055685228124e-01
3.601200400133377499e-01
3.701233744581526874e-01
3.801267089029676249e-01
3.901300433477825624e-01
4.001333777925974999e-01
4.101367122374124374e-01
4.201400466822273749e-01
4.301433811270423124e-01
4.401467155718572499e-01
4.501500500166721874e-01
4.601533844614871249e-01
4.701567189063020624e-01
4.801600533511169999e-01
4.901633877959319374e-01
5.001667222407468749e-01
5.101700566855618124e-01
5.201733911303767499e-01
5.301767255751916874e-01
5.401800600200066249e-01
5.501833944648215624e-01
5.601867289096364999e-01
5.701900633544514374e-01
5.801933977992663749e-01
5.901967322440813124e-01
6.002000666888962499e-01
6.102034011337111874e-01
6.202067355785261249e-01
6.302100700233410624e-01
6.402134044681559999e-01
6.502167389129709374e-01
6.602200733577858749e-01
6.702234078026008124e-01
6.802267422474157499e-01
6.902300766922306874e-01
7.002334111370456249e-01
7.102367455818605624e-01
7.202400800266754999e-01
7.302434144714904374e-01
7.402467489163053749e-01
7.502500833611203124e-01
7.602534178059352499e-01
7.702567522507501874e-01
7.802600866955651249e-01
7.902634211403800624e-01
8.002667555851949999e-01
8.102700900300099374e-01
8.202734244748248749e-01
8.302767589196398124e-01
8.402800933644547499e-01
8.502834278092696874e-01
8.602867622540846249e-01
8.702900966988995624e-01
8.802934311437144999e-01
8.902967655885294374e-01
9.003001000333443749e-01
9.103034344781593123e-01
9.203067689229742498e-01
9.303101033677891873e-01
9.403134378126041248e-01
9.503167722574190623e-01
9.603201067022339998e-01
9.703234411470489373e-01
9.803267755918638748e-01
9.903301100366788123e-01
1.000333444481493750e+00
1.010336778926308687e+00
1.020340113371123625e+00
1.030343447815938562e+00
1.040346782260753500e+00
1.050350116705568437e+00
1.060353451150383375e+00
1.070356785595198312e+00
1.080360120040013250e+00
1.090363454484828187e+00
1.100366788929643125e+00
1.110370123374458062e+00
1.120373457819273000e+00
1.130376792264087937e+00
1.140380126708902875e+00
1.150383461153717812e+00
1.160386795598532750e+00
1.170390130043347687e+00
1.180393464488162625e+00
1.190396798932977562e+00
1.200400133377792500e+00
1.210403467822607437e+00
1.220406802267422375e+00
1.230410136712237312e+00
1.240413471157052250e+00
1.250416805601867187e+00
1.260420140046682125e+00
1.270423474491497062e+00
1.280426808936312000e+00
1.290430143381126937e+00
1.300433477825941875e+00
1.310436812270756812e+00
1.320440146715571750e+00
1.330443481160386687e+00
1.340446815605201625e+00
1.350450150050016562e+00
1.360453484494831500e+00
1.370456818939646437e+00
1.380460153384461375e+00
1.390463487829276312e+00
1.400466822274091250e+00
1.410470156718906187e+00
1.420473491163721125e+00
1.430476825608536062e+00
1.440480160053351000e+00
1.450483494498165937e+00
1.460486828942980875e+00
1.470490163387795812e+00
1.480493497832610750e+00
1.490496832277425687e+00
1.500500166722240625e+00
1.510503501167055562e+00
1.520506835611870500e+00
1.530510170056685437e+00
1.540513504501500375e+00
1.550516838946315312e+00
1.560520173391130250e+00
1.570523507835945187e+00
1.580526842280760125e+00
1.590530176725575062e+00
1.600533511170390000e+00
1.610536845615204937e+00
1.620540180060019875e+00
1.630543514504834812e+00
1.640546848949649750e+00
1.650550183394464687e+00
1.660553517839279625e+00
1.670556852284094562e+00
1.680560186728909500e+00
1.690563521173724437e+00
1.700566855618539375e+00
1.710570190063354312e+00
1.720573524508169250e+00
1.730576858952984187e+00
1.740580193397799125e+00
1.750583527842614062e+00
1.760586862287429000e+00
1.770590196732243937e+00
1.780593531177058875e+00
1.790596865621873812e+00
1.800600200066688750e+00
1.810603534511503687e+00
1.820606868956318625e+00
1.830610203401133562e+00
1.840613537845948500e+00
1.850616872290763437e+00
1.860620206735578375e+00
1.870623541180393312e+00
1.880626875625208250e+00
1.890630210070023187e+00
1.900633544514838125e+00
1.910636878959653062e+00
1.920640213404468000e+00
1.930643547849282937e+00
1.940646882294097875e+00
1.950650216738912812e+00
1.960653551183727750e+00
1.970656885628542687e+00
1.980660220073357625e+00
1.990663554518172562e+00
2.000666888962987500e+00
2.010670223407802659e+00
2.020673557852617375e+00
2.030676892297432090e+00
2.040680226742247250e+00
2.050683561187062409e+00
2.060686895631877125e+00
2.070690230076691840e+00
2.080693564521507000e+00
2.090696898966322159e+00
2.100700233411136875e+00
2.110703567855951590e+00
2.120706902300766750e+00
2.130710236745581909e+00
2.140713571190396625e+00
2.150716905635211340e+00
2.160720240080026500e+00
2.170723574524841659e+00
2.180726908969656375e+00
2.190730243414471090e+00
2.200733577859286250e+00
2.210736912304101409e+00
2.220740246748916125e+00
2.230743581193730840e+00
2.240746915638546000e+00
2.250750250083361159e+00
2.260753584528175875e+00
2.270756918972990590e+00
2.280760253417805750e+00
2.290763587862620909e+00
2.300766922307435625e+00
2.310770256752250340e+00
2.320773591197065500e+00
2.330776925641880659e+00
2.340780260086695375e+00
2.350783594531510090e+00
2.360786928976325250e+00
2.370790263421140409e+00
2.380793597865955125e+00
2.390796932310769840e+00
2.400800266755585000e+00
2.410803601200400159e+00
2.420806935645214875e+00
2.430810270090029590e+00
2.440813604534844750e+00
2.450816938979659909e+00
2.460820273424474625e+00
2.470823607869289340e+00
2.480826942314104500e+00
2.490830276758919659e+00
2.500833611203734375e+00
2.510836945648549090e+00
2.520840280093364250e+00
2.530843614538179409e+00
2.540846948982994125e+00
2.550850283427808840e+00
2.560853617872624000e+00
2.570856952317439159e+00
2.580860286762253875e+00
2.590863621207068590e+00
2.600866955651883750e+00
2.610870290096698909e+00
2.620873624541513625e+00
2.630876958986328340e+00
2.640880293431143500e+00
2.650883627875958659e+00
2.660886962320773375e+00
2.670890296765588090e+00
2.680893631210403250e+00
2.690896965655218409e+00
2.700900300100033125e+00
2.710903634544847840e+00
2.720906968989663000e+00
2.730910303434478159e+00
2.740913637879292875e+00
2.750916972324107590e+00
2.760920306768922750e+00
2.770923641213737909e+00
2.780926975658552625e+00
2.790930310103367340e+00
2.800933644548182500e+00
2.810936978992997659e+00
2.820940313437812375e+00
2.830943647882627090e+00
2.840946982327442250e+00
2.850950316772257409e+00
2.860953651217072125e+00
2.870956985661886840e+00
2.880960320106702000e+00
2.890963654551517159e+00
2.900966988996331875e+00
2.910970323441146590e+00
2.920973657885961750e+00
2.930976992330776909e+00
2.940980326775591625e+00
2.950983661220406340e+00
2.960986995665221500e+00
2.970990330110036659e+00
2.980993664554851375e+00
2.990996998999666090e+00
3.001000333444481250e+00
3.011003667889296409e+00
3.021007002334111124e+00
3.031010336778925840e+00
3.041013671223740999e+00
3.051017005668556159e+00
3.061020340113370874e+00
3.071023674558185590e+00
3.081027009003000749e+00
3.091030343447815909e+00
3.101033677892630624e+00
3.111037012337445340e+00
3.121040346782260499e+00
3.131043681227075659e+00
3.141047015671890374e+00
3.151050350116705090e+00
3.161053684561520249e+00
3.171057019006335409e+00
3.181060353451150124e+00
3.191063687895964840e+00
3.201067022340779999e+00
3.211070356785595159e+00
3.221073691230409874e+00
3.231077025675224590e+00
3.241080360120039749e+00
3.251083694564854909e+00
3.261087029009669624e+00
3.271090363454484340e+00
3.281093697899299499e+00
3.291097032344114659e+00
3.301100366788929374e+00
3.311103701233744090e+00
3.321107035678559249e+00
3.331110370123374409e+00
3.341113704568189124e+00
3.351117039013003840e+00
3.361120373457818999e+00
3.371123707902634159e+00
3.381127042347448874e+00
3.391130376792263590e+00
3.401133711237078749e+00
3.411137045681893909e+00
3.421140380126708624e+00
3.431143714571523340e+00
3.441147049016338499e+00
3.451150383461153659e+00
3.461153717905968374e+00
3.471157052350783090e+00
3.481160386795598249e+00
3.491163721240413409e+00
3.501167055685228124e+00
3.511170390130042840e+00
3.521173724574857999e+00
3.531177059019673159e+00
3.541180393464487874e+00
3.551183727909302590e+00
3.561187062354117749e+00
3.571190396798932909e+00
3.581193731243747624e+00
3.591197065688562340e+00
3.601200400133377499e+00
3.611203734578192659e+00
3.621207069023007374e+00
3.631210403467822090e+00
3.641213737912637249e+00
3.651217072357452409e+00
3.661220406802267124e+00
3.671223741247081840e+00
3.681227075691896999e+00
3.691230410136712159e+00
3.701233744581526874e+00
3.711237079026341590e+00
3.721240413471156749e+00
3.731243747915971909e+00
3.741247082360786624e+00
3.751250416805601340e+00
3.761253751250416499e+00
3.771257085695231659e+00
3.781260420140046374e+00
3.791263754584861090e+00
3.801267089029676249e+00
3.811270423474491409e+00
3.821273757919306124e+00
3.831277092364120840e+00
3.841280426808935999e+00
3.851283761253751159e+00
3.861287095698565874e+00
3.871290430143380590e+00
3.881293764588195749e+00
3.891297099033010909e+00
3.901300433477825624e+00
3.911303767922640340e+00
3.921307102367455499e+00
3.931310436812270659e+00
3.941313771257085374e+00
3.951317105701900090e+00
3.961320440146715249e+00
3.971323774591530409e+00
3.981327109036345124e+00
3.991330443481159840e+00
4.001333777925974999e+00
4.011337112370790159e+00
4.021340446815605318e+00
4.031343781260419590e+00
4.041347115705234749e+00
4.051350450150049909e+00
4.061353784594864180e+00
4.071357119039679340e+00
4.081360453484494499e+00
4.091363787929309659e+00
4.101367122374124818e+00
4.111370456818939090e+00
4.121373791263754249e+00
4.131377125708569409e+00
4.141380460153383680e+00
4.151383794598198840e+00
4.161387129043013999e+00
4.171390463487829159e+00
4.181393797932644318e+00
4.191397132377458590e+00
4.201400466822273749e+00
4.211403801267088909e+00
4.221407135711903180e+00
4.231410470156718340e+00
4.241413804601533499e+00
4.251417139046348659e+00
4.261420473491163818e+00
4.271423807935978090e+00
4.281427142380793249e+00
4.291430476825608409e+00
4.301433811270422680e+00
4.311437145715237840e+00
4.321440480160052999e+00
4.331443814604868159e+00
4.341447149049683318e+00
4.351450483494497590e+00
4.361453817939312749e+00
4.371457152384127909e+00
4.381460486828942180e+00
4.391463821273757340e+00
4.401467155718572499e+00
4.411470490163387659e+00
4.421473824608202818e+00
4.431477159053017090e+00
4.441480493497832249e+00
4.451483827942647409e+00
4.461487162387461680e+00
4.471490496832276840e+00
4.481493831277091999e+00
4.491497165721907159e+00
4.501500500166722318e+00
4.511503834611536590e+00
4.521507169056351749e+00
4.531510503501166909e+00
4.541513837945981180e+00
4.551517172390796340e+00
4.561520506835611499e+00
4.571523841280426659e+00
4.581527175725241818e+00
4.591530510170056090e+00
4.601533844614871249e+00
4.611537179059686409e+00
4.621540513504500680e+00
4.631543847949315840e+00
4.641547182394130999e+00
4.651550516838946159e+00
4.661553851283761318e+00
4.671557185728575590e+00
4.681560520173390749e+00
4.691563854618205909e+00
4.701567189063020180e+00
4.711570523507835340e+00
4.721573857952650499e+00
4.731577192397465659e+00
4.741580526842280818e+00
4.751583861287095090e+00
4.761587195731910249e+00
4.771590530176725409e+00
4.781593864621539680e+00
4.791597199066354840e+00
4.801600533511169999e+00
4.811603867955985159e+00
4.821607202400800318e+00
4.831610536845614590e+00
4.841613871290429749e+00
4.851617205735244909e+00
4.861620540180059180e+00
4.871623874624874340e+00
4.881627209069689499e+00
4.891630543514504659e+00
4.901633877959319818e+00
4.911637212404134090e+00
4.921640546848949249e+00
4.931643881293764409e+00
4.941647215738578680e+00
4.951650550183393840e+00
4.961653884628208999e+00
4.971657219073024159e+00
4.981660553517839318e+00
4.991663887962653590e+00
5.001667222407468749e+00
5.011670556852283909e+00
5.021673891297098180e+00
5.031677225741913340e+00
5.041680560186728499e+00
5.051683894631543659e+00
5.061687229076358818e+00
5.071690563521173090e+00
5.081693897965988249e+00
5.091697232410803409e+00
5.101700566855617680e+00
5.111703901300432840e+00
5.121707235745247999e+00
5.131710570190063159e+00
5.141713904634878318e+00
5.151717239079692590e+00
5.161720573524507749e+00
5.171723907969322909e+00
5.181727242414137180e+00
5.191730576858952340e+00
5.201733911303767499e+00
5.211737245748582659e+00
5.221740580193397818e+00
5.231743914638212090e+00
5.241747249083027249e+00
5.251750583527842409e+00
5.261753917972656680e+00
5.271757252417471840e+00
5.281760586862286999e+00
5.291763921307102159e+00
5.301767255751917318e+00
5.311770590196731590e+00
5.321773924641546749e+00
5.331777259086361909e+00
5.341780593531176180e+00
5.351783927975991340e+00
5.361787262420806499e+00
5.371790596865621659e+00
5.381793931310436818e+00
5.391797265755251090e+00
5.401800600200066249e+00
5.411803934644881409e+00
5.421807269089695680e+00
5.431810603534510840e+00
5.441813937979325999e+00
5.451817272424141159e+00
5.461820606868956318e+00
5.471823941313770590e+00
5.481827275758585749e+00
5.491830610203400909e+00
5.501833944648215180e+00
5.511837279093030340e+00
5.521840613537845499e+00
5.531843947982660659e+00
5.541847282427475818e+00
5.551850616872290090e+00
5.561853951317105249e+00
5.571857285761920409e+00
5.581860620206734680e+00
5.591863954651549840e+00
5.601867289096364999e+00
5.611870623541180159e+00
5.621873957985995318e+00
5.631877292430809590e+00
5.641880626875624749e+00
5.651883961320439909e+00
5.661887295765254180e+00
5.671890630210069340e+00
5.681893964654884499e+00
5.691897299099699659e+00
5.701900633544514818e+00
5.711903967989329090e+00
5.721907302434144249e+00
5.731910636878959409e+00
5.741913971323773680e+00
5.751917305768588839e+00
5.761920640213403999e+00
5.771923974658219159e+00
5.781927309103034318e+00
5.791930643547848589e+00
5.801933977992663749e+00
5.811937312437478909e+00
5.821940646882293180e+00
5.831943981327108339e+00
5.841947315771923499e+00
5.851950650216738659e+00
5.861953984661553818e+00
5.871957319106368089e+00
5.881960653551183249e+00
5.891963987995998409e+00
5.901967322440812680e+00
5.911970656885627839e+00
5.921973991330442999e+00
5.931977325775258159e+00
5.941980660220073318e+00
5.951983994664887589e+00
5.961987329109702749e+00
5.971990663554517909e+00
5.981993997999332180e+00
5.991997332444147339e+00
6.002000666888962499e+00
6.012004001333777659e+00
6.022007335778592818e+00
6.032010670223407089e+00
6.042014004668222249e+00
6.052017339113037409e+00
6.062020673557851680e+00
6.072024008002666839e+00
6.082027342447481999e+00
6.092030676892297159e+00
6.102034011337112318e+00
6.112037345781926589e+00
6.122040680226741749e+00
6.132044014671556909e+00
6.142047349116371180e+00
6.152050683561186339e+00
6.162054018006001499e+00
6.172057352450816659e+00
6.182060686895631818e+00
6.192064021340446089e+00
6.202067355785261249e+00
6.212070690230076409e+00
6.222074024674890680e+00
6.232077359119705839e+00
6.242080693564520999e+00
6.252084028009336159e+00
6.262087362454151318e+00
6.272090696898965589e+00
6.282094031343780749e+00
6.292097365788595908e+00
6.302100700233410180e+00
6.312104034678225339e+00
6.322107369123040499e+00
6.332110703567855658e+00
6.342114038012670818e+00
6.352117372457485089e+00
6.362120706902300249e+00
6.372124041347115408e+00
6.382127375791929680e+00
6.392130710236744839e+00
6.402134044681559999e+00
6.412137379126375158e+00
6.422140713571190318e+00
6.432144048016004589e+00
6.442147382460819749e+00
6.452150716905634908e+00
6.462154051350449180e+00
6.472157385795264339e+00
6.482160720240079499e+00
6.492164054684894658e+00
6.502167389129709818e+00
6.512170723574524089e+00
6.522174058019339249e+00
6.532177392464154408e+00
6.542180726908968680e+00
6.552184061353783839e+00
6.562187395798598999e+00
6.572190730243414158e+00
6.582194064688229318e+00
6.592197399133043589e+00
6.602200733577858749e+00
6.612204068022673908e+00
6.622207402467488180e+00
6.632210736912303339e+00
6.642214071357118499e+00
6.652217405801933658e+00
6.662220740246748818e+00
6.672224074691563089e+00
6.682227409136378249e+00
6.692230743581193408e+00
6.702234078026007680e+00
6.712237412470822839e+00
6.722240746915637999e+00
6.732244081360453158e+00
6.742247415805268318e+00
6.752250750250082589e+00
6.762254084694897749e+00
6.772257419139712908e+00
6.782260753584527180e+00
6.792264088029342339e+00
6.802267422474157499e+00
6.812270756918972658e+00
6.822274091363787818e+00
6.832277425808602089e+00
6.842280760253417249e+00
6.852284094698232408e+00
6.862287429143046680e+00
6.872290763587861839e+00
6.882294098032676999e+00
6.892297432477492158e+00
6.902300766922307318e+00
6.912304101367121589e+00
6.922307435811936749e+00
6.932310770256751908e+00
6.942314104701566180e+00
6.952317439146381339e+00
6.962320773591196499e+00
6.972324108036011658e+00
6.982327442480826818e+00
6.992330776925641089e+00
7.002334111370456249e+00
7.012337445815271408e+00
7.022340780260085680e+00
7.032344114704900839e+00
7.042347449149715999e+00
7.052350783594531158e+00
7.062354118039346318e+00
7.072357452484160589e+00
7.082360786928975749e+00
7.092364121373790908e+00
7.102367455818605180e+00
7.112370790263420339e+00
7.122374124708235499e+00
7.132377459153050658e+00
7.142380793597865818e+00
7.152384128042680089e+00
7.162387462487495249e+00
7.172390796932310408e+00
7.182394131377124680e+00
7.192397465821939839e+00
7.202400800266754999e+00
7.212404134711570158e+00
7.222407469156385318e+00
7.232410803601199589e+00
7.242414138046014749e+00
7.252417472490829908e+00
7.262420806935644180e+00
7.272424141380459339e+00
7.282427475825274499e+00
7.292430810270089658e+00
7.302434144714904818e+00
7.312437479159719089e+00
7.322440813604534249e+00
7.332444148049349408e+00
7.342447482494163680e+00
7.352450816938978839e+00
7.362454151383793999e+00
7.372457485828609158e+00
7.382460820273424318e+00
7.392464154718238589e+00
7.402467489163053749e+00
7.412470823607868908e+00
7.422474158052683180e+00
7.432477492497498339e+00
7.442480826942313499e+00
7.452484161387128658e+00
7.462487495831943818e+00
7.472490830276758089e+00
7.482494164721573249e+00
7.492497499166388408e+00
7.502500833611202680e+00
7.512504168056017839e+00
7.522507502500832999e+00
7.532510836945648158e+00
7.542514171390463318e+00
7.552517505835277589e+00
7.562520840280092749e+00
7.572524174724907908e+00
7.582527509169722180e+00
7.592530843614537339e+00
7.602534178059352499e+00
7.612537512504167658e+00
7.622540846948982818e+00
7.632544181393797089e+00
7.642547515838612249e+00
7.652550850283427408e+00
7.662554184728241680e+00
7.672557519173056839e+00
7.682560853617871999e+00
7.692564188062687158e+00
7.702567522507502318e+00
7.712570856952316589e+00
7.722574191397131749e+00
7.732577525841946908e+00
7.742580860286761180e+00
7.752584194731576339e+00
7.762587529176391499e+00
7.772590863621206658e+00
7.782594198066021818e+00
7.792597532510836089e+00
7.802600866955651249e+00
7.812604201400466408e+00
7.822607535845280680e+00
7.832610870290095839e+00
7.842614204734910999e+00
7.852617539179726158e+00
7.862620873624541318e+00
7.872624208069355589e+00
7.882627542514170749e+00
7.892630876958985908e+00
7.902634211403800180e+00
7.912637545848615339e+00
7.922640880293430499e+00
7.932644214738245658e+00
7.942647549183060818e+00
7.952650883627875089e+00
7.962654218072690249e+00
7.972657552517505408e+00
7.982660886962319680e+00
7.992664221407134839e+00
8.002667555851949999e+00
8.012670890296764270e+00
8.022674224741580318e+00
8.032677559186394589e+00
8.042680893631210637e+00
8.052684228076024908e+00
8.062687562520839180e+00
8.072690896965655227e+00
8.082694231410469499e+00
8.092697565855283770e+00
8.102700900300099818e+00
8.112704234744914089e+00
8.122707569189728360e+00
8.132710903634544408e+00
8.142714238079358680e+00
8.152717572524174727e+00
8.162720906968988999e+00
8.172724241413803270e+00
8.182727575858619318e+00
8.192730910303433589e+00
8.202734244748249637e+00
8.212737579193063908e+00
8.222740913637878180e+00
8.232744248082694227e+00
8.242747582527508499e+00
8.252750916972322770e+00
8.262754251417138818e+00
8.272757585861953089e+00
8.282760920306767360e+00
8.292764254751583408e+00
8.302767589196397680e+00
8.312770923641213727e+00
8.322774258086027999e+00
8.332777592530842270e+00
8.342780926975658318e+00
8.352784261420472589e+00
8.362787595865288637e+00
8.372790930310102908e+00
8.382794264754917180e+00
8.392797599199733227e+00
8.402800933644547499e+00
8.412804268089361770e+00
8.422807602534177818e+00
8.432810936978992089e+00
8.442814271423806360e+00
8.452817605868622408e+00
8.462820940313436680e+00
8.472824274758252727e+00
8.482827609203066999e+00
8.492830943647881270e+00
8.502834278092697318e+00
8.512837612537511589e+00
8.522840946982327637e+00
8.532844281427141908e+00
8.542847615871956179e+00
8.552850950316772227e+00
8.562854284761586499e+00
8.572857619206400770e+00
8.582860953651216818e+00
8.592864288096031089e+00
8.602867622540845360e+00
8.612870956985661408e+00
8.622874291430475679e+00
8.632877625875291727e+00
8.642880960320105999e+00
8.652884294764920270e+00
8.662887629209736318e+00
8.672890963654550589e+00
8.682894298099366637e+00
8.692897632544180908e+00
8.702900966988995179e+00
8.712904301433811227e+00
8.722907635878625499e+00
8.732910970323439770e+00
8.742914304768255818e+00
8.752917639213070089e+00
8.762920973657884360e+00
8.772924308102700408e+00
8.782927642547514679e+00
8.792930976992330727e+00
8.802934311437144999e+00
8.812937645881959270e+00
8.822940980326775318e+00
8.832944314771589589e+00
8.842947649216405637e+00
8.852950983661219908e+00
8.862954318106034179e+00
8.872957652550850227e+00
8.882960986995664499e+00
8.892964321440478770e+00
8.902967655885294818e+00
8.912970990330109089e+00
8.922974324774923360e+00
8.932977659219739408e+00
8.942980993664553679e+00
8.952984328109369727e+00
8.962987662554183999e+00
8.972990996998998270e+00
8.982994331443814318e+00
8.992997665888628589e+00
9.003001000333444637e+00
9.013004334778258908e+00
9.023007669223073179e+00
9.033011003667889227e+00
9.043014338112703498e+00
9.053017672557517770e+00
9.063021007002333818e+00
9.073024341447148089e+00
9.083027675891962360e+00
9.093031010336778408e+00
9.103034344781592679e+00
9.113037679226408727e+00
9.123041013671222998e+00
9.133044348116037270e+00
9.143047682560853318e+00
9.153051017005667589e+00
9.163054351450483637e+00
9.173057685895297908e+00
9.183061020340112179e+00
9.193064354784928227e+00
9.203067689229742498e+00
9.213071023674556770e+00
9.223074358119372818e+00
9.233077692564187089e+00
9.243081027009001360e+00
9.253084361453817408e+00
9.263087695898631679e+00
9.273091030343447727e+00
9.283094364788261998e+00
9.293097699233076270e+00
9.303101033677892318e+00
9.313104368122706589e+00
9.323107702567522637e+00
9.333111037012336908e+00
9.343114371457151179e+00
9.353117705901967227e+00
9.363121040346781498e+00
9.373124374791595770e+00
9.383127709236411818e+00
9.393131043681226089e+00
9.403134378126040360e+00
9.413137712570856408e+00
9.423141047015670679e+00
9.433144381460486727e+00
9.443147715905300998e+00
9.453151050350115270e+00
9.463154384794931318e+00
9.473157719239745589e+00
9.483161053684561637e+00
9.493164388129375908e+00
9.503167722574190179e+00
9.513171057019006227e+00
9.523174391463820498e+00
9.533177725908634770e+00
9.543181060353450818e+00
9.553184394798265089e+00
9.563187729243079360e+00
9.573191063687895408e+00
9.583194398132709679e+00
9.593197732577525727e+00
9.603201067022339998e+00
9.613204401467154270e+00
9.623207735911970317e+00
9.633211070356784589e+00
9.643214404801600637e+00
9.653217739246414908e+00
9.663221073691229179e+00
9.673224408136045227e+00
9.683227742580859498e+00
9.693231077025673770e+00
9.703234411470489817e+00
9.713237745915304089e+00
9.723241080360118360e+00
9.733244414804934408e+00
9.743247749249748679e+00
9.753251083694564727e+00
9.763254418139378998e+00
9.773257752584193270e+00
9.783261087029009317e+00
9.793264421473823589e+00
9.803267755918639637e+00
9.813271090363453908e+00
9.823274424808268179e+00
9.833277759253084227e+00
9.843281093697898498e+00
9.853284428142712770e+00
9.863287762587528817e+00
9.873291097032343089e+00
9.883294431477157360e+00
9.893297765921973408e+00
9.903301100366787679e+00
9.913304434811603727e+00
9.923307769256417998e+00
9.933311103701232270e+00
9.943314438146048317e+00
9.953317772590862589e+00
9.963321107035678637e+00
9.973324441480492908e+00
9.983327775925307179e+00
9.993331110370123227e+00
1.000333444481493750e+01
1.001333777925975177e+01
1.002334111370456782e+01
1.003334444814938209e+01
1.004334778259419636e+01
1.005335111703901241e+01
1.006335445148382668e+01
1.007335778592864273e+01
1.008336112037345700e+01
1.009336445481827127e+01
1.010336778926308732e+01
1.011337112370790159e+01
1.012337445815271764e+01
1.013337779259753191e+01
1.014338112704234618e+01
1.015338446148716223e+01
1.016338779593197650e+01
1.017339113037679077e+01
1.018339446482160682e+01
1.019339779926642109e+01
1.020340113371123536e+01
1.021340446815605141e+01
1.022340780260086568e+01
1.023341113704568173e+01
1.024341447149049600e+01
1.025341780593531027e+01
1.026342114038012632e+01
1.027342447482494059e+01
1.028342780926975664e+01
1.029343114371457091e+01
1.030343447815938518e+01
1.031343781260420123e+01
1.032344114704901550e+01
1.033344448149382977e+01
1.034344781593864582e+01
1.035345115038346009e+01
1.036345448482827436e+01
1.037345781927309041e+01
1.038346115371790468e+01
1.039346448816272073e+01
1.040346782260753500e+01
1.041347115705234927e+01
1.042347449149716532e+01
1.043347782594197959e+01
1.044348116038679564e+01
1.045348449483160991e+01
1.046348782927642418e+01
1.047349116372124023e+01
1.048349449816605450e+01
1.049349783261086877e+01
1.050350116705568482e+01
1.051350450150049909e+01
1.052350783594531336e+01
1.053351117039012941e+01
1.054351450483494368e+01
1.055351783927975973e+01
1.056352117372457400e+01
1.057352450816938827e+01
1.058352784261420432e+01
1.059353117705901859e+01
1.060353451150383464e+01
1.061353784594864891e+01
1.062354118039346318e+01
1.063354451483827923e+01
1.064354784928309350e+01
1.065355118372790777e+01
1.066355451817272382e+01
1.067355785261753809e+01
1.068356118706235236e+01
1.069356452150716841e+01
1.070356785595198268e+01
1.071357119039679873e+01
1.072357452484161300e+01
1.073357785928642727e+01
1.074358119373124332e+01
1.075358452817605759e+01
1.076358786262087364e+01
1.077359119706568791e+01
1.078359453151050218e+01
1.079359786595531823e+01
1.080360120040013250e+01
1.081360453484494677e+01
1.082360786928976282e+01
1.083361120373457709e+01
1.084361453817939136e+01
1.085361787262420741e+01
1.086362120706902168e+01
1.087362454151383773e+01
1.088362787595865200e+01
1.089363121040346627e+01
1.090363454484828232e+01
1.091363787929309659e+01
1.092364121373791264e+01
1.093364454818272691e+01
1.094364788262754118e+01
1.095365121707235723e+01
1.096365455151717150e+01
1.097365788596198577e+01
1.098366122040680182e+01
1.099366455485161609e+01
1.100366788929643036e+01
1.101367122374124641e+01
1.102367455818606068e+01
1.103367789263087673e+01
1.104368122707569100e+01
1.105368456152050527e+01
1.106368789596532132e+01
1.107369123041013559e+01
1.108369456485495164e+01
1.109369789929976591e+01
1.110370123374458018e+01
1.111370456818939623e+01
1.112370790263421050e+01
1.113371123707902477e+01
1.114371457152384082e+01
1.115371790596865509e+01
1.116372124041346936e+01
1.117372457485828541e+01
1.118372790930309968e+01
1.119373124374791573e+01
1.120373457819273000e+01
1.121373791263754427e+01
1.122374124708236032e+01
1.123374458152717459e+01
1.124374791597199064e+01
1.125375125041680491e+01
1.126375458486161918e+01
1.127375791930643523e+01
1.128376125375124950e+01
1.129376458819606377e+01
1.130376792264087982e+01
1.131377125708569409e+01
1.132377459153050836e+01
1.133377792597532441e+01
1.134378126042013868e+01
1.135378459486495473e+01
1.136378792930976900e+01
1.137379126375458327e+01
1.138379459819939932e+01
1.139379793264421359e+01
1.140380126708902964e+01
1.141380460153384391e+01
1.142380793597865818e+01
1.143381127042347423e+01
1.144381460486828850e+01
1.145381793931310277e+01
1.146382127375791882e+01
1.147382460820273309e+01
1.148382794264754736e+01
1.149383127709236341e+01
1.150383461153717768e+01
1.151383794598199373e+01
1.152384128042680800e+01
1.153384461487162227e+01
1.154384794931643832e+01
1.155385128376125259e+01
1.156385461820606864e+01
1.157385795265088291e+01
1.158386128709569718e+01
1.159386462154051323e+01
1.160386795598532750e+01
1.161387129043014177e+01
1.162387462487495782e+01
1.163387795931977209e+01
1.164388129376458636e+01
1.165388462820940241e+01
1.166388796265421668e+01
1.167389129709903273e+01
1.168389463154384700e+01
1.169389796598866127e+01
1.170390130043347732e+01
1.171390463487829159e+01
1.172390796932310764e+01
1.173391130376792191e+01
1.174391463821273618e+01
1.175391797265755223e+01
1.176392130710236650e+01
1.177392464154718077e+01
1.178392797599199682e+01
1.179393131043681109e+01
1.180393464488162536e+01
1.181393797932644141e+01
1.182394131377125568e+01
1.183394464821607173e+01
1.184394798266088600e+01
1.185395131710570027e+01
1.186395465155051632e+01
1.187395798599533059e+01
1.188396132044014664e+01
1.189396465488496091e+01
1.190396798932977518e+01
1.191397132377459123e+01
1.192397465821940550e+01
1.193397799266421977e+01
1.194398132710903582e+01
1.195398466155385009e+01
1.196398799599866436e+01
1.197399133044348041e+01
1.198399466488829468e+01
1.199399799933311073e+01
1.200400133377792500e+01
1.201400466822273927e+01
1.202400800266755532e+01
1.203401133711236959e+01
1.204401467155718564e+01
1.205401800600199991e+01
1.206402134044681418e+01
1.207402467489163023e+01
1.208402800933644450e+01
1.209403134378125877e+01
1.210403467822607482e+01
1.211403801267088909e+01
1.212404134711570336e+01
1.213404468156051941e+01
1.214404801600533368e+01
1.215405135045014973e+01
1.216405468489496400e+01
1.217405801933977827e+01
1.218406135378459432e+01
1.219406468822940859e+01
1.220406802267422464e+01
1.221407135711903891e+01
1.222407469156385318e+01
1.223407802600866923e+01
1.224408136045348350e+01
1.225408469489829777e+01
1.226408802934311382e+01
1.227409136378792809e+01
1.228409469823274236e+01
1.229409803267755841e+01
1.230410136712237268e+01
1.231410470156718873e+01
1.232410803601200300e+01
1.233411137045681727e+01
1.234411470490163332e+01
1.235411803934644759e+01
1.236412137379126364e+01
1.237412470823607791e+01
1.238412804268089218e+01
1.239413137712570823e+01
1.240413471157052250e+01
1.241413804601533677e+01
1.242414138046015282e+01
1.243414471490496709e+01
1.244414804934978136e+01
1.245415138379459741e+01
1.246415471823941168e+01
1.247415805268422773e+01
1.248416138712904200e+01
1.249416472157385627e+01
1.250416805601867232e+01
1.251417139046348659e+01
1.252417472490830264e+01
1.253417805935311691e+01
1.254418139379793118e+01
1.255418472824274723e+01
1.256418806268756150e+01
1.257419139713237577e+01
1.258419473157719182e+01
1.259419806602200609e+01
1.260420140046682036e+01
1.261420473491163641e+01
1.262420806935645068e+01
1.263421140380126673e+01
1.264421473824608100e+01
1.265421807269089527e+01
1.266422140713571132e+01
1.267422474158052559e+01
1.268422807602534164e+01
1.269423141047015591e+01
1.270423474491497018e+01
1.271423807935978623e+01
1.272424141380460050e+01
1.273424474824941477e+01
1.274424808269423082e+01
1.275425141713904509e+01
1.276425475158385936e+01
1.277425808602867541e+01
1.278426142047348968e+01
1.279426475491830573e+01
1.280426808936312000e+01
1.281427142380793427e+01
1.282427475825275032e+01
1.283427809269756459e+01
1.284428142714238064e+01
1.285428476158719491e+01
1.286428809603200918e+01
1.287429143047682523e+01
1.288429476492163950e+01
1.289429809936645377e+01
1.290430143381126982e+01
1.291430476825608409e+01
1.292430810270089836e+01
1.293431143714571441e+01
1.294431477159052868e+01
1.295431810603534473e+01
1.296432144048015900e+01
1.297432477492497327e+01
1.298432810936978932e+01
1.299433144381460359e+01
1.300433477825941964e+01
1.301433811270423391e+01
1.302434144714904818e+01
1.303434478159386423e+01
1.304434811603867850e+01
1.305435145048349277e+01
1.306435478492830882e+01
1.307435811937312309e+01
1.308436145381793736e+01
1.309436478826275341e+01
1.310436812270756768e+01
1.311437145715238373e+01
1.312437479159719800e+01
1.313437812604201227e+01
1.314438146048682832e+01
1.315438479493164259e+01
1.316438812937645864e+01
1.317439146382127291e+01
1.318439479826608718e+01
1.319439813271090323e+01
1.320440146715571750e+01
1.321440480160053177e+01
1.322440813604534782e+01
1.323441147049016209e+01
1.324441480493497636e+01
1.325441813937979241e+01
1.326442147382460668e+01
1.327442480826942273e+01
1.328442814271423700e+01
1.329443147715905127e+01
1.330443481160386732e+01
1.331443814604868159e+01
1.332444148049349764e+01
1.333444481493831191e+01
1.334444814938312618e+01
1.335445148382794223e+01
1.336445481827275650e+01
1.337445815271757077e+01
1.338446148716238682e+01
1.339446482160720109e+01
1.340446815605201536e+01
1.341447149049683141e+01
1.342447482494164568e+01
1.343447815938646173e+01
1.344448149383127600e+01
1.345448482827609027e+01
1.346448816272090632e+01
1.347449149716572059e+01
1.348449483161053664e+01
1.349449816605535091e+01
1.350450150050016518e+01
1.351450483494498123e+01
1.352450816938979550e+01
1.353451150383460977e+01
1.354451483827942582e+01
1.355451817272424009e+01
1.356452150716905436e+01
1.357452484161387041e+01
1.358452817605868468e+01
1.359453151050350073e+01
1.360453484494831500e+01
1.361453817939312927e+01
1.362454151383794532e+01
1.363454484828275959e+01
1.364454818272757564e+01
1.365455151717238991e+01
1.366455485161720418e+01
1.367455818606202023e+01
1.368456152050683450e+01
1.369456485495164877e+01
1.370456818939646482e+01
1.371457152384127909e+01
1.372457485828609336e+01
1.373457819273090941e+01
1.374458152717572368e+01
1.375458486162053973e+01
1.376458819606535400e+01
1.377459153051016827e+01
1.378459486495498432e+01
1.379459819939979859e+01
1.380460153384461464e+01
1.381460486828942891e+01
1.382460820273424318e+01
1.383461153717905923e+01
1.384461487162387350e+01
1.385461820606868777e+01
1.386462154051350382e+01
1.387462487495831809e+01
1.388462820940313236e+01
1.389463154384794841e+01
1.390463487829276268e+01
1.391463821273757873e+01
1.392464154718239300e+01
1.393464488162720727e+01
1.394464821607202332e+01
1.395465155051683759e+01
1.396465488496165364e+01
1.397465821940646791e+01
1.398466155385128218e+01
1.399466488829609823e+01
1.400466822274091250e+01
1.401467155718572677e+01
1.402467489163054282e+01
1.403467822607535709e+01
1.404468156052017136e+01
1.405468489496498741e+01
1.406468822940980168e+01
1.407469156385461773e+01
1.408469489829943200e+01
1.409469823274424627e+01
1.410470156718906232e+01
1.411470490163387659e+01
1.412470823607869264e+01
1.413471157052350691e+01
1.414471490496832118e+01
1.415471823941313723e+01
1.416472157385795150e+01
1.417472490830276577e+01
1.418472824274758182e+01
1.419473157719239609e+01
1.420473491163721036e+01
1.421473824608202641e+01
1.422474158052684068e+01
1.423474491497165673e+01
1.424474824941647100e+01
1.425475158386128527e+01
1.426475491830610132e+01
1.427475825275091559e+01
1.428476158719573164e+01
1.429476492164054591e+01
1.430476825608536018e+01
1.431477159053017623e+01
1.432477492497499050e+01
1.433477825941980477e+01
1.434478159386462082e+01
1.435478492830943509e+01
1.436478826275424936e+01
1.437479159719906541e+01
1.438479493164387968e+01
1.439479826608869573e+01
1.440480160053351000e+01
1.441480493497832427e+01
1.442480826942314032e+01
1.443481160386795459e+01
1.444481493831277064e+01
1.445481827275758491e+01
1.446482160720239918e+01
1.447482494164721523e+01
1.448482827609202950e+01
1.449483161053684377e+01
1.450483494498165982e+01
1.451483827942647409e+01
1.452484161387128836e+01
1.453484494831610441e+01
1.454484828276091868e+01
1.455485161720573473e+01
1.456485495165054900e+01
1.457485828609536327e+01
1.458486162054017932e+01
1.459486495498499359e+01
1.460486828942980964e+01
1.461487162387462391e+01
1.462487495831943818e+01
1.463487829276425423e+01
1.464488162720906850e+01
1.465488496165388277e+01
1.466488829609869882e+01
1.467489163054351309e+01
1.468489496498832736e+01
1.469489829943314341e+01
1.470490163387795768e+01
1.471490496832277373e+01
1.472490830276758800e+01
1.473491163721240227e+01
1.474491497165721832e+01
1.475491830610203259e+01
1.476492164054684864e+01
1.477492497499166291e+01
1.478492830943647718e+01
1.479493164388129323e+01
1.480493497832610750e+01
1.481493831277092177e+01
1.482494164721573782e+01
1.483494498166055209e+01
1.484494831610536636e+01
1.485495165055018241e+01
1.486495498499499668e+01
1.487495831943981273e+01
1.488496165388462700e+01
1.489496498832944127e+01
1.490496832277425732e+01
1.491497165721907159e+01
1.492497499166388764e+01
1.493497832610870191e+01
1.494498166055351618e+01
1.495498499499833223e+01
1.496498832944314650e+01
1.497499166388796077e+01
1.498499499833277682e+01
1.499499833277759109e+01
1.500500166722240536e+01
1.501500500166722141e+01
1.502500833611203568e+01
1.503501167055685173e+01
1.504501500500166600e+01
1.505501833944648027e+01
1.506502167389129632e+01
1.507502500833611059e+01
1.508502834278092664e+01
1.509503167722574091e+01
1.510503501167055518e+01
1.511503834611537123e+01
1.512504168056018550e+01
1.513504501500499977e+01
1.514504834944981582e+01
1.515505168389463009e+01
1.516505501833944436e+01
1.517505835278426041e+01
1.518506168722907468e+01
1.519506502167389073e+01
1.520506835611870500e+01
1.521507169056351927e+01
1.522507502500833532e+01
1.523507835945314959e+01
1.524508169389796564e+01
1.525508502834277991e+01
1.526508836278759418e+01
1.527509169723241023e+01
1.528509503167722450e+01
1.529509836612203877e+01
1.530510170056685482e+01
1.531510503501166909e+01
1.532510836945648336e+01
1.533511170390129941e+01
1.534511503834611368e+01
1.535511837279092973e+01
1.536512170723574400e+01
1.537512504168055827e+01
1.538512837612537432e+01
1.539513171057018859e+01
1.540513504501500464e+01
1.541513837945981891e+01
1.542514171390463318e+01
1.543514504834944923e+01
1.544514838279426350e+01
1.545515171723907777e+01
1.546515505168389382e+01
1.547515838612870809e+01
1.548516172057352236e+01
1.549516505501833841e+01
1.550516838946315268e+01
1.551517172390796873e+01
1.552517505835278300e+01
1.553517839279759727e+01
1.554518172724241332e+01
1.555518506168722759e+01
1.556518839613204364e+01
1.557519173057685791e+01
1.558519506502167218e+01
1.559519839946648823e+01
1.560520173391130250e+01
1.561520506835611677e+01
1.562520840280093282e+01
1.563521173724574709e+01
1.564521507169056136e+01
1.565521840613537741e+01
1.566522174058019168e+01
1.567522507502500773e+01
1.568522840946982200e+01
1.569523174391463627e+01
1.570523507835945232e+01
1.571523841280426659e+01
1.572524174724908264e+01
1.573524508169389691e+01
1.574524841613871118e+01
1.575525175058352723e+01
1.576525508502834150e+01
1.577525841947315577e+01
1.578526175391797182e+01
1.579526508836278609e+01
1.580526842280760036e+01
1.581527175725241641e+01
1.582527509169723068e+01
1.583527842614204673e+01
1.584528176058686100e+01
1.585528509503167527e+01
1.586528842947649132e+01
1.587529176392130559e+01
1.588529509836612164e+01
1.589529843281093591e+01
1.590530176725575018e+01
1.591530510170056623e+01
1.592530843614538050e+01
1.593531177059019477e+01
1.594531510503501082e+01
1.595531843947982509e+01
1.596532177392463936e+01
1.597532510836945541e+01
1.598532844281426968e+01
1.599533177725908573e+01
1.600533511170390000e+01
1.601533844614871427e+01
1.602534178059352854e+01
1.603534511503834636e+01
1.604534844948316064e+01
1.605535178392797491e+01
1.606535511837278918e+01
1.607535845281760345e+01
1.608536178726242127e+01
1.609536512170723555e+01
1.610536845615204982e+01
1.611537179059686409e+01
1.612537512504167836e+01
1.613537845948649263e+01
1.614538179393131045e+01
1.615538512837612473e+01
1.616538846282093900e+01
1.617539179726575327e+01
1.618539513171056754e+01
1.619539846615538536e+01
1.620540180060019964e+01
1.621540513504501391e+01
1.622540846948982818e+01
1.623541180393464245e+01
1.624541513837945672e+01
1.625541847282427455e+01
1.626542180726908882e+01
1.627542514171390309e+01
1.628542847615871736e+01
1.629543181060353163e+01
1.630543514504834945e+01
1.631543847949316373e+01
1.632544181393797800e+01
1.633544514838279227e+01
1.634544848282760654e+01
1.635545181727242436e+01
1.636545515171723864e+01
1.637545848616205291e+01
1.638546182060686718e+01
1.639546515505168145e+01
1.640546848949649927e+01
1.641547182394131354e+01
1.642547515838612782e+01
1.643547849283094209e+01
1.644548182727575636e+01
1.645548516172057063e+01
1.646548849616538845e+01
1.647549183061020273e+01
1.648549516505501700e+01
1.649549849949983127e+01
1.650550183394464554e+01
1.651550516838946336e+01
1.652550850283427764e+01
1.653551183727909191e+01
1.654551517172390618e+01
1.655551850616872045e+01
1.656552184061353472e+01
1.657552517505835254e+01
1.658552850950316682e+01
1.659553184394798109e+01
1.660553517839279536e+01
1.661553851283760963e+01
1.662554184728242745e+01
1.663554518172724173e+01
1.664554851617205600e+01
1.665555185061687027e+01
1.666555518506168454e+01
1.667555851950650236e+01
1.668556185395131664e+01
1.669556518839613091e+01
1.670556852284094518e+01
1.671557185728575945e+01
1.672557519173057727e+01
1.673557852617539154e+01
1.674558186062020582e+01
1.675558519506502009e+01
1.676558852950983436e+01
1.677559186395464863e+01
1.678559519839946645e+01
1.679559853284428073e+01
1.680560186728909500e+01
1.681560520173390927e+01
1.682560853617872354e+01
1.683561187062354136e+01
1.684561520506835564e+01
1.685561853951316991e+01
1.686562187395798418e+01
1.687562520840279845e+01
1.688562854284761272e+01
1.689563187729243054e+01
1.690563521173724482e+01
1.691563854618205909e+01
1.692564188062687336e+01
1.693564521507168763e+01
1.694564854951650545e+01
1.695565188396131973e+01
1.696565521840613400e+01
1.697565855285094827e+01
1.698566188729576254e+01
1.699566522174058036e+01
1.700566855618539464e+01
1.701567189063020891e+01
1.702567522507502318e+01
1.703567855951983745e+01
1.704568189396465527e+01
1.705568522840946954e+01
1.706568856285428382e+01
1.707569189729909809e+01
1.708569523174391236e+01
1.709569856618872663e+01
1.710570190063354445e+01
1.711570523507835873e+01
1.712570856952317300e+01
1.713571190396798727e+01
1.714571523841280154e+01
1.715571857285761936e+01
1.716572190730243364e+01
1.717572524174724791e+01
1.718572857619206218e+01
1.719573191063687645e+01
1.720573524508169072e+01
1.721573857952650854e+01
1.722574191397132282e+01
1.723574524841613709e+01
1.724574858286095136e+01
1.725575191730576563e+01
1.726575525175058345e+01
1.727575858619539773e+01
1.728576192064021200e+01
1.729576525508502627e+01
1.730576858952984054e+01
1.731577192397465836e+01
1.732577525841947264e+01
1.733577859286428691e+01
1.734578192730910118e+01
1.735578526175391545e+01
1.736578859619873327e+01
1.737579193064354754e+01
1.738579526508836182e+01
1.739579859953317609e+01
1.740580193397799036e+01
1.741580526842280463e+01
1.742580860286762245e+01
1.743581193731243673e+01
1.744581527175725100e+01
1.745581860620206527e+01
1.746582194064687954e+01
1.747582527509169736e+01
1.748582860953651164e+01
1.749583194398132591e+01
1.750583527842614018e+01
1.751583861287095445e+01
1.752584194731576872e+01
1.753584528176058654e+01
1.754584861620540082e+01
1.755585195065021509e+01
1.756585528509502936e+01
1.757585861953984363e+01
1.758586195398466145e+01
1.759586528842947573e+01
1.760586862287429000e+01
1.761587195731910427e+01
1.762587529176391854e+01
1.763587862620873636e+01
1.764588196065355064e+01
1.765588529509836491e+01
1.766588862954317918e+01
1.767589196398799345e+01
1.768589529843281127e+01
1.769589863287762554e+01
1.770590196732243982e+01
1.771590530176725409e+01
1.772590863621206836e+01
1.773591197065688263e+01
1.774591530510170045e+01
1.775591863954651473e+01
1.776592197399132900e+01
1.777592530843614327e+01
1.778592864288095754e+01
1.779593197732577536e+01
1.780593531177058964e+01
1.781593864621540391e+01
1.782594198066021818e+01
1.783594531510503245e+01
1.784594864954984672e+01
1.785595198399466454e+01
1.786595531843947882e+01
1.787595865288429309e+01
1.788596198732910736e+01
1.789596532177392163e+01
1.790596865621873945e+01
1.791597199066355373e+01
1.792597532510836800e+01
1.793597865955318227e+01
1.794598199399799654e+01
1.795598532844281436e+01
1.796598866288762864e+01
1.797599199733244291e+01
1.798599533177725718e+01
1.799599866622207145e+01
1.800600200066688927e+01
1.801600533511170354e+01
1.802600866955651782e+01
1.803601200400133209e+01
1.804601533844614636e+01
1.805601867289096063e+01
1.806602200733577845e+01
1.807602534178059273e+01
1.808602867622540700e+01
1.809603201067022127e+01
1.810603534511503554e+01
1.811603867955985336e+01
1.812604201400466764e+01
1.813604534844948191e+01
1.814604868289429618e+01
1.815605201733911045e+01
1.816605535178392472e+01
1.817605868622874254e+01
1.818606202067355682e+01
1.819606535511837109e+01
1.820606868956318536e+01
1.821607202400799963e+01
1.822607535845281745e+01
1.823607869289763173e+01
1.824608202734244600e+01
1.825608536178726027e+01
1.826608869623207454e+01
1.827609203067689236e+01
1.828609536512170664e+01
1.829609869956652091e+01
1.830610203401133518e+01
1.831610536845614945e+01
1.832610870290096727e+01
1.833611203734578154e+01
1.834611537179059582e+01
1.835611870623541009e+01
1.836612204068022436e+01
1.837612537512503863e+01
1.838612870956985645e+01
1.839613204401467073e+01
1.840613537845948500e+01
1.841613871290429927e+01
1.842614204734911354e+01
1.843614538179393136e+01
1.844614871623874564e+01
1.845615205068355991e+01
1.846615538512837418e+01
1.847615871957318845e+01
1.848616205401800272e+01
1.849616538846282054e+01
1.850616872290763482e+01
1.851617205735244909e+01
1.852617539179726336e+01
1.853617872624207763e+01
1.854618206068689545e+01
1.855618539513170973e+01
1.856618872957652400e+01
1.857619206402133827e+01
1.858619539846615254e+01
1.859619873291097036e+01
1.860620206735578464e+01
1.861620540180059891e+01
1.862620873624541318e+01
1.863621207069022745e+01
1.864621540513504527e+01
1.865621873957985954e+01
1.866622207402467382e+01
1.867622540846948809e+01
1.868622874291430236e+01
1.869623207735911663e+01
1.870623541180393445e+01
1.871623874624874873e+01
1.872624208069356300e+01
1.873624541513837727e+01
1.874624874958319154e+01
1.875625208402800936e+01
1.876625541847282364e+01
1.877625875291763791e+01
1.878626208736245218e+01
1.879626542180726645e+01
1.880626875625208072e+01
1.881627209069689854e+01
1.882627542514171282e+01
1.883627875958652709e+01
1.884628209403134136e+01
1.885628542847615563e+01
1.886628876292097345e+01
1.887629209736578773e+01
1.888629543181060200e+01
1.889629876625541627e+01
1.890630210070023054e+01
1.891630543514504836e+01
1.892630876958986264e+01
1.893631210403467691e+01
1.894631543847949118e+01
1.895631877292430545e+01
1.896632210736912327e+01
1.897632544181393754e+01
1.898632877625875182e+01
1.899633211070356609e+01
1.900633544514838036e+01
1.901633877959319463e+01
1.902634211403801245e+01
1.903634544848282673e+01
1.904634878292764100e+01
1.905635211737245527e+01
1.906635545181726954e+01
1.907635878626208736e+01
1.908636212070690164e+01
1.909636545515171591e+01
1.910636878959653018e+01
1.911637212404134445e+01
1.912637545848615872e+01
1.913637879293097654e+01
1.914638212737579082e+01
1.915638546182060509e+01
1.916638879626541936e+01
1.917639213071023363e+01
1.918639546515505145e+01
1.919639879959986573e+01
1.920640213404468000e+01
1.921640546848949427e+01
1.922640880293430854e+01
1.923641213737912636e+01
1.924641547182394063e+01
1.925641880626875491e+01
1.926642214071356918e+01
1.927642547515838345e+01
1.928642880960320127e+01
1.929643214404801554e+01
1.930643547849282982e+01
1.931643881293764409e+01
1.932644214738245836e+01
1.933644548182727263e+01
1.934644881627209045e+01
1.935645215071690473e+01
1.936645548516171900e+01
1.937645881960653327e+01
1.938646215405134754e+01
1.939646548849616536e+01
1.940646882294097963e+01
1.941647215738579391e+01
1.942647549183060818e+01
1.943647882627542245e+01
1.944648216072023672e+01
1.945648549516505454e+01
1.946648882960986882e+01
1.947649216405468309e+01
1.948649549849949736e+01
1.949649883294431163e+01
1.950650216738912945e+01
1.951650550183394373e+01
1.952650883627875800e+01
1.953651217072357227e+01
1.954651550516838654e+01
1.955651883961320436e+01
1.956652217405801863e+01
1.957652550850283291e+01
1.958652884294764718e+01
1.959653217739246145e+01
1.960653551183727927e+01
1.961653884628209354e+01
1.962654218072690782e+01
1.963654551517172209e+01
1.964654884961653636e+01
1.965655218406135063e+01
1.966655551850616845e+01
1.967655885295098273e+01
1.968656218739579700e+01
1.969656552184061127e+01
1.970656885628542554e+01
1.971657219073024336e+01
1.972657552517505763e+01
1.973657885961987191e+01
1.974658219406468618e+01
1.975658552850950045e+01
1.976658886295431472e+01
1.977659219739913254e+01
1.978659553184394682e+01
1.979659886628876109e+01
1.980660220073357536e+01
1.981660553517838963e+01
1.982660886962320745e+01
1.983661220406802173e+01
1.984661553851283600e+01
1.985661887295765027e+01
1.986662220740246454e+01
1.987662554184728236e+01
1.988662887629209663e+01
1.989663221073691091e+01
1.990663554518172518e+01
1.991663887962653945e+01
1.992664221407135727e+01
1.993664554851617154e+01
1.994664888296098582e+01
1.995665221740580009e+01
1.996665555185061436e+01
1.997665888629542863e+01
1.998666222074024645e+01
1.999666555518506073e+01
2.000666888962987500e+01
2.001667222407468927e+01
2.002667555851950354e+01
2.003667889296432136e+01
2.004668222740913563e+01
2.005668556185394991e+01
2.006668889629876418e+01
2.007669223074357845e+01
2.008669556518839272e+01
2.009669889963321054e+01
2.010670223407802482e+01
2.011670556852283909e+01
2.012670890296765336e+01
2.013671223741246763e+01
2.014671557185728545e+01
2.015671890630209973e+01
2.016672224074691400e+01
2.017672557519172827e+01
2.018672890963654254e+01
2.019673224408136036e+01
2.020673557852617463e+01
2.021673891297098891e+01
2.022674224741580318e+01
2.023674558186061745e+01
2.024674891630543527e+01
2.025675225075024954e+01
2.026675558519506382e+01
2.027675891963987809e+01
2.028676225408469236e+01
2.029676558852950663e+01
2.030676892297432445e+01
2.031677225741913873e+01
2.032677559186395300e+01
2.033677892630876727e+01
2.034678226075358154e+01
2.035678559519839936e+01
2.036678892964321363e+01
2.037679226408802791e+01
2.038679559853284218e+01
2.039679893297765645e+01
2.040680226742247072e+01
2.041680560186728854e+01
2.042680893631210282e+01
2.043681227075691709e+01
2.044681560520173136e+01
2.045681893964654563e+01
2.046682227409136345e+01
2.047682560853617773e+01
2.048682894298099200e+01
2.049683227742580627e+01
2.050683561187062054e+01
2.051683894631543836e+01
2.052684228076025263e+01
2.053684561520506691e+01
2.054684894964988118e+01
2.055685228409469545e+01
2.056685561853951327e+01
2.057685895298432754e+01
2.058686228742914182e+01
2.059686562187395609e+01
2.060686895631877036e+01
2.061687229076358463e+01
2.062687562520840245e+01
2.063687895965321673e+01
2.064688229409803100e+01
2.065688562854284527e+01
2.066688896298765954e+01
2.067689229743247736e+01
2.068689563187729163e+01
2.069689896632210591e+01
2.070690230076692018e+01
2.071690563521173445e+01
2.072690896965654872e+01
2.073691230410136654e+01
2.074691563854618082e+01
2.075691897299099509e+01
2.076692230743580936e+01
2.077692564188062363e+01
2.078692897632544145e+01
2.079693231077025573e+01
2.080693564521507000e+01
2.081693897965988427e+01
2.082694231410469854e+01
2.083694564854951636e+01
2.084694898299433063e+01
2.085695231743914491e+01
2.086695565188395918e+01
2.087695898632877345e+01
2.088696232077359127e+01
2.089696565521840554e+01
2.090696898966321982e+01
2.091697232410803409e+01
2.092697565855284836e+01
2.093697899299766263e+01
2.094698232744248045e+01
2.095698566188729473e+01
2.096698899633210900e+01
2.097699233077692327e+01
2.098699566522173754e+01
2.099699899966655536e+01
2.100700233411136963e+01
2.101700566855618391e+01
2.102700900300099818e+01
2.103701233744581245e+01
2.104701567189062672e+01
2.105701900633544454e+01
2.106702234078025882e+01
2.107702567522507309e+01
2.108702900966988736e+01
2.109703234411470163e+01
2.110703567855951945e+01
2.111703901300433373e+01
2.112704234744914800e+01
2.113704568189396227e+01
2.114704901633877654e+01
2.115705235078359436e+01
2.116705568522840863e+01
2.117705901967322291e+01
2.118706235411803718e+01
2.119706568856285145e+01
2.120706902300766927e+01
2.121707235745248354e+01
2.122707569189729782e+01
2.123707902634211209e+01
2.124708236078692636e+01
2.125708569523174063e+01
2.126708902967655845e+01
2.127709236412137273e+01
2.128709569856618700e+01
2.129709903301100127e+01
2.130710236745581554e+01
2.131710570190063336e+01
2.132710903634544763e+01
2.133711237079026191e+01
2.134711570523507618e+01
2.135711903967989045e+01
2.136712237412470472e+01
2.137712570856952254e+01
2.138712904301433682e+01
2.139713237745915109e+01
2.140713571190396536e+01
2.141713904634877963e+01
2.142714238079359745e+01
2.143714571523841173e+01
2.144714904968322600e+01
2.145715238412804027e+01
2.146715571857285454e+01
2.147715905301767236e+01
2.148716238746248663e+01
2.149716572190730091e+01
2.150716905635211518e+01
2.151717239079692945e+01
2.152717572524174727e+01
2.153717905968656154e+01
2.154718239413137582e+01
2.155718572857619009e+01
2.156718906302100436e+01
2.157719239746581863e+01
2.158719573191063645e+01
2.159719906635545073e+01
2.160720240080026500e+01
2.161720573524507927e+01
2.162720906968989354e+01
2.163721240413471136e+01
2.164721573857952563e+01
2.165721907302433991e+01
2.166722240746915418e+01
2.167722574191396845e+01
2.168722907635878272e+01
2.169723241080360054e+01
2.170723574524841482e+01
2.171723907969322909e+01
2.172724241413804336e+01
2.173724574858285763e+01
2.174724908302767545e+01
2.175725241747248973e+01
2.176725575191730400e+01
2.177725908636211827e+01
2.178726242080693254e+01
2.179726575525175036e+01
2.180726908969656463e+01
2.181727242414137891e+01
2.182727575858619318e+01
2.183727909303100745e+01
2.184728242747582527e+01
2.185728576192063954e+01
2.186728909636545382e+01
2.187729243081026809e+01
2.188729576525508236e+01
2.189729909969989663e+01
2.190730243414471445e+01
2.191730576858952872e+01
2.192730910303434300e+01
2.193731243747915727e+01
2.194731577192397154e+01
2.195731910636878936e+01
2.196732244081360363e+01
2.197732577525841791e+01
2.198732910970323218e+01
2.199733244414804645e+01
2.200733577859286072e+01
2.201733911303767854e+01
2.202734244748249282e+01
2.203734578192730709e+01
2.204734911637212136e+01
2.205735245081693563e+01
2.206735578526175345e+01
2.207735911970656772e+01
2.208736245415138200e+01
2.209736578859619627e+01
2.210736912304101054e+01
2.211737245748582836e+01
2.212737579193064263e+01
2.213737912637545691e+01
2.214738246082027118e+01
2.215738579526508545e+01
2.216738912970990327e+01
2.217739246415471754e+01
2.218739579859953182e+01
2.219739913304434609e+01
2.220740246748916036e+01
2.221740580193397463e+01
2.222740913637879245e+01
2.223741247082360672e+01
2.224741580526842100e+01
2.225741913971323527e+01
2.226742247415804954e+01
2.227742580860286736e+01
2.228742914304768163e+01
2.229743247749249591e+01
2.230743581193731018e+01
2.231743914638212445e+01
2.232744248082693872e+01
2.233744581527175654e+01
2.234744914971657082e+01
2.235745248416138509e+01
2.236745581860619936e+01
2.237745915305101363e+01
2.238746248749583145e+01
2.239746582194064572e+01
2.240746915638546000e+01
2.241747249083027427e+01
2.242747582527508854e+01
2.243747915971990636e+01
2.244748249416472063e+01
2.245748582860953491e+01
2.246748916305434918e+01
2.247749249749916345e+01
2.248749583194398127e+01
2.249749916638879554e+01
2.250750250083360982e+01
2.251750583527842409e+01
2.252750916972323836e+01
2.253751250416805263e+01
2.254751583861287045e+01
2.255751917305768472e+01
2.256752250750249900e+01
2.257752584194731327e+01
2.258752917639212754e+01
2.259753251083694536e+01
2.260753584528175963e+01
2.261753917972657391e+01
2.262754251417138818e+01
2.263754584861620245e+01
2.264754918306101672e+01
2.265755251750583454e+01
2.266755585195064882e+01
2.267755918639546309e+01
2.268756252084027736e+01
2.269756585528509163e+01
2.270756918972990945e+01
2.271757252417472372e+01
2.272757585861953800e+01
2.273757919306435227e+01
2.274758252750916654e+01
2.275758586195398436e+01
2.276758919639879863e+01
2.277759253084361291e+01
2.278759586528842718e+01
2.279759919973324145e+01
2.280760253417805927e+01
2.281760586862287354e+01
2.282760920306768782e+01
2.283761253751250209e+01
2.284761587195731636e+01
2.285761920640213063e+01
2.286762254084694845e+01
2.287762587529176272e+01
2.288762920973657700e+01
2.289763254418139127e+01
2.290763587862620554e+01
2.291763921307102336e+01
2.292764254751583763e+01
2.293764588196065191e+01
2.294764921640546618e+01
2.295765255085028045e+01
2.296765588529509472e+01
2.297765921973991254e+01
2.298766255418472682e+01
2.299766588862954109e+01
2.300766922307435536e+01
2.301767255751916963e+01
2.302767589196398745e+01
2.303767922640880172e+01
2.304768256085361600e+01
2.305768589529843027e+01
2.306768922974324454e+01
2.307769256418806236e+01
2.308769589863287663e+01
2.309769923307769091e+01
2.310770256752250518e+01
2.311770590196731945e+01
2.312770923641213727e+01
2.313771257085695154e+01
2.314771590530176582e+01
2.315771923974658009e+01
2.316772257419139436e+01
2.317772590863620863e+01
2.318772924308102645e+01
2.319773257752584072e+01
2.320773591197065500e+01
2.321773924641546927e+01
2.322774258086028354e+01
2.323774591530510136e+01
2.324774924974991563e+01
2.325775258419472991e+01
2.326775591863954418e+01
2.327775925308435845e+01
2.328776258752917272e+01
2.329776592197399054e+01
2.330776925641880482e+01
2.331777259086361909e+01
2.332777592530843336e+01
2.333777925975324763e+01
2.334778259419806545e+01
2.335778592864287972e+01
2.336778926308769400e+01
2.337779259753250827e+01
2.338779593197732254e+01
2.339779926642214036e+01
2.340780260086695463e+01
2.341780593531176891e+01
2.342780926975658318e+01
2.343781260420139745e+01
2.344781593864621527e+01
2.345781927309102954e+01
2.346782260753584382e+01
2.347782594198065809e+01
2.348782927642547236e+01
2.349783261087028663e+01
2.350783594531510445e+01
2.351783927975991872e+01
2.352784261420473300e+01
2.353784594864954727e+01
2.354784928309436154e+01
2.355785261753917936e+01
2.356785595198399363e+01
2.357785928642880791e+01
2.358786262087362218e+01
2.359786595531843645e+01
2.360786928976325072e+01
2.361787262420806854e+01
2.362787595865288282e+01
2.363787929309769709e+01
2.364788262754251136e+01
2.365788596198732563e+01
2.366788929643214345e+01
2.367789263087695772e+01
2.368789596532177200e+01
2.369789929976658627e+01
2.370790263421140054e+01
2.371790596865621836e+01
2.372790930310103263e+01
2.373791263754584691e+01
2.374791597199066118e+01
2.375791930643547545e+01
2.376792264088029327e+01
2.377792597532510754e+01
2.378792930976992182e+01
2.379793264421473609e+01
2.380793597865955036e+01
2.381793931310436463e+01
2.382794264754918245e+01
2.383794598199399672e+01
2.384794931643881100e+01
2.385795265088362527e+01
2.386795598532843954e+01
2.387795931977325736e+01
2.388796265421807163e+01
2.389796598866288591e+01
2.390796932310770018e+01
2.391797265755251445e+01
2.392797599199732872e+01
2.393797932644214654e+01
2.394798266088696082e+01
2.395798599533177509e+01
2.396798932977658936e+01
2.397799266422140363e+01
2.398799599866622145e+01
2.399799933311103572e+01
2.400800266755585000e+01
2.401800600200066427e+01
2.402800933644547854e+01
2.403801267089029636e+01
2.404801600533511063e+01
2.405801933977992491e+01
2.406802267422473918e+01
2.407802600866955345e+01
2.408802934311437127e+01
2.409803267755918554e+01
2.410803601200399982e+01
2.411803934644881409e+01
2.412804268089362836e+01
2.413804601533844263e+01
2.414804934978326045e+01
2.415805268422807472e+01
2.416805601867288900e+01
2.417805935311770327e+01
2.418806268756251754e+01
2.419806602200733536e+01
2.420806935645214963e+01
2.421807269089696391e+01
2.422807602534177818e+01
2.423807935978659245e+01
2.424808269423140672e+01
2.425808602867622454e+01
2.426808936312103882e+01
2.427809269756585309e+01
2.428809603201066736e+01
2.429809936645548163e+01
2.430810270090029945e+01
2.431810603534511372e+01
2.432810936978992800e+01
2.433811270423474227e+01
2.434811603867955654e+01
2.435811937312437436e+01
2.436812270756918863e+01
2.437812604201400291e+01
2.438812937645881718e+01
2.439813271090363145e+01
2.440813604534844927e+01
2.441813937979326354e+01
2.442814271423807782e+01
2.443814604868289209e+01
2.444814938312770636e+01
2.445815271757252063e+01
2.446815605201733845e+01
2.447815938646215272e+01
2.448816272090696700e+01
2.449816605535178127e+01
2.450816938979659554e+01
2.451817272424141336e+01
2.452817605868622763e+01
2.453817939313104191e+01
2.454818272757585618e+01
2.455818606202067045e+01
2.456818939646548472e+01
2.457819273091030254e+01
2.458819606535511681e+01
2.459819939979993109e+01
2.460820273424474536e+01
2.461820606868955963e+01
2.462820940313437745e+01
2.463821273757919172e+01
2.464821607202400600e+01
2.465821940646882027e+01
2.466822274091363454e+01
2.467822607535845236e+01
2.468822940980326663e+01
2.469823274424808091e+01
2.470823607869289518e+01
2.471823941313770945e+01
2.472824274758252727e+01
2.473824608202734154e+01
2.474824941647215581e+01
2.475825275091697009e+01
2.476825608536178436e+01
2.477825941980659863e+01
2.478826275425141645e+01
2.479826608869623072e+01
2.480826942314104500e+01
2.481827275758585927e+01
2.482827609203067354e+01
2.483827942647549136e+01
2.484828276092030563e+01
2.485828609536511991e+01
2.486828942980993418e+01
2.487829276425474845e+01
2.488829609869956272e+01
2.489829943314438054e+01
2.490830276758919481e+01
2.491830610203400909e+01
2.492830943647882336e+01
2.493831277092363763e+01
2.494831610536845545e+01
2.495831943981326972e+01
2.496832277425808400e+01
2.497832610870289827e+01
2.498832944314771254e+01
2.499833277759253036e+01
2.500833611203734463e+01
2.501833944648215891e+01
2.502834278092697318e+01
2.503834611537178745e+01
2.504834944981660527e+01
2.505835278426141954e+01
2.506835611870623381e+01
2.507835945315104809e+01
2.508836278759586236e+01
2.509836612204067663e+01
2.510836945648549445e+01
2.511837279093030872e+01
2.512837612537512300e+01
2.513837945981993727e+01
2.514838279426475154e+01
2.515838612870956936e+01
2.516838946315438363e+01
2.517839279759919791e+01
2.518839613204401218e+01
2.519839946648882645e+01
2.520840280093364072e+01
2.521840613537845854e+01
2.522840946982327281e+01
2.523841280426808709e+01
2.524841613871290136e+01
2.525841947315771563e+01
2.526842280760253345e+01
2.527842614204734772e+01
2.528842947649216200e+01
2.529843281093697627e+01
2.530843614538179054e+01
2.531843947982660836e+01
2.532844281427142263e+01
2.533844614871623691e+01
2.534844948316105118e+01
2.535845281760586545e+01
2.536845615205068327e+01
2.537845948649549754e+01
2.538846282094031181e+01
2.539846615538512609e+01
2.540846948982994036e+01
2.541847282427475463e+01
2.542847615871957245e+01
2.543847949316438672e+01
2.544848282760920100e+01
2.545848616205401527e+01
2.546848949649882954e+01
2.547849283094364736e+01
2.548849616538846163e+01
2.549849949983327591e+01
2.550850283427809018e+01
2.551850616872290445e+01
2.552850950316771872e+01
2.553851283761253654e+01
2.554851617205735081e+01
2.555851950650216509e+01
2.556852284094697936e+01
2.557852617539179363e+01
2.558852950983661145e+01
2.559853284428142572e+01
2.560853617872624000e+01
2.561853951317105427e+01
2.562854284761586854e+01
2.563854618206068636e+01
2.564854951650550063e+01
2.565855285095031491e+01
2.566855618539512918e+01
2.567855951983994345e+01
2.568856285428476127e+01
2.569856618872957554e+01
2.570856952317438981e+01
2.571857285761920409e+01
2.572857619206401836e+01
2.573857952650883263e+01
2.574858286095365045e+01
2.575858619539846472e+01
2.576858952984327900e+01
2.577859286428809327e+01
2.578859619873290754e+01
2.579859953317772536e+01
2.580860286762253963e+01
2.581860620206735391e+01
2.582860953651216818e+01
2.583861287095698245e+01
2.584861620540179672e+01
2.585861953984661454e+01
2.586862287429142881e+01
2.587862620873624309e+01
2.588862954318105736e+01
2.589863287762587163e+01
2.590863621207068945e+01
2.591863954651550372e+01
2.592864288096031800e+01
2.593864621540513227e+01
2.594864954984994654e+01
2.595865288429476436e+01
2.596865621873957863e+01
2.597865955318439291e+01
2.598866288762920718e+01
2.599866622207402145e+01
2.600866955651883927e+01
2.601867289096365354e+01
2.602867622540846781e+01
2.603867955985328209e+01
2.604868289429809636e+01
2.605868622874291063e+01
2.606868956318772845e+01
2.607869289763254272e+01
2.608869623207735700e+01
2.609869956652217127e+01
2.610870290096698554e+01
2.611870623541180336e+01
2.612870956985661763e+01
2.613871290430143191e+01
2.614871623874624618e+01
2.615871957319106045e+01
2.616872290763587472e+01
2.617872624208069254e+01
2.618872957652550681e+01
2.619873291097032109e+01
2.620873624541513536e+01
2.621873957985994963e+01
2.622874291430476745e+01
2.623874624874958172e+01
2.624874958319439600e+01
2.625875291763921027e+01
2.626875625208402454e+01
2.627875958652884236e+01
2.628876292097365663e+01
2.629876625541847091e+01
2.630876958986328518e+01
2.631877292430809945e+01
2.632877625875291727e+01
2.633877959319773154e+01
2.634878292764254581e+01
2.635878626208736009e+01
2.636878959653217436e+01
2.637879293097698863e+01
2.638879626542180645e+01
2.639879959986662072e+01
2.640880293431143500e+01
2.641880626875624927e+01
2.642880960320106354e+01
2.643881293764588136e+01
2.644881627209069563e+01
2.645881960653550991e+01
2.646882294098032418e+01
2.647882627542513845e+01
2.648882960986995272e+01
2.649883294431477054e+01
2.650883627875958481e+01
2.651883961320439909e+01
2.652884294764921336e+01
2.653884628209402763e+01
2.654884961653884545e+01
2.655885295098365972e+01
2.656885628542847400e+01
2.657885961987328827e+01
2.658886295431810254e+01
2.659886628876292036e+01
2.660886962320773463e+01
2.661887295765254891e+01
2.662887629209736318e+01
2.663887962654217745e+01
2.664888296098699527e+01
2.665888629543180954e+01
2.666888962987662381e+01
2.667889296432143809e+01
2.668889629876625236e+01
2.669889963321106663e+01
2.670890296765588445e+01
2.671890630210069872e+01
2.672890963654551300e+01
2.673891297099032727e+01
2.674891630543514154e+01
2.675891963987995936e+01
2.676892297432477363e+01
2.677892630876958791e+01
2.678892964321440218e+01
2.679893297765921645e+01
2.680893631210403072e+01
2.681893964654884854e+01
2.682894298099366281e+01
2.683894631543847709e+01
2.684894964988329136e+01
2.685895298432810563e+01
2.686895631877292345e+01
2.687895965321773772e+01
2.688896298766255200e+01
2.689896632210736627e+01
2.690896965655218054e+01
2.691897299099699836e+01
2.692897632544181263e+01
2.693897965988662691e+01
2.694898299433144118e+01
2.695898632877625545e+01
2.696898966322107327e+01
2.697899299766588754e+01
2.698899633211070181e+01
2.699899966655551609e+01
2.700900300100033036e+01
2.701900633544514463e+01
2.702900966988996245e+01
2.703901300433477672e+01
2.704901633877959100e+01
2.705901967322440527e+01
2.706902300766921954e+01
2.707902634211403736e+01
2.708902967655885163e+01
2.709903301100366591e+01
2.710903634544848018e+01
2.711903967989329445e+01
2.712904301433810872e+01
2.713904634878292654e+01
2.714904968322774081e+01
2.715905301767255509e+01
2.716905635211736936e+01
2.717905968656218363e+01
2.718906302100700145e+01
2.719906635545181572e+01
2.720906968989663000e+01
2.721907302434144427e+01
2.722907635878625854e+01
2.723907969323107636e+01
2.724908302767589063e+01
2.725908636212070491e+01
2.726908969656551918e+01
2.727909303101033345e+01
2.728909636545515127e+01
2.729909969989996554e+01
2.730910303434477981e+01
2.731910636878959409e+01
2.732910970323440836e+01
2.733911303767922263e+01
2.734911637212404045e+01
2.735911970656885472e+01
2.736912304101366900e+01
2.737912637545848327e+01
2.738912970990329754e+01
2.739913304434811536e+01
2.740913637879292963e+01
2.741913971323774390e+01
2.742914304768255818e+01
2.743914638212737245e+01
2.744914971657218672e+01
2.745915305101700454e+01
2.746915638546181881e+01
2.747915971990663309e+01
2.748916305435144736e+01
2.749916638879626163e+01
2.750916972324107945e+01
2.751917305768589372e+01
2.752917639213070800e+01
2.753917972657552227e+01
2.754918306102033654e+01
2.755918639546515436e+01
2.756918972990996863e+01
2.757919306435478290e+01
2.758919639879959718e+01
2.759919973324441145e+01
2.760920306768922927e+01
2.761920640213404354e+01
2.762920973657885781e+01
2.763921307102367209e+01
2.764921640546848636e+01
2.765921973991330063e+01
2.766922307435811845e+01
2.767922640880293272e+01
2.768922974324774700e+01
2.769923307769256127e+01
2.770923641213737554e+01
2.771923974658219336e+01
2.772924308102700763e+01
2.773924641547182190e+01
2.774924974991663618e+01
2.775925308436145045e+01
2.776925641880626472e+01
2.777925975325108254e+01
2.778926308769589681e+01
2.779926642214071109e+01
2.780926975658552536e+01
2.781927309103033963e+01
2.782927642547515745e+01
2.783927975991997172e+01
2.784928309436478600e+01
2.785928642880960027e+01
2.786928976325441454e+01
2.787929309769923236e+01
2.788929643214404663e+01
2.789929976658886090e+01
2.790930310103367518e+01
2.791930643547848945e+01
2.792930976992330727e+01
2.793931310436812154e+01
2.794931643881293581e+01
2.795931977325775009e+01
2.796932310770256436e+01
2.797932644214737863e+01
2.798932977659219645e+01
2.799933311103701072e+01
2.800933644548182500e+01
2.801933977992663927e+01
2.802934311437145354e+01
2.803934644881627136e+01
2.804934978326108563e+01
2.805935311770589990e+01
2.806935645215071418e+01
2.807935978659552845e+01
2.808936312104034272e+01
2.809936645548516054e+01
2.810936978992997481e+01
2.811937312437478909e+01
2.812937645881960336e+01
2.813937979326441763e+01
2.814938312770923545e+01
2.815938646215404972e+01
2.816938979659886400e+01
2.817939313104367827e+01
2.818939646548849254e+01
2.819939979993331036e+01
2.820940313437812463e+01
2.821940646882293890e+01
2.822940980326775318e+01
2.823941313771256745e+01
2.824941647215738527e+01
2.825941980660219954e+01
2.826942314104701381e+01
2.827942647549182809e+01
2.828942980993664236e+01
2.829943314438145663e+01
2.830943647882627445e+01
2.831943981327108872e+01
2.832944314771590300e+01
2.833944648216071727e+01
2.834944981660553154e+01
2.835945315105034936e+01
2.836945648549516363e+01
2.837945981993997790e+01
2.838946315438479218e+01
2.839946648882960645e+01
2.840946982327442072e+01
2.841947315771923854e+01
2.842947649216405281e+01
2.843947982660886709e+01
2.844948316105368136e+01
2.845948649549849563e+01
2.846948982994331345e+01
2.847949316438812772e+01
2.848949649883294200e+01
2.849949983327775627e+01
2.850950316772257054e+01
2.851950650216738836e+01
2.852950983661220263e+01
2.853951317105701690e+01
2.854951650550183118e+01
2.855951983994664545e+01
2.856952317439146327e+01
2.857952650883627754e+01
2.858952984328109181e+01
2.859953317772590609e+01
2.860953651217072036e+01
2.861953984661553463e+01
2.862954318106035245e+01
2.863954651550516672e+01
2.864954984994998100e+01
2.865955318439479527e+01
2.866955651883960954e+01
2.867955985328442736e+01
2.868956318772924163e+01
2.869956652217405590e+01
2.870956985661887018e+01
2.871957319106368445e+01
2.872957652550849872e+01
2.873957985995331654e+01
2.874958319439813081e+01
2.875958652884294509e+01
2.876958986328775936e+01
2.877959319773257363e+01
2.878959653217739145e+01
2.879959986662220572e+01
2.880960320106702000e+01
2.881960653551183427e+01
2.882960986995664854e+01
2.883961320440146636e+01
2.884961653884628063e+01
2.885961987329109490e+01
2.886962320773590918e+01
2.887962654218072345e+01
2.888962987662554127e+01
2.889963321107035554e+01
2.890963654551516981e+01
2.891963987995998409e+01
2.892964321440479836e+01
2.893964654884961263e+01
2.894964988329443045e+01
2.895965321773924472e+01
2.896965655218405900e+01
2.897965988662887327e+01
2.898966322107368754e+01
2.899966655551850536e+01
2.900966988996331963e+01
2.901967322440813390e+01
2.902967655885294818e+01
2.903967989329776245e+01
2.904968322774257672e+01
2.905968656218739454e+01
2.906968989663220881e+01
2.907969323107702309e+01
2.908969656552183736e+01
2.909969989996665163e+01
2.910970323441146945e+01
2.911970656885628372e+01
2.912970990330109800e+01
2.913971323774591227e+01
2.914971657219072654e+01
2.915971990663554436e+01
2.916972324108035863e+01
2.917972657552517290e+01
2.918972990996998718e+01
2.919973324441480145e+01
2.920973657885961927e+01
2.921973991330443354e+01
2.922974324774924781e+01
2.923974658219406209e+01
2.924974991663887636e+01
2.925975325108369063e+01
2.926975658552850845e+01
2.927975991997332272e+01
2.928976325441813700e+01
2.929976658886295127e+01
2.930976992330776554e+01
2.931977325775258336e+01
2.932977659219739763e+01
2.933977992664221190e+01
2.934978326108702618e+01
2.935978659553184045e+01
2.936978992997665472e+01
2.937979326442147254e+01
2.938979659886628681e+01
2.939979993331110109e+01
2.940980326775591536e+01
2.941980660220072963e+01
2.942980993664554745e+01
2.943981327109036172e+01
2.944981660553517600e+01
2.945981993997999027e+01
2.946982327442480454e+01
2.947982660886962236e+01
2.948982994331443663e+01
2.949983327775925090e+01
2.950983661220406518e+01
2.951983994664887945e+01
2.952984328109369727e+01
2.953984661553851154e+01
2.954984994998332581e+01
2.955985328442814009e+01
2.956985661887295436e+01
2.957985995331776863e+01
2.958986328776258645e+01
2.959986662220740072e+01
2.960986995665221500e+01
2.961987329109702927e+01
2.962987662554184354e+01
2.963987995998666136e+01
2.964988329443147563e+01
2.965988662887628990e+01
2.966988996332110418e+01
2.967989329776591845e+01
2.968989663221073272e+01
2.969989996665555054e+01
2.970990330110036481e+01
2.971990663554517909e+01
2.972990996998999336e+01
2.973991330443480763e+01
2.974991663887962545e+01
2.975991997332443972e+01
2.976992330776925400e+01
2.977992664221406827e+01
2.978992997665888254e+01
2.979993331110370036e+01
2.980993664554851463e+01
2.981993997999332890e+01
2.982994331443814318e+01
2.983994664888295745e+01
2.984994998332777527e+01
2.985995331777258954e+01
2.986995665221740381e+01
2.987995998666221809e+01
2.988996332110703236e+01
2.989996665555184663e+01
2.990996998999666445e+01
2.991997332444147872e+01
2.992997665888629300e+01
2.993997999333110727e+01
2.994998332777592154e+01
2.995998666222073936e+01
2.996998999666555363e+01
2.997999333111036790e+01
2.998999666555518218e+01
3.000000000000000000e+01
